site_id,device_type_cd,prn_device_id,battery1,battery2,battery3,create_dt
100000018,BAT,111121250011924104,111221140011924112,111221140011924111,,2020-03-23 03:23:47.076497
100000011,BAT,111121250011924107,111221140011924103,,,2020-02-04 02:26:46.241208
100000006,BAT,111121250011924108,111221140011924110,111221140011924101,,2020-01-17 02:22:33.439818
100000005,BAT,111121250011924110,111221140011924105,111221140011924108,,2020-01-17 02:17:52.431582
100000003,BAT,111121250011924201,HSBE4001HAI51098AA,111221140011924104,,2020-01-13 23:16:02.473348
100000032,BAT,111121250011924224,121221140012010423,121221140012010424,,2020-07-20 07:13:50.108582
100000027,BAT,111121250011924304,121221140012010315,121221140012010310,,2020-06-19 04:53:58.474390
100000026,BAT,111121250011924310,121221140011950305,,,2020-06-17 04:12:24.197042
100000025,BAT,111121250011924404,121221140012010421,121221140012010422,,2020-06-04 03:39:58.053686
100000035,BAT,111121250011924407,121221140012010419,,,2020-07-28 00:58:56.060438
100000034,BAT,111121250011924424,121221140012010503,121221140012010504,,2020-07-23 03:25:55.890420
100000031,BAT,111121250011925110,121221140012010505,121221140012010506,,2020-07-20 06:08:44.263773
100000028,BAT,121121250011945104,121221140012010418,,,2020-06-19 21:41:33.242837
100000023,BAT,121121250011945117,121221140011950303,,,2020-05-08 01:58:58.627562
100000039,BAT,121121250011945201,121221140012010312,121221140012010311,,2020-08-13 01:57:31.949993
100000030,BAT,121121250011945303,121221140011950301,,,2020-07-03 00:12:36.599388
100000040,BAT,121121250011945304,121221140012011102,,,2020-08-18 02:51:17.845697
100000036,BAT,121121250011945340,121221140012011105,,,2020-07-30 07:27:40.738967
100000112,BAT,HSHP4601QAJ09001AB,HSBE4001HAI51106AA,,,2020-01-05 23:37:14.873915
100000014,BAT,HSHP4601QAJ09002AB,HSBE4001HAI51097AA,,,2020-02-14 00:44:34.903447
100000022,BAT,HSHP4601QAJ09003AB,121221140011950304,,,2020-04-17 03:34:22.086284