^ptnr_id^|^ptnr_nm^|^cntry_cd^|^homepage^|^addr^|^latitude^|^longitude^|^pctr_file^|^pctr_file_path^|^pctr_file_disp_name^|^create_id^|^create_dt^|^update_id^|^update_dt^
^2^|Hanwha Q-Cells|DE|http://www.q-cells.de|Sonnenallee 13-21, 06766 Bitterfeld-Wolfen, Deutschland|51.641103|12.219118999999978|img001_ptnr_q_cells.jpg|/upload/ptnr/|~|admin|2015-09-10 12:35:42|esssales|2018-02-06 14:22:52
^13^|Sharp Italy|IT|http://www.sharp.it/it|Via Lampedusa 13, 20141 Milano|45.435528|9.188286|img005_ptnr_sharp_solar.jpg|/upload/ptnr/|~|admin|2015-09-10 12:35:42|~|~
^18^|Zeco|AU|http://www.zecoenergy.com.au/|^21-23 Aristoc Rd, Glen Waverley VIC 3150 오스트레일리아^|-37.88745809999999|145.1573409|jackpot_1461210976735.png|/upload/ptnr/|zeco.png|jackpot|2016-04-21 03:58:39|~|~
^10^|Sharp UK1|UK|http://www.sharp.eu|Edmund Halley Road Oxford Science Park, United Kingdom|51.715797|-1.2201139999999668|img005_ptnr_sharp_solar.jpg|/upload/ptnr/|~|admin|2015-09-10 12:35:42|service|2019-10-31 13:20:12
