^grp_id^|^device_id^|^device_type_cd^|^create_id^|^create_dt^
I000010109|AR00800080Z111101206X|RES|emshansol|2017-11-26 14:35:14
I000010296|HSHP4601QAJ09001AB|RES|HQAtest|2019-08-26 06:22:42
I000001246|AR00500108Z115A22009C|RES|essdev1|2017-06-08 09:12:51
I000010071|AR00460036Z115B13020D|RES|eservice|2017-07-24 10:39:32
I000010136|AR00460055Q117822007X|RES|eservice|2019-04-11 10:36:41
I000010106|AR00800080Z111101206X|RES|emshansol|2017-11-24 10:05:15
I000010108|AR00800080Z111101206X|RES|emshansol|2017-11-26 14:33:52
I000010111|AR00800080Z111101206X|RES|itester|2017-11-26 14:38:01
I000001406|AR00460036Z116323056D|RES|pieranisolarea|2016-12-05 00:05:08
I000010040|AR00460036Z114827041X|RES|mann|2017-04-12 11:16:40
I000010062|AR00460055Z115908043X|RES|service|2017-07-17 07:37:38
I000010040|AR00460036Z115203057X|RES|mann|2017-04-12 11:08:58
I000010040|AR00460036Z115203035X|RES|mann|2017-04-12 11:17:43
I000002080|AR00800080Q117817006X|RES|eservice|2019-08-28 13:57:59
I000010293|HSHP4601Z129999995|RES|emshansol|2019-08-28 00:24:42
I000010310|HSHP4601QAJ19232BA|RES|service|2019-08-28 07:13:49
I000010229|AR00800080Q117915040X|RES|emshansol|2018-11-21 01:56:47
I000001423|AR00460036Z114812040X|RES|serv1cesolhesse!|2016-12-05 13:18:01
I000001105|AR00460036Z114101001X|RES|jackpot|2017-01-19 01:29:51
I000010006|AR00460036Z116415009X|RES|Kempf_ebenergie|2016-12-21 09:27:01
I000010129|AR00460036Z114101076X|RES|emshansol|2018-01-26 07:25:54
I000010228|HSHP4601Z177770077|RES|emshansol|2019-06-17 05:34:25
I000010153|AR00460036Z116713014D|RES|MAZZOLAMICKYIMPIANTI|2018-04-09 17:25:36
I000010097|AR00800080Z101111001O|RES|itester|2017-10-20 02:40:03
I000010179|AR00460036Z116812030D|RES|eservice|2019-06-25 09:43:42
I000010179|AR00460036Z115A15027D|RES|eservice|2019-06-25 09:43:21
I000010074|AR00460036Z115406029X|RES|service|2017-07-25 09:49:13
I000010179|AR00460036Z115B16032D|RES|eservice|2019-06-25 09:43:32
I000010137|AR00460036Z115120004C|RES|zecoadmin|2019-08-19 02:52:11
I000010075|AR00800080Z111101009X|RES|itester|2017-07-27 02:49:09
I000010253|AR00460036Z114723007X|RES|$rennerz|2019-05-22 13:28:27
I000010031|AR00460036Z116611016A|RES|eservice|2019-08-07 08:56:10
I000010312|HSHP4601QAI37023AA|RES|service|2019-08-28 06:43:14
I000010293|HSHP4601Z177770077|RES|emshansol|2019-08-28 04:27:58
I000010309|HSHP4601Z177770077|RES|emshansol|2019-08-28 04:36:20
I000010000|AR00460036Z114701001X|RES|jackpot|2016-11-28 08:03:32
I000010030|AR00460036Z115120012C|RES|AZZOBattery|2017-03-26 23:59:43
I000010055|AR00460036Q117524010X|RES|eservice|2019-06-13 09:05:22
I000010055|AR00460036Z114827030X|RES|eservice|2019-06-13 09:05:09
I000010134|AR00500072Z115916002C|RES|service|2018-01-30 04:48:50
I000010133|HSHP4601Z177770077|RES|emshansol|2019-06-04 00:33:40
I000010055|AR00460036Z114827049X|RES|eservice|2019-06-13 09:05:39
I000010055|AR00460036Z114901064X|RES|eservice|2019-06-13 09:05:52
I000010055|AR00460036Z114C18061X|RES|eservice|2019-06-13 09:06:26
I000010055|AR00460036Z116328009X|RES|eservice|2019-06-13 09:06:42
I000010055|AR00460055Q117803014X|RES|eservice|2019-06-13 09:06:57
I000010055|AR00800080Q117821040X|RES|eservice|2019-06-13 09:07:29
I000010055|AR00800080Z115B17003X|RES|eservice|2019-06-13 09:07:48
I000010055|AR00800080Z115B17005X|RES|eservice|2019-06-13 09:08:02
I000010107|AR00800080Z111101206X|RES|emshansol|2017-11-24 10:08:00
I000010154|AR00460036Z116713014D|RES|MAZZOLAMICKYIMPIANTI|2018-04-09 18:05:09
I000010040|AR00460036Z115203022X|RES|mann|2017-04-12 11:13:07
I000010044|AR00800080Z111101206X|RES|emshansol|2017-11-26 14:32:24
I000010231|AR00460036Z115A07008A|RES|emshansol|2018-11-29 02:23:07
I000010294|HSHP4601Z129999995|RES|emshansol|2019-08-23 04:37:01
I000002084|AR00800080Q117818016X|RES|eservice|2019-08-23 08:35:15
I000010282|HSHP4601QAJ19177BA|RES|Hanwhaqcells|2019-08-12 11:05:16
I000010175|AR00460036Z116225011D|RES|emshansol|2018-06-11 01:53:39
I000010166|AR00500108H118405001C|RES|service|2019-04-16 06:32:38
I000010052|HSHP4601QAJ19235BA|RES|eservice|2019-08-07 08:06:38
I000010204|AR00800080Q117719807X|RES|eservice|2019-08-06 14:28:51
I000001156|AR00500108Z115A22009C|RES|essdev1|2017-06-07 06:03:19
I000010119|AR00800080Q117915034X|RES|emshansol|2019-05-03 11:23:23
I000010151|AR00800080Z101111001O|RES|emshansol|2018-04-06 12:47:55
I000010096|AR00460055Z103333003F|RES|emshansol|2017-10-18 06:37:11
I000010096|AR00460055Z102222002X|RES|emshansol|2017-10-18 06:37:11
I000010003|AR00800080Z115B18815X|RES|eservice|2018-04-24 12:31:24
I000010173|AR00460055Q118314001F|RES|service|2019-01-14 09:05:20
I000010180|AR00500108H117906004C|RES|emshansol|2018-07-19 04:50:37
I000010240|AR00460036Z116105022D|RES|service|2019-04-04 10:24:16
I000010181|HSHP4601Z100000999|RES|emshansol|2019-06-18 09:39:15
I000010054|AR00460036Z114911110X|RES|eservice|2017-06-26 16:53:38
I000010077|AR00460036Z114C03005X|RES|essdev1|2017-08-07 09:14:50
I000010239|AR00460055Q117713015D|RES|ELETTROCHELLI|2019-01-07 18:32:04
I000010073|AR00460036Z116423044D|RES|casamassari|2017-07-25 07:21:42
I000010302|HSHP4601QAJ09001AB|RES|HQAtest|2019-08-26 07:45:24
I000010001|AR00460036Z115610018D|RES|eservice|2019-06-24 08:08:00
I000010007|AR00460036Z116415009X|RES|Kempf_ebenergie|2016-12-21 10:23:37
I000010057|AR00460036Z111A10001D|RES|itester|2017-06-29 05:09:25
I000010057|AR00460055Z111810017X|RES|itester|2017-06-29 05:09:25
I000010057|AR00800080Z111101008X|RES|itester|2017-06-29 05:09:25
I000010058|AR00460036Z111A10001D|RES|itester|2017-06-29 05:10:15
I000010058|AR00460055Z111810017X|RES|itester|2017-06-29 05:10:15
I000010058|AR00800080Z111101008X|RES|itester|2017-06-29 05:10:15
I000010092|AR00460055H102222002F|RES|emshansol|2017-10-17 06:42:48
I000010110|AR00800080Z112112001X|RES|emshansol|2019-06-26 07:10:40
I000010061|AR00800080Z115B18011X|RES|emshansol|2017-07-06 00:31:37
I000001154|AR00460036Z114827035X|RES|jackpot|2016-09-19 23:10:53
I000002033|AR00460036Z115A09038A|RES|essdev1|2016-09-20 02:16:01
I000002060|AR00460036Z115902098A|RES|essdev1|2016-10-15 08:48:42
I000002013|AR00460055Z115610077X|RES|essdev1|2016-08-16 06:28:35
I000002012|AR00460036Z115A14015D|RES|essdev1|2016-08-16 06:27:39
I000002034|AR00460036Z115A09042A|RES|essdev1|2016-09-20 02:17:57
I000002019|AR00460036Z116319018D|RES|essdev1|2016-08-26 01:16:39
I000002036|AR00460036Z116322030D|RES|essdev1|2016-09-20 02:21:24
I000002035|AR00460036Z115B05009D|RES|essdev1|2016-09-20 02:19:32
I000001095|AR00460036Z114701001X|RES|jackpot|2016-11-23 09:05:31
I000002004|AR00460036Z114812032X|RES|tse|2016-08-04 08:52:30
I000002004|AR00460036Z114911048X|RES|tse|2016-08-04 08:52:30
I000002039|AR00460036Z115610012D|RES|essdev1|2016-09-21 04:38:56
I000002021|AR00460036Z116323054D|RES|essdev1|2016-08-30 03:18:25
I000002038|AR00460036Z116323067D|RES|essdev1|2016-09-21 04:38:04
I000002040|AR00460036Z115A08026A|RES|essdev1|2016-09-22 10:06:43
I000002056|AR00460036Z116423049D|RES|essdev1|2016-10-06 08:09:38
I000002024|AR00460036Z115714019D|RES|essdev1|2016-09-01 02:37:15
I000002041|AR00460036Z115304006A|RES|essdev1|2016-09-24 06:29:28
I000002028|AR00460036Z115817011D|RES|essdev1|2016-09-07 04:08:09
I000002058|AR00460036Z115120041C|RES|essdev1|2016-10-10 22:42:09
I000002082|AR00460036Z115902068A|RES|eservice|2016-11-22 14:50:55
I000002069|AR00460055Z115610026X|RES|essdev1|2016-10-31 04:13:05
I000002057|AR00460036Z114812016X|RES|jackpot|2016-10-10 05:04:47
I000001455|AR00460036Z115714010D|RES|essdev1|2016-10-28 00:53:50
I000002026|AR00460036Z116415019D|RES|essdev1|2016-09-05 03:49:02
I000002054|AR00460055Z115A06027X|RES|essdev1|2016-10-05 23:56:24
I000002055|AR00460036Z115610002D|RES|essdev1|2016-10-06 00:01:36
I000002071|AR00460036Z111000002X|RES|jackpot|2016-11-03 01:53:19
I000002071|AR00460036Z114101002X|RES|jackpot|2016-11-03 01:53:19
I000002005|AR00460036Z116323056D|RES|essdev1|2016-08-05 07:32:39
I000002064|AR00460036Z116528002D|RES|essdev1|2016-10-21 01:52:30
I000001389|AR00460036Z115714014D|RES|essdev1|2016-10-21 02:22:47
I000002027|AR00460036Z115902075A|RES|essdev1|2016-09-05 03:56:21
I000002066|AR00460036Z115610021D|RES|essdev1|2016-10-22 07:13:41
I000002061|AR00460036Z116415013D|RES|essdev1|2016-10-15 08:57:39
I000002030|AR00460036Z115714018D|RES|essdev1|2016-09-11 23:57:24
I000002031|AR00460036Z115B16027D|RES|essdev1|2016-09-12 02:35:17
I000002065|AR00460036Z116415004D|RES|essdev1|2016-10-21 01:54:33
I000002007|AR00460036Z114827024X|RES|essdev1|2016-08-08 23:57:23
I000002037|AR00460036Z115304042A|RES|essdev1|2016-09-21 04:33:50
I000002043|AR00460036Z116104002D|RES|Ecdomotic|2016-09-27 07:25:31
I000001397|AR00460036Z114911100X|RES|essdev1|2016-06-14 01:39:35
I000001396|AR00460036Z114911100X|RES|essdev1|2016-06-14 01:37:04
I000001147|AR00460055Z115610093X|RES|algatec|2015-12-20 10:06:10
I000001176|AR00460036Z114911124X|RES|sharp|2016-01-14 12:38:51
I000001398|AR00460036Z114102067A|RES|essdev1|2016-06-15 03:50:21
I000001366|AR00460036Z114102050A|RES|essdev1|2016-05-18 04:23:21
I000001410|AR00460036Z115113032A|RES|essdev1|2016-06-29 02:32:06
I000001456|AR00460036Z115817010D|RES|essdev1|2016-08-02 00:55:36
I000001435|AR00460036Z114B20002A|RES|essdev1|2016-07-18 10:07:39
I000001247|AR00460036Z115714039D|RES|essdev1|2016-03-04 07:00:45
I000001382|AR00460036Z115A08025A|RES|essdev1|2016-06-04 13:22:45
I000001381|AR00460036Z114102037A|RES|essdev1|2016-06-03 01:05:51
I000001386|AR00460036Z115902086A|RES|essdev1|2016-06-07 11:38:35
I000001391|AR00460036Z115304017A|RES|essdev1|2016-06-09 07:59:01
I000001098|AR00460036Z115B13025D|RES|jackpot|2016-05-30 12:31:49
I000001393|AR00460036Z116113001X|RES|essdev1|2016-06-09 11:26:35
I000001395|AR00460036Z115714002D|RES|essdev1|2016-06-13 09:20:49
I000001409|AR00460036Z115113032A|RES|essdev1|2016-06-29 02:22:02
I000002001|AR00460036Z116418038D|RES|essdev1|2016-08-03 05:10:17
I000002014|AR00460036Z116331075D|RES|essdev1|2016-08-22 01:58:47
I000002025|AR00460036Z115A14001D|RES|essdev1|2016-09-01 02:38:23
I000002025|AR00460036Z115714001D|RES|essdev1|2016-09-01 02:38:23
I000002049|AR00460036Z115120033C|RES|essdev1|2016-09-30 07:15:03
I000002050|AR00460036Z115A07002A|RES|essdev1|2016-10-04 01:18:53
I000001155|AR00500072Z115916005C|RES|essdev1|2016-08-16 04:57:12
I000002051|AR00460055Z116324001X|RES|essdev1|2016-10-04 01:21:00
I000002052|AR00460036Z114102068A|RES|essdev1|2016-10-04 01:23:58
I000002059|AR00460036Z115610040D|RES|essdev1|2016-10-14 04:09:01
I000002062|AR00460036Z116319011D|RES|essdev1|2016-10-18 00:30:31
I000002063|AR00460036Z115203018X|RES|essdev1|2016-10-19 01:48:49
I000001395|AR00460036Z116104002D|RES|essdev1|2016-10-21 02:25:10
I000001136|AR00460036Z114911023X|RES|algatec|2015-12-04 07:58:10
I000001192|AR00460036Z115714020D|RES|esscs1|2016-01-25 07:42:00
I000001191|AR00460036Z115714020D|RES|esscs1|2016-01-25 07:24:38
I000001270|AR00460036Z115217028A|RES|jackpot|2016-03-22 06:15:32
I000001438|AR00460036Z114102041A|RES|essdev1|2016-07-21 05:41:30
I000001229|AR00460036Z115324031X|RES|essdev1|2016-02-27 06:48:29
I000001177|AR00460036Z114911124X|RES|sharp|2016-01-15 11:19:27
I000001167|AR00500072Z115A20008C|RES|SAPN_RESP|2016-01-05 06:17:06
I000001225|AR00460036Z114102050A|RES|jackpot|2016-02-23 10:00:19
I000001245|AR00460036Z115817002D|RES|sistemaenergia|2016-03-03 08:16:29
I000001195|AR00460036Z114102050A|RES|essdev1|2016-01-27 04:25:59
I000001368|AR00460036Z115610042D|RES|essdev1|2016-05-23 01:05:16
I000001375|AR00460036Z115406028X|RES|essdev1|2016-05-30 05:08:08
I000001376|AR00460036Z115714042D|RES|essdev1|2016-05-30 05:16:21
I000001368|AR00460036Z115B13025D|RES|essdev1|2016-05-27 10:08:18
I000001389|AR00460036Z115A14014D|RES|essdev1|2016-06-08 09:14:42
I000001390|AR00460036Z115902012A|RES|essdev1|2016-06-09 07:56:01
I000001437|AR00460036Z115902080A|RES|essdev1|2016-07-21 04:08:18
I000001363|AR00460036Z114102059A|RES|essdev1|2016-05-18 01:41:03
I000001402|AR00460036Z115B13025D|RES|essdev1|2016-06-23 01:34:30
I000001365|AR00460036Z115213058X|RES|essdev1|2016-05-18 01:59:06
I000001454|AR00460036Z116225017D|RES|essdev1|2016-07-29 04:48:19
I000001453|AR00460036Z115610031D|RES|essdev1|2016-07-29 04:45:44
I000001362|AR00460036Z115610042D|RES|essdev1|2016-05-17 08:06:42
I000001363|AR00460036Z115714010D|RES|essdev1|2016-05-18 01:41:40
I000001099|AR00460036Z115610042D|RES|jackpot|2016-05-30 02:17:57
I000001408|AR00460036Z115B05008D|RES|essdev1|2016-06-27 05:01:04
I000001388|AR00460036Z114102010A|RES|essdev1|2016-06-08 00:36:15
I000001378|AR00460036Z115324033X|RES|essdev1|2016-05-30 23:59:35
I000001407|AR00460036Z115902023A|RES|essdev1|2016-06-27 04:59:23
I000001421|AR00460036Z114102046A|RES|essdev1|2016-07-08 04:38:30
I000001455|AR00460036Z116104010D|RES|essdev1|2016-08-01 04:59:09
I000001368|AR00460036Z115902084A|RES|essdev1|2016-05-23 01:04:51
I000001198|AR00460036Z115610038D|RES|essdev1|2016-02-01 01:30:09
I000001368|AR00460036Z115324033X|RES|essdev1|2016-05-23 01:06:03
I000001371|AR00460036Z115B13025D|RES|essdev1|2016-05-26 12:07:03
I000001369|AR00460036Z114723002X|RES|essdev1|2016-05-26 04:24:54
I000001370|AR00460036Z114723002X|RES|essdev1|2016-05-26 06:24:55
I000001096|AR00460036Z114911052X|RES|jackpot|2015-11-23 05:16:26
I000001174|AR00460036Z114911124X|RES|sharp|2016-01-14 12:47:24
I000001363|AR00460036Z115310058X|RES|essdev1|2016-05-18 01:41:23
I000001365|AR00460036Z114901039X|RES|essdev1|2016-05-18 01:58:45
I000001413|AR00460036Z115714001D|RES|tenprogram|2016-07-02 13:12:13
I000001405|AR00460036Z115B13025D|RES|essdev1|2016-06-24 13:33:19
I000001359|AR00460036Z115304040A|RES|essdev1|2016-05-13 00:33:48
I000001136|AR00460036Z114901051X|RES|algatec|2015-12-20 10:03:31
I000001203|AR00460055Z115610092X|RES|serv1cesolhesse!|2016-02-09 13:08:01
I000001419|AR00460036Z115817007D|RES|essdev1|2016-07-04 08:19:23
I000001358|AR00460036Z115310058X|RES|essdev1|2016-05-13 00:30:02
I000001434|AR00460036Z115902076A|RES|essdev1|2016-07-18 10:06:27
I000001204|AR00460036Z114102036A|RES|jackpot|2016-03-01 05:31:06
I000001399|AR00460036Z115610042D|RES|essdev1|2016-06-16 10:09:12
I000001262|AR00460036Z114911067X|RES|samsung66709|2016-03-16 22:49:03
I000001457|AR00460036Z114723014X|RES|essdev1|2016-08-02 01:55:29
I000001426|AR00460036Z115902105A|RES|essdev1|2016-07-11 03:53:09
I000001367|AR00460036Z115902084A|RES|dhsrenewables|2016-05-20 12:15:48
I000001400|AR00460036Z115B13010D|RES|essdev1|2016-06-20 09:32:14
I000001401|AR00460036Z114C18005C|RES|essdev1|2016-06-20 09:48:15
I000001425|AR00460055Z115610117X|RES|essdev1|2016-07-10 23:48:00
I000001427|AR00460036Z115B16041D|RES|essdev1|2016-07-11 04:36:09
I000001431|AR00460036Z115304009A|RES|essdev1|2016-07-18 10:02:24
I000001432|AR00460036Z115A15023D|RES|essdev1|2016-07-18 10:04:02
I000001173|AR00460036Z114723020X|RES|krannich|2016-01-13 09:16:51
I000001173|AR00460036Z114911007X|RES|krannich|2016-01-13 09:16:51
I000001417|AR00460036Z115203002X|RES|essdev1|2016-07-03 10:24:10
I000001415|AR00460036Z115714009D|RES|essdev1|2016-07-03 08:57:35
I000001416|AR00460036Z115B13010D|RES|essdev1|2016-07-03 09:01:15
I000001353|AR00460036Z115A08020A|RES|andytyler|2016-05-05 14:32:23
I000001290|AR00460036Z114C18007C|RES|essdev1|2016-03-29 07:43:52
I000001187|AR00460036Z114102055A|RES|dhsrenewables|2016-01-21 17:40:12
I000001199|AR00460036Z115610038D|RES|essdev1|2016-02-01 01:31:01
I000001336|AR00460036Z114101049X|RES|eness|2016-04-22 15:08:36
I000002015|AR00460036Z115817027D|RES|essdev1|2016-08-22 02:04:15
I000002016|AR00460036Z115902041A|RES|essdev1|2016-08-22 02:11:30
I000002018|AR00460036Z115902036A|RES|essdev1|2016-08-25 06:17:13
I000002020|AR00460036Z115113006A|RES|essdev1|2016-08-28 23:49:33
I000002032|AR00460036Z114B20022A|RES|essdev1|2016-09-20 02:11:59
I000002070|AR00460055Z115610114X|RES|essdev1|2016-11-01 06:08:26
I000002029|AR00460036Z115B13012D|RES|essdev1|2016-09-08 10:35:40
I000002045|AR00460036Z116322035D|RES|pieranisolarea|2016-09-27 18:35:58
I000010115|AR00500108H117529003C|RES|emshansol|2017-11-27 03:24:55
I000010004|AR00460036Z116427025X|RES|eswe|2016-12-15 14:39:36
I000010044|AR00460055Z111810017X|RES|emshansol|2017-04-25 11:39:09
I000010149|AR00460036Z116517031X|RES|eservice|2018-04-12 14:16:44
I000010050|AR00500108Z116C01002C|RES|emshansol|2017-06-15 04:50:50
I000010167|AR00460036Z115113005A|RES|eservice|2019-02-14 10:43:53
I000010261|AR00460036Z116606857D|RES|eservice|2019-06-17 07:17:58
I000010273|AR00460036Q118421063X|RES|DZ-4GmbH|2019-07-04 10:19:00
I000010135|AR00460036Z115902034A|RES|service|2018-06-08 07:08:05
I000010275|AR00460036Z115120002C|RES|emshansol|2019-07-08 06:21:27
I000010060|AR00800080Z115B18011X|RES|emshansol|2017-07-06 00:30:32
I000010232|HSHP4601Z100000321|RES|emshansol|2018-12-05 07:57:18
I000010114|AR00500108Z100000000C|RES|emshansol|2017-12-04 05:24:26
I000010121|AR00460036Z116318008D|RES|service|2018-01-11 02:39:07
I000010307|HSHP4601Z129999995|RES|emshansol|2019-08-27 10:16:45
I000010174|AR00460036Z116225011D|RES|emshansol|2018-06-08 09:51:16
I000010182|AR00800080Q117912010X|RES|QCell_installer|2018-07-31 12:53:55
I000010234|AR00460036Z116105022D|RES|service|2019-04-08 02:14:38
I000010265|AR00800080QI17B13009X|RES|YelloSolarService|2019-06-21 13:36:34
I000002083|AR00460036Z115113016A|RES|eservice|2019-06-24 10:20:41
I000010069|AR00460055Z101A10001D|RES|itester|2017-07-19 06:58:29
I000010101|HSHP4601QAJ19038BA|RES|service|2019-08-22 09:37:36
I000010184|AR00460036Z115217028A|RES|service|2018-08-30 09:49:38
I000002079|AR00460036Z116323064D|RES|eservice|2019-08-22 14:09:44
I000010059|AR00460036Z115113005A|RES|eservice|2019-05-07 13:55:10
I000010131|HSHP4601Z121212121|RES|emshansol|2018-10-01 00:27:07
I000010255|HSHP4601QAI37010AA|RES|Solairebox|2019-05-30 16:39:53
