^product_model_type_cd^|^alarm_type_cd^|^alarm_cd^|^apply_user_flag^|^apply_instlr_flag^|^apply_oprtr_flag^|^apply_admin_flag^|^noti_user_flag^|^noti_instlr_flag^|^noti_oprtr_flag^|^noti_admin_flag^|^create_id^|^create_dt^|^update_id^|^update_dt^|^alarm_title^|^alarm_desc^
HSHP4601|^1^|C128|~|~|~|~|N|N|N|N|SYSTEM|2015-09-16 15:38:24|service|2018-10-23 01:53:51|code.alarmtitle.elsr802.c128|code.alarmdesc.elsr802.c128
HSHP4601|^2^|E005|~|~|~|~|N|N|N|N|SYSTEM|2015-09-16 15:38:23|service|2018-10-23 01:53:51|code.alarmtitle.elsr802.e005|code.alarmdesc.elsr802.e005
HSHP4601|^2^|E006|~|~|~|~|N|N|N|N|SYSTEM|2015-09-16 15:38:23|service|2018-10-23 01:53:51|code.alarmtitle.elsr802.e006|code.alarmdesc.elsr802.e006
HSHP4601|^2^|E007|~|~|~|~|N|N|N|N|SYSTEM|2015-09-16 15:38:23|service|2018-10-23 01:53:51|code.alarmtitle.elsr802.e007|code.alarmdesc.elsr802.e007
HSHP4601|^2^|E103|~|~|~|~|N|N|N|N|SYSTEM|2015-09-16 15:38:23|service|2018-10-23 01:53:51|code.alarmtitle.elsr802.e103|code.alarmdesc.elsr802.e103
HSHP4601|^2^|E104|~|~|~|~|N|N|N|N|SYSTEM|2015-09-16 15:38:23|service|2018-10-23 01:53:51|code.alarmtitle.elsr802.e104|code.alarmdesc.elsr802.e104
HSHP4601|^2^|E420|~|~|~|~|N|N|N|N|SYSTEM|2015-09-16 15:38:23|service|2018-10-23 01:53:51|code.alarmtitle.elsr802.e420|code.alarmdesc.elsr802.e420
HSHP4601|^2^|E421|~|~|~|~|N|N|N|N|SYSTEM|2015-09-16 15:38:23|service|2018-10-23 01:53:51|code.alarmtitle.elsr802.e421|code.alarmdesc.elsr802.e421
HSHP4601|^2^|E422|~|~|~|~|N|N|N|N|SYSTEM|2015-09-16 15:38:23|service|2018-10-23 01:53:51|code.alarmtitle.elsr802.e422|code.alarmdesc.elsr802.e422
HSHP4601|^2^|E603|~|~|~|~|N|N|N|N|SYSTEM|2015-09-16 15:38:23|service|2018-10-23 01:53:51|code.alarmtitle.elsr802.e603|code.alarmdesc.elsr802.e603
HSHP4601|^3^|E903|~|~|~|~|N|Y|Y|Y|SYSTEM|2015-09-16 15:38:23|service|2018-10-23 01:53:51|code.alarmtitle.elsr802.e903|code.alarmdesc.elsr802.e903
HSHP4601|^3^|E909|~|~|~|~|N|Y|Y|Y|SYSTEM|2015-09-16 15:38:24|service|2018-10-23 01:53:51|code.alarmtitle.elsr802.e909|code.alarmdesc.elsr802.e909
HSHP4601|^3^|E911|~|~|~|~|N|Y|Y|Y|SYSTEM|2015-09-16 15:38:24|service|2018-10-23 01:53:51|code.alarmtitle.elsr802.e911|code.alarmdesc.elsr802.e911
HSHP4601|^3^|E912|~|~|~|~|N|Y|Y|Y|SYSTEM|2015-09-16 15:38:24|service|2018-10-23 01:53:51|code.alarmtitle.elsr802.e912|code.alarmdesc.elsr802.e912
HHQC4601|^1^|C128|~|~|~|~|N|N|N|N|SYSTEM|2019-08-05 10:52:18|service|2019-08-05 10:52:18|code.alarmtitle.elsr802.c128|code.alarmdesc.elsr802.c128
HHQC4601|^2^|E005|~|~|~|~|N|N|N|N|SYSTEM|2019-08-05 10:52:18|service|2019-08-05 10:52:18|code.alarmtitle.elsr802.e005|code.alarmdesc.elsr802.e005
HHQC4601|^2^|E006|~|~|~|~|N|N|N|N|SYSTEM|2019-08-05 10:52:18|service|2019-08-05 10:52:18|code.alarmtitle.elsr802.e006|code.alarmdesc.elsr802.e006
HHQC4601|^2^|E007|~|~|~|~|N|N|N|N|SYSTEM|2019-08-05 10:52:18|service|2019-08-05 10:52:18|code.alarmtitle.elsr802.e007|code.alarmdesc.elsr802.e007
HHQC4601|^2^|E103|~|~|~|~|N|N|N|N|SYSTEM|2019-08-05 10:52:18|service|2019-08-05 10:52:18|code.alarmtitle.elsr802.e103|code.alarmdesc.elsr802.e103
HHQC4601|^2^|E104|~|~|~|~|N|N|N|N|SYSTEM|2019-08-05 10:52:18|service|2019-08-05 10:52:18|code.alarmtitle.elsr802.e104|code.alarmdesc.elsr802.e104
HHQC4601|^2^|E420|~|~|~|~|N|N|N|N|SYSTEM|2019-08-05 10:52:18|service|2019-08-05 10:52:18|code.alarmtitle.elsr802.e420|code.alarmdesc.elsr802.e420
HHQC4601|^2^|E421|~|~|~|~|N|N|N|N|SYSTEM|2019-08-05 10:52:18|service|2019-08-05 10:52:18|code.alarmtitle.elsr802.e421|code.alarmdesc.elsr802.e421
HHQC4601|^2^|E422|~|~|~|~|N|N|N|N|SYSTEM|2019-08-05 10:52:18|service|2019-08-05 10:52:18|code.alarmtitle.elsr802.e422|code.alarmdesc.elsr802.e422
HHQC4601|^2^|E603|~|~|~|~|N|N|N|N|SYSTEM|2019-08-05 10:52:18|service|2019-08-05 10:52:18|code.alarmtitle.elsr802.e603|code.alarmdesc.elsr802.e603
HHQC4601|^3^|E903|~|~|~|~|N|Y|Y|Y|SYSTEM|2019-08-05 10:52:18|service|2019-08-05 10:52:18|code.alarmtitle.elsr802.e903|code.alarmdesc.elsr802.e903
HHQC4601|^3^|E909|~|~|~|~|N|Y|Y|Y|SYSTEM|2019-08-05 10:52:18|service|2019-08-05 10:52:18|code.alarmtitle.elsr802.e909|code.alarmdesc.elsr802.e909
HHQC4601|^3^|E911|~|~|~|~|N|Y|Y|Y|SYSTEM|2019-08-05 10:52:18|service|2019-08-05 10:52:18|code.alarmtitle.elsr802.e911|code.alarmdesc.elsr802.e911
HHQC4601|^3^|E912|~|~|~|~|N|Y|Y|Y|SYSTEM|2019-08-05 10:52:18|service|2019-08-05 10:52:18|code.alarmtitle.elsr802.e912|code.alarmdesc.elsr802.e912
ELSR362|^3^|E202|~|~|~|~|N|N|N|Y|SYSTEM|2018-12-18 17:16:21|service|2019-01-15 08:21:31|code.alarmtitle.elsr722.e202|code.alarmdesc.elsr722.e202
ELSR552|^3^|E202|~|~|~|~|N|N|N|Y|SYSTEM|2018-12-18 17:16:21|service|2018-12-19 01:24:16|code.alarmtitle.elsr722.e202|code.alarmdesc.elsr722.e202
ELSR722|^3^|E106|~|~|~|~|N|N|N|N|SYSTEM|2015-09-16 15:38:21|service|2018-06-01 06:40:39|code.alarmtitle.elsr722.e106|code.alarmdesc.elsr722.e106
ELSR722|^3^|E107|~|~|~|~|N|N|N|N|SYSTEM|2015-09-16 15:38:21|service|2018-06-01 06:40:39|code.alarmtitle.elsr722.e107|code.alarmdesc.elsr722.e107
ELSR722|^3^|E108|~|~|~|~|N|N|N|N|SYSTEM|2015-09-16 15:38:21|service|2018-06-01 06:40:39|code.alarmtitle.elsr722.e108|code.alarmdesc.elsr722.e108
ELSR722|^3^|E109|~|~|~|~|N|N|N|N|SYSTEM|2015-09-16 15:38:21|service|2018-06-01 06:40:39|code.alarmtitle.elsr722.e109|code.alarmdesc.elsr722.e109
ELSR722|^3^|E110|~|~|~|~|N|N|N|N|SYSTEM|2015-09-16 15:38:21|service|2018-06-01 06:40:39|code.alarmtitle.elsr722.e110|code.alarmdesc.elsr722.e110
ELSR722|^3^|E111|~|~|~|~|N|N|N|N|SYSTEM|2015-09-16 15:38:21|service|2018-06-01 06:40:39|code.alarmtitle.elsr722.e111|code.alarmdesc.elsr722.e111
ELSR722|^3^|E114|~|~|~|~|N|N|N|N|SYSTEM|2015-09-16 15:38:21|service|2018-06-01 06:40:39|code.alarmtitle.elsr722.e114|code.alarmdesc.elsr722.e114
ELSR722|^3^|E115|~|~|~|~|N|N|N|N|SYSTEM|2015-09-16 15:38:21|service|2018-06-01 06:40:39|code.alarmtitle.elsr722.e115|code.alarmdesc.elsr722.e115
ELSR722|^2^|E116|~|~|~|~|N|N|N|N|SYSTEM|2015-09-16 15:38:21|service|2018-06-01 06:40:39|code.alarmtitle.elsr722.e116|code.alarmdesc.elsr722.e116
ELSR722|^2^|E117|~|~|~|~|N|N|N|N|SYSTEM|2015-09-16 15:38:21|service|2018-06-01 06:40:39|code.alarmtitle.elsr722.e117|code.alarmdesc.elsr722.e117
ELSR722|^2^|E118|~|~|~|~|N|N|N|N|SYSTEM|2015-09-16 15:38:21|service|2018-06-01 06:40:39|code.alarmtitle.elsr722.e118|code.alarmdesc.elsr722.e118
ELSR722|^3^|E119|~|~|~|~|N|N|N|N|SYSTEM|2015-09-16 15:38:21|service|2018-06-01 06:40:39|code.alarmtitle.elsr722.e119|code.alarmdesc.elsr722.e119
ELSR722|^3^|E120|~|~|~|~|N|N|N|N|SYSTEM|2015-09-16 15:38:21|service|2018-06-01 06:40:39|code.alarmtitle.elsr722.e120|code.alarmdesc.elsr722.e120
ELSR722|^3^|E122|~|~|~|~|N|N|N|N|SYSTEM|2015-09-16 15:38:21|service|2018-06-01 06:40:39|code.alarmtitle.elsr722.e122|code.alarmdesc.elsr722.e122
ELSR722|^3^|E123|~|~|~|~|N|N|N|N|SYSTEM|2015-09-16 15:38:21|service|2018-06-01 06:40:39|code.alarmtitle.elsr722.e123|code.alarmdesc.elsr722.e123
ELSR722|^3^|E125|~|~|~|~|N|N|N|N|SYSTEM|2015-09-16 15:38:21|service|2018-06-01 06:40:39|code.alarmtitle.elsr722.e125|code.alarmdesc.elsr722.e125
ELSR722|^3^|E126|~|~|~|~|N|N|N|N|SYSTEM|2015-09-16 15:38:21|service|2018-06-01 06:40:39|code.alarmtitle.elsr722.e126|code.alarmdesc.elsr722.e126
ELSR722|^3^|E127|~|~|~|~|N|N|N|N|SYSTEM|2015-09-16 15:38:21|service|2018-06-01 06:40:39|code.alarmtitle.elsr722.e127|code.alarmdesc.elsr722.e127
ELSR722|^3^|E128|~|~|~|~|N|N|N|N|SYSTEM|2015-09-16 15:38:21|service|2018-06-01 06:40:39|code.alarmtitle.elsr722.e128|code.alarmdesc.elsr722.e128
ELSR722|^3^|E129|~|~|~|~|N|N|N|N|SYSTEM|2015-09-16 15:38:21|service|2018-06-01 06:40:39|code.alarmtitle.elsr722.e129|code.alarmdesc.elsr722.e129
ELSR722|^3^|E130|~|~|~|~|N|N|N|N|SYSTEM|2015-09-16 15:38:21|service|2018-06-01 06:40:39|code.alarmtitle.elsr722.e130|code.alarmdesc.elsr722.e130
ELSR722|^1^|E131|~|~|~|~|N|N|N|N|SYSTEM|2015-09-16 15:38:21|service|2018-06-01 06:40:39|code.alarmtitle.elsr722.e131|code.alarmdesc.elsr722.e131
ELSR722|^3^|E410|~|~|~|~|N|N|N|N|SYSTEM|2015-09-16 15:38:21|service|2018-06-01 06:40:39|code.alarmtitle.elsr722.e410|code.alarmdesc.elsr722.e410
ELSR722|^3^|E411|~|~|~|~|N|N|N|N|SYSTEM|2015-09-16 15:38:21|service|2018-06-01 06:40:39|code.alarmtitle.elsr722.e411|code.alarmdesc.elsr722.e411
ELSR722|^3^|E448|~|~|~|~|N|N|N|N|SYSTEM|2015-09-16 15:38:21|service|2018-06-01 06:40:39|code.alarmtitle.elsr722.e448|code.alarmdesc.elsr722.e448
ELSR722|^3^|E455|~|~|~|~|N|N|N|N|SYSTEM|2015-09-16 15:38:21|service|2018-06-01 06:40:39|code.alarmtitle.elsr722.e455|code.alarmdesc.elsr722.e455
ELSR722|^3^|E456|~|~|~|~|N|N|N|N|SYSTEM|2015-09-16 15:38:21|service|2018-06-01 06:40:39|code.alarmtitle.elsr722.e456|code.alarmdesc.elsr722.e456
ELSR722|^3^|E458|~|~|~|~|N|N|N|N|SYSTEM|2015-09-16 15:38:21|service|2018-06-01 06:40:39|code.alarmtitle.elsr722.e458|code.alarmdesc.elsr722.e458
ELSR722|^3^|E459|~|~|~|~|N|N|N|N|SYSTEM|2015-09-16 15:38:21|service|2018-06-01 06:40:39|code.alarmtitle.elsr722.e459|code.alarmdesc.elsr722.e459
ELSR722|^3^|E460|~|~|~|~|N|N|N|N|SYSTEM|2015-09-16 15:38:21|service|2018-06-01 06:40:39|code.alarmtitle.elsr722.e460|code.alarmdesc.elsr722.e460
ELSR722|^3^|E461|~|~|~|~|N|N|N|N|SYSTEM|2015-09-16 15:38:21|service|2018-06-01 06:40:39|code.alarmtitle.elsr722.e461|code.alarmdesc.elsr722.e461
ELSR722|^3^|E462|~|~|~|~|N|N|N|N|SYSTEM|2015-09-16 15:38:21|service|2018-06-01 06:40:39|code.alarmtitle.elsr722.e462|code.alarmdesc.elsr722.e462
ELSR722|^3^|E463|~|~|~|~|N|N|N|N|SYSTEM|2015-09-16 15:38:21|service|2018-06-01 06:40:39|code.alarmtitle.elsr722.e463|code.alarmdesc.elsr722.e463
ELSR722|^3^|E464|~|~|~|~|N|N|N|N|SYSTEM|2015-09-16 15:38:21|service|2018-06-01 06:40:39|code.alarmtitle.elsr722.e464|code.alarmdesc.elsr722.e464
ELSR722|^3^|E465|~|~|~|~|N|N|N|N|SYSTEM|2015-09-16 15:38:21|service|2018-06-01 06:40:39|code.alarmtitle.elsr722.e465|code.alarmdesc.elsr722.e465
ELSR722|^3^|E466|~|~|~|~|N|N|N|N|SYSTEM|2015-09-16 15:38:21|service|2018-06-01 06:40:39|code.alarmtitle.elsr722.e466|code.alarmdesc.elsr722.e466
ELSR722|^3^|E467|~|~|~|~|N|N|N|N|SYSTEM|2015-09-16 15:38:21|service|2018-06-01 06:40:39|code.alarmtitle.elsr722.e467|code.alarmdesc.elsr722.e467
ELSR722|^2^|E468|~|~|~|~|N|N|N|N|SYSTEM|2015-09-16 15:38:21|service|2018-06-01 06:40:39|code.alarmtitle.elsr722.e468|code.alarmdesc.elsr722.e468
ELSR722|^2^|E501|~|~|~|~|N|N|N|N|SYSTEM|2015-09-16 15:38:21|service|2018-06-01 06:40:39|code.alarmtitle.elsr722.e501|code.alarmdesc.elsr722.e501
ELSR722|^3^|E502|~|~|~|~|N|N|N|N|SYSTEM|2015-09-16 15:38:21|service|2018-06-01 06:40:39|code.alarmtitle.elsr722.e502|code.alarmdesc.elsr722.e502
ELSR722|^2^|E503|~|~|~|~|N|N|N|N|SYSTEM|2015-09-16 15:38:21|service|2018-06-01 06:40:39|code.alarmtitle.elsr722.e503|code.alarmdesc.elsr722.e503
ELSR722|^3^|E504|~|~|~|~|N|N|N|N|SYSTEM|2015-09-16 15:38:21|service|2018-06-01 06:40:39|code.alarmtitle.elsr722.e504|code.alarmdesc.elsr722.e504
ELSR722|^2^|E505|~|~|~|~|N|N|N|N|SYSTEM|2015-09-16 15:38:21|service|2018-06-01 06:40:39|code.alarmtitle.elsr722.e505|code.alarmdesc.elsr722.e505
ELSR722|^3^|E506|~|~|~|~|N|N|N|N|SYSTEM|2015-09-16 15:38:21|service|2018-06-01 06:40:39|code.alarmtitle.elsr722.e506|code.alarmdesc.elsr722.e506
ELSR722|^2^|E507|~|~|~|~|N|N|N|N|SYSTEM|2015-09-16 15:38:22|service|2018-06-01 06:40:39|code.alarmtitle.elsr722.e507|code.alarmdesc.elsr722.e507
ELSR722|^2^|E509|~|~|~|~|N|N|N|N|SYSTEM|2015-09-16 15:38:22|service|2018-06-01 06:40:39|code.alarmtitle.elsr722.e509|code.alarmdesc.elsr722.e509
ELSR722|^3^|E511|~|~|~|~|N|N|N|N|SYSTEM|2015-09-16 15:38:22|service|2018-06-01 06:40:39|code.alarmtitle.elsr722.e511|code.alarmdesc.elsr722.e511
ELSR722|^3^|E520|~|~|~|~|N|N|N|N|SYSTEM|2015-09-16 15:38:22|service|2018-06-01 06:40:39|code.alarmtitle.elsr722.e520|code.alarmdesc.elsr722.e520
ELSR722|^3^|E521|~|~|~|~|N|N|N|N|SYSTEM|2015-09-16 15:38:22|service|2018-06-01 06:40:39|code.alarmtitle.elsr722.e521|code.alarmdesc.elsr722.e521
ELSR722|^3^|E524|~|~|~|~|N|N|N|N|SYSTEM|2015-09-16 15:38:22|service|2018-06-01 06:40:39|code.alarmtitle.elsr722.e524|code.alarmdesc.elsr722.e524
ELSR722|^2^|E601|~|~|~|~|N|Y|Y|Y|SYSTEM|2015-09-16 15:38:22|service|2018-06-01 06:40:39|code.alarmtitle.elsr722.e601|code.alarmdesc.elsr722.e601
ELSR722|^1^|E602|~|~|~|~|N|N|N|N|SYSTEM|2015-09-16 15:38:22|service|2018-06-01 06:40:39|code.alarmtitle.elsr722.e602|code.alarmdesc.elsr722.e602
ELSR722|^2^|E603|~|~|~|~|N|N|N|N|SYSTEM|2015-09-16 15:38:22|service|2018-06-01 06:40:39|code.alarmtitle.elsr722.e603|code.alarmdesc.elsr722.e603
ELSR722|^3^|E701|~|~|~|~|N|Y|Y|Y|SYSTEM|2015-09-16 15:38:22|service|2018-06-01 06:40:39|code.alarmtitle.elsr722.e701|code.alarmdesc.elsr722.e701
ELSR722|^3^|E702|~|~|~|~|N|Y|Y|Y|SYSTEM|2015-09-16 15:38:22|service|2018-06-01 06:40:39|code.alarmtitle.elsr722.e702|code.alarmdesc.elsr722.e702
ELSR722|^3^|E703|~|~|~|~|N|Y|Y|Y|SYSTEM|2015-09-16 15:38:22|service|2018-06-01 06:40:39|code.alarmtitle.elsr722.e703|code.alarmdesc.elsr722.e703
ELSR722|^3^|E704|~|~|~|~|N|Y|Y|Y|SYSTEM|2015-09-16 15:38:22|service|2018-06-01 06:40:39|code.alarmtitle.elsr722.e704|code.alarmdesc.elsr722.e704
ELSR722|^3^|E706|~|~|~|~|Y|Y|Y|Y|SYSTEM|2015-09-16 15:38:22|service|2018-06-01 06:40:39|code.alarmtitle.elsr722.e706|code.alarmdesc.elsr722.e706
ELSR722|^3^|E708|~|~|~|~|Y|Y|Y|Y|SYSTEM|2015-09-16 15:38:22|service|2018-06-01 06:40:39|code.alarmtitle.elsr722.e708|code.alarmdesc.elsr722.e708
ELSR722|^3^|E709|~|~|~|~|N|Y|Y|Y|SYSTEM|2015-09-16 15:38:22|service|2018-06-01 06:40:39|code.alarmtitle.elsr722.e709|code.alarmdesc.elsr722.e709
ELSR722|^3^|E710|~|~|~|~|N|Y|Y|Y|SYSTEM|2015-09-16 15:38:22|service|2018-06-01 06:40:39|code.alarmtitle.elsr722.e710|code.alarmdesc.elsr722.e710
ELSR722|^3^|E912|~|~|~|~|N|Y|Y|Y|SYSTEM|2015-09-16 15:38:22|service|2018-06-01 06:40:39|code.alarmtitle.elsr722.e912|code.alarmdesc.elsr722.e912
ELSR722|^3^|E913|~|~|~|~|N|Y|Y|Y|SYSTEM|2015-09-16 15:38:22|service|2018-06-01 06:40:39|code.alarmtitle.elsr722.e913|code.alarmdesc.elsr722.e913
ELSR722|^3^|E914|~|~|~|~|N|Y|Y|Y|SYSTEM|2015-09-16 15:38:22|service|2018-06-01 06:40:39|code.alarmtitle.elsr722.e914|code.alarmdesc.elsr722.e914
ELSR722|^3^|E915|~|~|~|~|N|Y|Y|Y|SYSTEM|2015-09-16 15:38:22|service|2018-06-01 06:40:39|code.alarmtitle.elsr722.e915|code.alarmdesc.elsr722.e915
ELSR722|^3^|E916|~|~|~|~|N|Y|Y|Y|SYSTEM|2015-09-16 15:38:22|service|2018-06-01 06:40:39|code.alarmtitle.elsr722.e916|code.alarmdesc.elsr722.e916
ELSR722|^3^|E917|~|~|~|~|N|Y|Y|Y|SYSTEM|2015-09-16 15:38:22|service|2018-06-01 06:40:39|code.alarmtitle.elsr722.e917|code.alarmdesc.elsr722.e917
ELSR722|^1^|C128|~|~|~|~|N|N|N|N|SYSTEM|2015-09-16 15:38:22|service|2018-06-01 06:40:39|code.alarmtitle.elsr722.c128|code.alarmdesc.elsr722.c128
ELSR103|^3^|E101|~|~|~|~|N|N|N|N|SYSTEM|2015-09-16 15:38:22|service|2018-06-01 06:41:04|code.alarmtitle.elsr103.e101|code.alarmdesc.elsr103.e101
ELSR103|^3^|E102|~|~|~|~|N|N|N|N|SYSTEM|2015-09-16 15:38:22|service|2018-06-01 06:41:04|code.alarmtitle.elsr103.e102|code.alarmdesc.elsr103.e102
ELSR103|^3^|E103|~|~|~|~|N|N|N|N|SYSTEM|2015-09-16 15:38:22|service|2018-06-01 06:41:04|code.alarmtitle.elsr103.e103|code.alarmdesc.elsr103.e103
ELSR103|^3^|E104|~|~|~|~|N|N|N|N|SYSTEM|2015-09-16 15:38:22|service|2018-06-01 06:41:04|code.alarmtitle.elsr103.e104|code.alarmdesc.elsr103.e104
ELSR103|^3^|E105|~|~|~|~|N|N|N|N|SYSTEM|2015-09-16 15:38:22|service|2018-06-01 06:41:04|code.alarmtitle.elsr103.e105|code.alarmdesc.elsr103.e105
ELSR103|^3^|E106|~|~|~|~|N|N|N|N|SYSTEM|2015-09-16 15:38:22|service|2018-06-01 06:41:04|code.alarmtitle.elsr103.e106|code.alarmdesc.elsr103.e106
ELSR103|^3^|E107|~|~|~|~|N|N|N|N|SYSTEM|2015-09-16 15:38:22|service|2018-06-01 06:41:04|code.alarmtitle.elsr103.e107|code.alarmdesc.elsr103.e107
ELSR103|^3^|E108|~|~|~|~|N|N|N|N|SYSTEM|2015-09-16 15:38:22|service|2018-06-01 06:41:04|code.alarmtitle.elsr103.e108|code.alarmdesc.elsr103.e108
ELSR103|^3^|E109|~|~|~|~|N|N|N|N|SYSTEM|2015-09-16 15:38:22|service|2018-06-01 06:41:04|code.alarmtitle.elsr103.e109|code.alarmdesc.elsr103.e109
ELSR103|^3^|E110|~|~|~|~|N|N|N|N|SYSTEM|2015-09-16 15:38:22|service|2018-06-01 06:41:04|code.alarmtitle.elsr103.e110|code.alarmdesc.elsr103.e110
ELSR103|^3^|E111|~|~|~|~|N|N|N|N|SYSTEM|2015-09-16 15:38:22|service|2018-06-01 06:41:04|code.alarmtitle.elsr103.e111|code.alarmdesc.elsr103.e111
ELSR103|^3^|E114|~|~|~|~|N|N|N|N|SYSTEM|2015-09-16 15:38:22|service|2018-06-01 06:41:04|code.alarmtitle.elsr103.e114|code.alarmdesc.elsr103.e114
ELSR103|^3^|E115|~|~|~|~|N|N|N|N|SYSTEM|2015-09-16 15:38:22|service|2018-06-01 06:41:04|code.alarmtitle.elsr103.e115|code.alarmdesc.elsr103.e115
ELSR103|^2^|E116|~|~|~|~|N|N|N|N|SYSTEM|2015-09-16 15:38:22|service|2018-06-01 06:41:04|code.alarmtitle.elsr103.e116|code.alarmdesc.elsr103.e116
ELSR103|^2^|E117|~|~|~|~|N|N|N|N|SYSTEM|2015-09-16 15:38:22|service|2018-06-01 06:41:04|code.alarmtitle.elsr103.e117|code.alarmdesc.elsr103.e117
ELSR103|^2^|E118|~|~|~|~|N|N|N|N|SYSTEM|2015-09-16 15:38:22|service|2018-06-01 06:41:04|code.alarmtitle.elsr103.e118|code.alarmdesc.elsr103.e118
ELSR103|^3^|E119|~|~|~|~|N|N|N|N|SYSTEM|2015-09-16 15:38:22|service|2018-06-01 06:41:04|code.alarmtitle.elsr103.e119|code.alarmdesc.elsr103.e119
ELSR103|^3^|E120|~|~|~|~|N|N|N|N|SYSTEM|2015-09-16 15:38:22|service|2018-06-01 06:41:04|code.alarmtitle.elsr103.e120|code.alarmdesc.elsr103.e120
ELSR103|^3^|E122|~|~|~|~|N|N|N|N|SYSTEM|2015-09-16 15:38:22|service|2018-06-01 06:41:04|code.alarmtitle.elsr103.e122|code.alarmdesc.elsr103.e122
ELSR103|^3^|E123|~|~|~|~|N|N|N|N|SYSTEM|2015-09-16 15:38:22|service|2018-06-01 06:41:04|code.alarmtitle.elsr103.e123|code.alarmdesc.elsr103.e123
ELSR103|^3^|E125|~|~|~|~|N|N|N|N|SYSTEM|2015-09-16 15:38:22|service|2018-06-01 06:41:04|code.alarmtitle.elsr103.e125|code.alarmdesc.elsr103.e125
ELSR103|^3^|E126|~|~|~|~|N|N|N|N|SYSTEM|2015-09-16 15:38:22|service|2018-06-01 06:41:04|code.alarmtitle.elsr103.e126|code.alarmdesc.elsr103.e126
ELSR103|^3^|E127|~|~|~|~|N|N|N|N|SYSTEM|2015-09-16 15:38:22|service|2018-06-01 06:41:04|code.alarmtitle.elsr103.e127|code.alarmdesc.elsr103.e127
ELSR103|^3^|E128|~|~|~|~|N|N|N|N|SYSTEM|2015-09-16 15:38:22|service|2018-06-01 06:41:04|code.alarmtitle.elsr103.e128|code.alarmdesc.elsr103.e128
ELSR103|^3^|E129|~|~|~|~|N|N|N|N|SYSTEM|2015-09-16 15:38:22|service|2018-06-01 06:41:04|code.alarmtitle.elsr103.e129|code.alarmdesc.elsr103.e129
ELSR103|^3^|E130|~|~|~|~|N|N|N|N|SYSTEM|2015-09-16 15:38:22|service|2018-06-01 06:41:04|code.alarmtitle.elsr103.e130|code.alarmdesc.elsr103.e130
ELSR103|^1^|E131|~|~|~|~|N|N|N|N|SYSTEM|2015-09-16 15:38:22|service|2018-06-01 06:41:04|code.alarmtitle.elsr103.e131|code.alarmdesc.elsr103.e131
ELSR103|^3^|E410|~|~|~|~|N|N|N|N|SYSTEM|2015-09-16 15:38:22|service|2018-06-01 06:41:04|code.alarmtitle.elsr103.e410|code.alarmdesc.elsr103.e410
ELSR103|^3^|E411|~|~|~|~|N|N|N|N|SYSTEM|2015-09-16 15:38:22|service|2018-06-01 06:41:04|code.alarmtitle.elsr103.e411|code.alarmdesc.elsr103.e411
ELSR103|^3^|E448|~|~|~|~|N|N|N|N|SYSTEM|2015-09-16 15:38:22|service|2018-06-01 06:41:04|code.alarmtitle.elsr103.e448|code.alarmdesc.elsr103.e448
ELSR103|^3^|E455|~|~|~|~|N|N|N|N|SYSTEM|2015-09-16 15:38:23|service|2018-06-01 06:41:04|code.alarmtitle.elsr103.e455|code.alarmdesc.elsr103.e455
ELSR103|^3^|E456|~|~|~|~|N|N|N|N|SYSTEM|2015-09-16 15:38:23|service|2018-06-01 06:41:04|code.alarmtitle.elsr103.e456|code.alarmdesc.elsr103.e456
ELSR103|^3^|E458|~|~|~|~|N|N|N|N|SYSTEM|2015-09-16 15:38:23|service|2018-06-01 06:41:04|code.alarmtitle.elsr103.e458|code.alarmdesc.elsr103.e458
ELSR103|^3^|E459|~|~|~|~|N|N|N|N|SYSTEM|2015-09-16 15:38:23|service|2018-06-01 06:41:04|code.alarmtitle.elsr103.e459|code.alarmdesc.elsr103.e459
ELSR103|^3^|E460|~|~|~|~|N|N|N|N|SYSTEM|2015-09-16 15:38:23|service|2018-06-01 06:41:04|code.alarmtitle.elsr103.e460|code.alarmdesc.elsr103.e460
ELSR103|^3^|E461|~|~|~|~|N|N|N|N|SYSTEM|2015-09-16 15:38:23|service|2018-06-01 06:41:04|code.alarmtitle.elsr103.e461|code.alarmdesc.elsr103.e461
ELSR103|^3^|E462|~|~|~|~|N|N|N|N|SYSTEM|2015-09-16 15:38:23|service|2018-06-01 06:41:04|code.alarmtitle.elsr103.e462|code.alarmdesc.elsr103.e462
ELSR103|^3^|E463|~|~|~|~|N|N|N|N|SYSTEM|2015-09-16 15:38:23|service|2018-06-01 06:41:04|code.alarmtitle.elsr103.e463|code.alarmdesc.elsr103.e463
ELSR103|^3^|E464|~|~|~|~|N|N|N|N|SYSTEM|2015-09-16 15:38:23|service|2018-06-01 06:41:04|code.alarmtitle.elsr103.e464|code.alarmdesc.elsr103.e464
ELSR103|^3^|E465|~|~|~|~|N|N|N|N|SYSTEM|2015-09-16 15:38:23|service|2018-06-01 06:41:04|code.alarmtitle.elsr103.e465|code.alarmdesc.elsr103.e465
ELSR103|^3^|E466|~|~|~|~|N|N|N|N|SYSTEM|2015-09-16 15:38:23|service|2018-06-01 06:41:04|code.alarmtitle.elsr103.e466|code.alarmdesc.elsr103.e466
ELSR103|^3^|E467|~|~|~|~|N|N|N|N|SYSTEM|2015-09-16 15:38:23|service|2018-06-01 06:41:04|code.alarmtitle.elsr103.e467|code.alarmdesc.elsr103.e467
ELSR103|^2^|E468|~|~|~|~|N|N|N|N|SYSTEM|2015-09-16 15:38:23|service|2018-06-01 06:41:04|code.alarmtitle.elsr103.e468|code.alarmdesc.elsr103.e468
ELSR103|^2^|E501|~|~|~|~|N|N|N|N|SYSTEM|2015-09-16 15:38:23|service|2018-06-01 06:41:04|code.alarmtitle.elsr103.e501|code.alarmdesc.elsr103.e501
ELSR103|^3^|E502|~|~|~|~|N|N|N|N|SYSTEM|2015-09-16 15:38:23|service|2018-06-01 06:41:04|code.alarmtitle.elsr103.e502|code.alarmdesc.elsr103.e502
ELSR103|^2^|E503|~|~|~|~|N|N|N|N|SYSTEM|2015-09-16 15:38:23|service|2018-06-01 06:41:04|code.alarmtitle.elsr103.e503|code.alarmdesc.elsr103.e503
ELSR103|^3^|E504|~|~|~|~|N|N|N|N|SYSTEM|2015-09-16 15:38:23|service|2018-06-01 06:41:04|code.alarmtitle.elsr103.e504|code.alarmdesc.elsr103.e504
ELSR103|^2^|E505|~|~|~|~|N|N|N|N|SYSTEM|2015-09-16 15:38:23|service|2018-06-01 06:41:04|code.alarmtitle.elsr103.e505|code.alarmdesc.elsr103.e505
ELSR103|^3^|E506|~|~|~|~|N|N|N|N|SYSTEM|2015-09-16 15:38:23|service|2018-06-01 06:41:04|code.alarmtitle.elsr103.e506|code.alarmdesc.elsr103.e506
ELSR103|^2^|E507|~|~|~|~|N|N|N|N|SYSTEM|2015-09-16 15:38:23|service|2018-06-01 06:41:04|code.alarmtitle.elsr103.e507|code.alarmdesc.elsr103.e507
ELSR103|^2^|E509|~|~|~|~|N|N|N|N|SYSTEM|2015-09-16 15:38:23|service|2018-06-01 06:41:04|code.alarmtitle.elsr103.e509|code.alarmdesc.elsr103.e509
ELSR103|^3^|E511|~|~|~|~|N|N|N|N|SYSTEM|2015-09-16 15:38:23|service|2018-06-01 06:41:04|code.alarmtitle.elsr103.e511|code.alarmdesc.elsr103.e511
ELSR103|^3^|E520|~|~|~|~|N|N|N|N|SYSTEM|2015-09-16 15:38:23|service|2018-06-01 06:41:04|code.alarmtitle.elsr103.e520|code.alarmdesc.elsr103.e520
ELSR103|^3^|E521|~|~|~|~|N|N|N|N|SYSTEM|2015-09-16 15:38:23|service|2018-06-01 06:41:04|code.alarmtitle.elsr103.e521|code.alarmdesc.elsr103.e521
ELSR103|^3^|E524|~|~|~|~|N|N|N|N|SYSTEM|2015-09-16 15:38:23|service|2018-06-01 06:41:04|code.alarmtitle.elsr103.e524|code.alarmdesc.elsr103.e524
ELSR103|^2^|E601|~|~|~|~|N|Y|Y|Y|SYSTEM|2015-09-16 15:38:23|service|2018-06-01 06:41:04|code.alarmtitle.elsr103.e601|code.alarmdesc.elsr103.e601
ELSR103|^1^|E602|~|~|~|~|N|N|N|N|SYSTEM|2015-09-16 15:38:23|service|2018-06-01 06:41:04|code.alarmtitle.elsr103.e602|code.alarmdesc.elsr103.e602
ELSR103|^3^|E510|~|~|~|~|N|N|N|N|SYSTEM|2015-09-16 15:38:23|service|2018-06-01 06:41:04|code.alarmtitle.elsr103.e510|code.alarmdesc.elsr103.e510
ELSR722|^3^|E510|~|~|~|~|N|N|N|N|SYSTEM|2015-09-16 15:38:23|service|2018-06-01 06:40:39|code.alarmtitle.elsr722.e510|code.alarmdesc.elsr722.e510
ELSR103|^2^|E525|~|~|~|~|N|Y|Y|Y|SYSTEM|2015-10-26 08:46:35|service|2018-06-01 06:41:04|code.alarmtitle.elsr103.e525|code.alarmdesc.elsr103.e525
ELSR103|^2^|E526|~|~|~|~|N|Y|Y|Y|SYSTEM|2015-10-26 08:46:35|service|2018-06-01 06:41:04|code.alarmtitle.elsr103.e526|code.alarmdesc.elsr103.e526
ELSR722|^2^|E526|~|~|~|~|N|Y|Y|Y|SYSTEM|2015-10-26 08:46:35|service|2018-06-01 06:40:39|code.alarmtitle.elsr722.e526|code.alarmdesc.elsr722.e526
ELSR722|^2^|E525|~|~|~|~|N|Y|Y|Y|SYSTEM|2015-10-26 08:46:35|service|2018-06-01 06:40:39|code.alarmtitle.elsr722.e525|code.alarmdesc.elsr722.e525
ELSR362|^3^|E706|~|~|~|~|Y|Y|Y|Y|SYSTEM|2015-10-26 08:46:35|service|2019-01-15 08:21:31|code.alarmtitle.elsr362.e706|code.alarmdesc.elsr362.e706
ELSR362|^3^|E708|~|~|~|~|Y|Y|Y|Y|SYSTEM|2015-10-26 08:46:35|service|2019-01-15 08:21:31|code.alarmtitle.elsr362.e708|code.alarmdesc.elsr362.e708
ELSR552|^3^|E706|~|~|~|~|N|Y|Y|Y|SYSTEM|2015-10-26 08:46:35|service|2018-12-19 01:24:16|code.alarmtitle.elsr552.e706|code.alarmdesc.elsr552.e706
ELSR552|^3^|E708|~|~|~|~|N|Y|Y|Y|SYSTEM|2015-10-26 08:46:35|service|2018-12-19 01:24:16|code.alarmtitle.elsr552.e708|code.alarmdesc.elsr552.e708
ELSR362|^3^|E702|~|~|~|~|N|Y|Y|Y|SYSTEM|2017-07-15 08:46:35|service|2019-01-15 08:21:31|code.alarmtitle.elsr362.e702|code.alarmdesc.elsr362.e702
ELSR103|^2^|E603|~|~|~|~|N|N|N|N|SYSTEM|2015-09-16 15:38:23|service|2018-06-01 06:41:04|code.alarmtitle.elsr103.e603|code.alarmdesc.elsr103.e603
ELSR103|^3^|E701|~|~|~|~|N|Y|Y|Y|SYSTEM|2015-09-16 15:38:23|service|2018-06-01 06:41:04|code.alarmtitle.elsr103.e701|code.alarmdesc.elsr103.e701
ELSR103|^3^|E702|~|~|~|~|N|Y|Y|Y|SYSTEM|2015-09-16 15:38:23|service|2018-06-01 06:41:04|code.alarmtitle.elsr103.e702|code.alarmdesc.elsr103.e702
ELSR103|^3^|E703|~|~|~|~|N|Y|Y|Y|SYSTEM|2015-09-16 15:38:23|service|2018-06-01 06:41:04|code.alarmtitle.elsr103.e703|code.alarmdesc.elsr103.e703
ELSR103|^3^|E704|~|~|~|~|N|Y|Y|Y|SYSTEM|2015-09-16 15:38:23|service|2018-06-01 06:41:04|code.alarmtitle.elsr103.e704|code.alarmdesc.elsr103.e704
ELSR103|^3^|E706|~|~|~|~|Y|Y|Y|Y|SYSTEM|2015-09-16 15:38:23|service|2018-06-01 06:41:04|code.alarmtitle.elsr103.e706|code.alarmdesc.elsr103.e706
ELSR103|^3^|E708|~|~|~|~|Y|Y|Y|Y|SYSTEM|2015-09-16 15:38:23|service|2018-06-01 06:41:04|code.alarmtitle.elsr103.e708|code.alarmdesc.elsr103.e708
ELSR103|^3^|E709|~|~|~|~|N|Y|Y|Y|SYSTEM|2015-09-16 15:38:23|service|2018-06-01 06:41:04|code.alarmtitle.elsr103.e709|code.alarmdesc.elsr103.e709
ELSR103|^3^|E710|~|~|~|~|N|Y|Y|Y|SYSTEM|2015-09-16 15:38:23|service|2018-06-01 06:41:04|code.alarmtitle.elsr103.e710|code.alarmdesc.elsr103.e710
ELSR103|^3^|E912|~|~|~|~|N|Y|Y|Y|SYSTEM|2015-09-16 15:38:23|service|2018-06-01 06:41:04|code.alarmtitle.elsr103.e912|code.alarmdesc.elsr103.e912
ELSR103|^3^|E913|~|~|~|~|N|Y|Y|Y|SYSTEM|2015-09-16 15:38:23|service|2018-06-01 06:41:04|code.alarmtitle.elsr103.e913|code.alarmdesc.elsr103.e913
ELSR103|^3^|E914|~|~|~|~|N|Y|Y|Y|SYSTEM|2015-09-16 15:38:23|service|2018-06-01 06:41:04|code.alarmtitle.elsr103.e914|code.alarmdesc.elsr103.e914
ELSR103|^3^|E915|~|~|~|~|N|Y|Y|Y|SYSTEM|2015-09-16 15:38:23|service|2018-06-01 06:41:04|code.alarmtitle.elsr103.e915|code.alarmdesc.elsr103.e915
ELSR103|^3^|E916|~|~|~|~|N|Y|Y|Y|SYSTEM|2015-09-16 15:38:23|service|2018-06-01 06:41:04|code.alarmtitle.elsr103.e916|code.alarmdesc.elsr103.e916
ELSR103|^3^|E917|~|~|~|~|N|Y|Y|Y|SYSTEM|2015-09-16 15:38:23|service|2018-06-01 06:41:04|code.alarmtitle.elsr103.e917|code.alarmdesc.elsr103.e917
ELSR103|^1^|C128|~|~|~|~|N|N|N|N|SYSTEM|2015-09-16 15:38:23|service|2018-06-01 06:41:04|code.alarmtitle.elsr103.c128|code.alarmdesc.elsr103.c128
ELSR802|^2^|E005|~|~|~|~|N|N|N|N|SYSTEM|2015-09-16 15:38:23|jackpot|2015-11-04 04:56:40|code.alarmtitle.elsr802.e005|code.alarmdesc.elsr802.e005
ELSR802|^2^|E006|~|~|~|~|N|N|N|N|SYSTEM|2015-09-16 15:38:23|jackpot|2015-11-04 04:56:40|code.alarmtitle.elsr802.e006|code.alarmdesc.elsr802.e006
ELSR802|^2^|E007|~|~|~|~|N|N|N|N|SYSTEM|2015-09-16 15:38:23|jackpot|2015-11-04 04:56:40|code.alarmtitle.elsr802.e007|code.alarmdesc.elsr802.e007
ELSR802|^2^|E103|~|~|~|~|N|N|N|N|SYSTEM|2015-09-16 15:38:23|jackpot|2015-11-04 04:56:40|code.alarmtitle.elsr802.e103|code.alarmdesc.elsr802.e103
ELSR802|^2^|E104|~|~|~|~|N|N|N|N|SYSTEM|2015-09-16 15:38:23|jackpot|2015-11-04 04:56:40|code.alarmtitle.elsr802.e104|code.alarmdesc.elsr802.e104
ELSR802|^2^|E420|~|~|~|~|N|N|N|N|SYSTEM|2015-09-16 15:38:23|jackpot|2015-11-04 04:56:40|code.alarmtitle.elsr802.e420|code.alarmdesc.elsr802.e420
ELSR802|^2^|E421|~|~|~|~|N|N|N|N|SYSTEM|2015-09-16 15:38:23|jackpot|2015-11-04 04:56:40|code.alarmtitle.elsr802.e421|code.alarmdesc.elsr802.e421
ELSR802|^2^|E422|~|~|~|~|N|N|N|N|SYSTEM|2015-09-16 15:38:23|jackpot|2015-11-04 04:56:40|code.alarmtitle.elsr802.e422|code.alarmdesc.elsr802.e422
ELSR802|^2^|E603|~|~|~|~|N|N|N|N|SYSTEM|2015-09-16 15:38:23|jackpot|2015-11-04 04:56:40|code.alarmtitle.elsr802.e603|code.alarmdesc.elsr802.e603
ELSR802|^3^|E903|~|~|~|~|N|Y|Y|Y|SYSTEM|2015-09-16 15:38:23|jackpot|2015-11-04 04:56:40|code.alarmtitle.elsr802.e903|code.alarmdesc.elsr802.e903
ELSR802|^3^|E909|~|~|~|~|N|Y|Y|Y|SYSTEM|2015-09-16 15:38:24|jackpot|2015-11-04 04:56:40|code.alarmtitle.elsr802.e909|code.alarmdesc.elsr802.e909
ELSR802|^3^|E911|~|~|~|~|N|Y|Y|Y|SYSTEM|2015-09-16 15:38:24|jackpot|2015-11-04 04:56:40|code.alarmtitle.elsr802.e911|code.alarmdesc.elsr802.e911
ELSR802|^3^|E912|~|~|~|~|N|Y|Y|Y|SYSTEM|2015-09-16 15:38:24|jackpot|2015-11-04 04:56:40|code.alarmtitle.elsr802.e912|code.alarmdesc.elsr802.e912
ELSR802|^1^|C128|~|~|~|~|N|N|N|N|SYSTEM|2015-09-16 15:38:24|jackpot|2015-11-04 04:56:40|code.alarmtitle.elsr802.c128|code.alarmdesc.elsr802.c128
ELSR103|^3^|E918|~|~|~|~|N|Y|Y|Y|SYSTEM|2015-09-22 15:46:06|service|2018-06-01 06:41:04|code.alarmtitle.elsr103.e918|code.alarmdesc.elsr103.e918
ELSR103|^3^|E919|~|~|~|~|N|Y|Y|Y|SYSTEM|2015-09-22 15:46:06|service|2018-06-01 06:41:04|code.alarmtitle.elsr103.e919|code.alarmdesc.elsr103.e919
ELSR722|^3^|E918|~|~|~|~|N|Y|Y|Y|SYSTEM|2015-09-22 15:46:06|service|2018-06-01 06:40:39|code.alarmtitle.elsr722.e918|code.alarmdesc.elsr722.e918
ELSR722|^3^|E919|~|~|~|~|N|Y|Y|Y|SYSTEM|2015-09-22 15:46:06|service|2018-06-01 06:40:39|code.alarmtitle.elsr722.e919|code.alarmdesc.elsr722.e919
ELSR362|^2^|E601|~|~|~|~|N|Y|Y|Y|SYSTEM|2015-09-16 15:38:20|service|2019-01-15 08:21:31|code.alarmtitle.elsr362.e601|code.alarmdesc.elsr362.e601
ELSR362|^1^|E602|~|~|~|~|N|N|N|N|SYSTEM|2015-09-16 15:38:20|service|2019-01-15 08:21:31|code.alarmtitle.elsr362.e602|code.alarmdesc.elsr362.e602
ELSR362|^2^|E603|~|~|~|~|N|N|N|N|SYSTEM|2015-09-16 15:38:20|service|2019-01-15 08:21:31|code.alarmtitle.elsr362.e603|code.alarmdesc.elsr362.e603
ELSR362|^3^|E901|~|~|~|~|N|Y|Y|Y|SYSTEM|2015-09-16 15:38:20|service|2019-01-15 08:21:31|code.alarmtitle.elsr362.e901|code.alarmdesc.elsr362.e901
ELSR362|^3^|E902|~|~|~|~|N|Y|Y|Y|SYSTEM|2015-09-16 15:38:20|service|2019-01-15 08:21:31|code.alarmtitle.elsr362.e902|code.alarmdesc.elsr362.e902
ELSR362|^3^|E903|~|~|~|~|N|Y|Y|Y|SYSTEM|2015-09-16 15:38:20|service|2019-01-15 08:21:31|code.alarmtitle.elsr362.e903|code.alarmdesc.elsr362.e903
ELSR362|^3^|E904|~|~|~|~|N|Y|Y|Y|SYSTEM|2015-09-16 15:38:20|service|2019-01-15 08:21:31|code.alarmtitle.elsr362.e904|code.alarmdesc.elsr362.e904
ELSR362|^3^|E905|~|~|~|~|N|Y|Y|Y|SYSTEM|2015-09-16 15:38:20|service|2019-01-15 08:21:31|code.alarmtitle.elsr362.e905|code.alarmdesc.elsr362.e905
ELSR362|^3^|E906|~|~|~|~|N|Y|Y|Y|SYSTEM|2015-09-16 15:38:20|service|2019-01-15 08:21:31|code.alarmtitle.elsr362.e906|code.alarmdesc.elsr362.e906
ELSR362|^3^|E907|~|~|~|~|N|Y|Y|Y|SYSTEM|2015-09-16 15:38:20|service|2019-01-15 08:21:31|code.alarmtitle.elsr362.e907|code.alarmdesc.elsr362.e907
ELSR362|^1^|C128|~|~|~|~|N|N|N|N|SYSTEM|2015-09-16 15:38:20|service|2019-01-15 08:21:31|code.alarmtitle.elsr362.c128|code.alarmdesc.elsr362.c128
ELSR552|^2^|E601|~|~|~|~|N|Y|Y|Y|SYSTEM|2015-09-16 15:38:20|service|2018-12-19 01:24:16|code.alarmtitle.elsr552.e601|code.alarmdesc.elsr552.e601
ELSR552|^1^|E602|~|~|~|~|N|N|N|N|SYSTEM|2015-09-16 15:38:20|service|2018-12-19 01:24:16|code.alarmtitle.elsr552.e602|code.alarmdesc.elsr552.e602
ELSR552|^2^|E603|~|~|~|~|N|N|N|N|SYSTEM|2015-09-16 15:38:20|service|2018-12-19 01:24:16|code.alarmtitle.elsr552.e603|code.alarmdesc.elsr552.e603
ELSR552|^3^|E901|~|~|~|~|N|Y|Y|Y|SYSTEM|2015-09-16 15:38:20|service|2018-12-19 01:24:16|code.alarmtitle.elsr552.e901|code.alarmdesc.elsr552.e901
ELSR552|^3^|E902|~|~|~|~|N|Y|Y|Y|SYSTEM|2015-09-16 15:38:20|service|2018-12-19 01:24:16|code.alarmtitle.elsr552.e902|code.alarmdesc.elsr552.e902
ELSR552|^3^|E903|~|~|~|~|N|Y|Y|Y|SYSTEM|2015-09-16 15:38:20|service|2018-12-19 01:24:16|code.alarmtitle.elsr552.e903|code.alarmdesc.elsr552.e903
ELSR552|^3^|E904|~|~|~|~|N|Y|Y|Y|SYSTEM|2015-09-16 15:38:20|service|2018-12-19 01:24:16|code.alarmtitle.elsr552.e904|code.alarmdesc.elsr552.e904
ELSR552|^3^|E905|~|~|~|~|N|Y|Y|Y|SYSTEM|2015-09-16 15:38:20|service|2018-12-19 01:24:16|code.alarmtitle.elsr552.e905|code.alarmdesc.elsr552.e905
ELSR552|^3^|E906|~|~|~|~|N|Y|Y|Y|SYSTEM|2015-09-16 15:38:20|service|2018-12-19 01:24:16|code.alarmtitle.elsr552.e906|code.alarmdesc.elsr552.e906
ELSR552|^3^|E907|~|~|~|~|N|Y|Y|Y|SYSTEM|2015-09-16 15:38:20|service|2018-12-19 01:24:16|code.alarmtitle.elsr552.e907|code.alarmdesc.elsr552.e907
ELSR552|^1^|C128|~|~|~|~|N|N|N|N|SYSTEM|2015-09-16 15:38:21|service|2018-12-19 01:24:16|code.alarmtitle.elsr552.c128|code.alarmdesc.elsr552.c128
ELSR722|^3^|E101|~|~|~|~|N|N|N|N|SYSTEM|2015-09-16 15:38:21|service|2018-06-01 06:40:39|code.alarmtitle.elsr722.e101|code.alarmdesc.elsr722.e101
ELSR722|^3^|E102|~|~|~|~|N|N|N|N|SYSTEM|2015-09-16 15:38:21|service|2018-06-01 06:40:39|code.alarmtitle.elsr722.e102|code.alarmdesc.elsr722.e102
ELSR722|^3^|E103|~|~|~|~|N|N|N|N|SYSTEM|2015-09-16 15:38:21|service|2018-06-01 06:40:39|code.alarmtitle.elsr722.e103|code.alarmdesc.elsr722.e103
ELSR722|^3^|E104|~|~|~|~|N|N|N|N|SYSTEM|2015-09-16 15:38:21|service|2018-06-01 06:40:39|code.alarmtitle.elsr722.e104|code.alarmdesc.elsr722.e104
ELSR722|^3^|E105|~|~|~|~|N|N|N|N|SYSTEM|2015-09-16 15:38:21|service|2018-06-01 06:40:39|code.alarmtitle.elsr722.e105|code.alarmdesc.elsr722.e105
HHQC5001|^1^|C128|~|~|~|~|Y|N|N|N|SYSTEM|2019-08-05 10:52:26|service|2019-10-31 15:54:03|code.alarmtitle.elsr802.c128|code.alarmdesc.elsr802.c128
HHQC5001|^2^|E005|~|~|~|~|N|N|N|N|SYSTEM|2019-08-05 10:52:26|service|2019-10-31 15:54:03|code.alarmtitle.elsr802.e005|code.alarmdesc.elsr802.e005
HHQC5001|^2^|E006|~|~|~|~|N|N|N|N|SYSTEM|2019-08-05 10:52:26|service|2019-10-31 15:54:03|code.alarmtitle.elsr802.e006|code.alarmdesc.elsr802.e006
HHQC5001|^2^|E007|~|~|~|~|N|N|N|N|SYSTEM|2019-08-05 10:52:26|service|2019-10-31 15:54:03|code.alarmtitle.elsr802.e007|code.alarmdesc.elsr802.e007
HHQC5001|^2^|E103|~|~|~|~|N|N|N|N|SYSTEM|2019-08-05 10:52:26|service|2019-10-31 15:54:03|code.alarmtitle.elsr802.e103|code.alarmdesc.elsr802.e103
HHQC5001|^2^|E104|~|~|~|~|N|N|N|N|SYSTEM|2019-08-05 10:52:26|service|2019-10-31 15:54:03|code.alarmtitle.elsr802.e104|code.alarmdesc.elsr802.e104
HHQC5001|^2^|E420|~|~|~|~|N|N|N|N|SYSTEM|2019-08-05 10:52:26|service|2019-10-31 15:54:03|code.alarmtitle.elsr802.e420|code.alarmdesc.elsr802.e420
HHQC5001|^2^|E421|~|~|~|~|N|N|N|N|SYSTEM|2019-08-05 10:52:26|service|2019-10-31 15:54:03|code.alarmtitle.elsr802.e421|code.alarmdesc.elsr802.e421
HHQC5001|^2^|E422|~|~|~|~|N|N|N|N|SYSTEM|2019-08-05 10:52:26|service|2019-10-31 15:54:03|code.alarmtitle.elsr802.e422|code.alarmdesc.elsr802.e422
HHQC5001|^2^|E603|~|~|~|~|N|N|N|N|SYSTEM|2019-08-05 10:52:26|service|2019-10-31 15:54:03|code.alarmtitle.elsr802.e603|code.alarmdesc.elsr802.e603
HHQC5001|^3^|E903|~|~|~|~|N|Y|Y|Y|SYSTEM|2019-08-05 10:52:26|service|2019-10-31 15:54:03|code.alarmtitle.elsr802.e903|code.alarmdesc.elsr802.e903
HHQC5001|^3^|E909|~|~|~|~|N|Y|Y|Y|SYSTEM|2019-08-05 10:52:26|service|2019-10-31 15:54:03|code.alarmtitle.elsr802.e909|code.alarmdesc.elsr802.e909
HHQC5001|^3^|E911|~|~|~|~|N|Y|Y|Y|SYSTEM|2019-08-05 10:52:26|service|2019-10-31 15:54:03|code.alarmtitle.elsr802.e911|code.alarmdesc.elsr802.e911
HHQC5001|^3^|E912|~|~|~|~|N|Y|Y|Y|SYSTEM|2019-08-05 10:52:26|service|2019-10-31 15:54:03|code.alarmtitle.elsr802.e912|code.alarmdesc.elsr802.e912
