^tmpl_id^|^lang_cd^|^dsp_seq^|^msg_txt^|^ref_cols^
DFLT-0001|EN|1|You have generated %sWh from PV and your total residential load was %sWh.|^1,2^
DFLT-0001|EN|2|* You have charged %sWh into the battery.|^3^
DFLT-0001|EN|3|* Total energy drawn from the battery was %sWh.|^4^
DFLT-0001|EN|4|* You have sold %sWh, generated from PV to the grid while you have bought %sWh.|^5,6^
DFLT-0001|EN|5|* Your self-consumption rate was up to %s%%, and its self sufficiency was %s%%.|^7,8^
CASE-0001|EN|1|* The reason to buy the power, even it is sold is because of the difference between the generation and load usage. If you were to shift %sWh load from PV-non generation time (night) to PV-generation time (day), you could increase self-consumption rate by %s%%, as well as to reduce cost by %s%s.|^1,2,3,4^
DFLT-0001|KR|1|어제는 약 %sWh의 에너지를 PV로부터 생산하였고 가정 내 총부하는 %sWh 입니다.|^1,2^
DFLT-0001|KR|2|* 어제 배터리에 충전한 총 용량은 %sWh입니다.|^3^
DFLT-0001|KR|3|* 어제 배터리에서 사용한 총 에너지는 %sWh 입니다.|^4^
DFLT-0001|KR|4|* 어제 PV에서 생산한 %sWh 의 에너지를 판매하였고 %sWh 의 에너지를 구매하였습니다.|^5,6^
DFLT-0001|KR|5|* 어제의 자가 소비율은 %s%% 이며 자가 공급률은 %s%% 입니다.|^7,8^
CASE-0001|KR|1|* 전력을 판매함에도 불구하고 동시에 구매를 한 이유는 발전과 부하 사용간을 불일치 때문입니다. 고객께서 %sWh 부하를 PV가 발전을 하지 않은 시간대 (야간)에서 PV 발전 시간대 (주간)으로 옮기신다면 약 %s%%의 자가 소비율 상승과 함께 %s%s의 비용을 절감하실 수 있습니다.|^1,2,3,4^
DFLT-0001|DE|1|Sie haben %sWh aus der PV erzeugt, und die Gesamtlast auf Ihrem Geb?ude betrug %sWh.|^1,2^
DFLT-0001|DE|2|* Sie haben %sWh in den Akku eingespeist.|^3^
DFLT-0001|DE|3|* Die gesamte Energie, die aus dem Akku entnommen wurde, betrug %sWh.|^4^
DFLT-0001|DE|4|* Sie haben %sWh, die von der PV erzeugt wurden, an das Netz verkauft, w?hrend Sie %sWh gekauft haben.|^5,6^
DFLT-0001|DE|5|* Ihre Eigenverbrauchsrate ist auf %s%% gestiegen und die Selbstversorgung lag bei %s%%.|^7,8^
CASE-0001|DE|1|* Der Grund, Strom zu kaufen, selbst wenn er verkauft wird, ist der Unterschied zwischen der Erzeugung und der Nutzung der Last. Wenn Sie eine Last von %sWh aus der Zeit, in der kein PV-Strom erzeugt werden kann (nachts), auf die Zeit verschieben sollten, in der PV-Strom erzeugt werden kann (tags?ber), k?nnten Sie die Eigenverbrauchsrate um %s%% erh?hen und die Kosten um %s%s senken.|^1,2,3,4^
