^cntry_cd^|^apply_year^|^carb_emi_quity^|^use_flag^|^create_dt^
DE|^2014^|0.45|Y|2014-06-16 06:44:21
KR|^2014^|0.49|Y|2014-07-10 08:06:33
IT|^2014^|0.45|Y|2014-09-04 19:39:42
UK|^2014^|0.52|Y|2014-09-04 19:39:53
AU|^2014^|0.95|Y|2014-09-04 19:41:19
PT|^2014^|0.44|Y|2014-09-04 19:41:26
NZ|^2014^|0.95|Y|2015-03-10 00:00:00
CH|^2014^|0.04|Y|2015-01-12 00:00:00
FR|^2014^|0.52|Y|2017-10-16 08:50:52
AT|^2014^|0.45|Y|2017-10-18 15:26:06
