^grp_cd^|^code^|^code_nm^|^ref_1^|^ref_2^|^ref_3^|^ref_4^|^ref_5^|^cd_desc^|^ord_seq^|^ref_6^
OPER_STUS_CD|^5^|절전|~|EMS Sleep Mode|ESM|code.operstuscd.5|~|~|~|~
PCS_MODE_1_CD|K|Backup|~|~|~|code.pcsmode1cd.k|~|Scalable Grid Off|7.0|~
ERM_MODE_3_CD|^6^|ReverseSSH|~|ReverseSSH|ReverseSSH|code.ermmode3cd.6|~|~|~|~
LOGFILE_RESPONSE_CD|^2^|업로드 불가 실패|~|Upload Fail|~|code.logfileresponsecd.2|~|~|~|~
LOGFILE_RESPONSE_CD|^255^|알수없는 오류|~|Unknown Error|~|code.logfileresponsecd.255|~|~|~|~
DNLD_TYPE_CD|DN01|제품 매뉴얼|~|~|~|code.dnldtypecd.dn01|~|~|1.0|~
DNLD_TYPE_CD|DN11|제품 브로셔|~|~|~|code.dnldtypecd.dn11|~|~|2.0|~
DNLD_TYPE_CD|DN21|Trouble Shooting 가이드|~|~|~|code.dnldtypecd.dn21|~|~|3.0|~
DNLD_TYPE_CD|DN41|FAQ|~|~|~|code.dnldtypecd.dn41|~|~|4.0|~
DNLD_TYPE_CD|DN31|기타|~|~|~|code.dnldtypecd.dn31|~|~|5.0|~
DNLD_TYPE_CD|^0061^|브로슈어|~|~|~|code.dnldtypecd.0061|~|~|1.0|~
DNLD_TYPE_CD|^0071^|웹 매뉴얼|~|~|~|code.dnldtypecd.0071|~|~|2.0|~
DNLD_TYPE_CD|^0081^|Warranty|~|~|~|code.dnldtypecd.0081|~|~|3.0|~
LOGIN_RESPONSE_CD|^0^|로그인 성공|~|Login Success|loggen Sie sich ein Erfolg|code.loginresponsecd.0|~|~|~|~
LOGIN_RESPONSE_CD|^1^|로그인 실패 (Unknown UID)|~|Login Failed(Unknown UID)|Anmeldung fehlgeschlagen (Unbekannt UID)|code.loginresponsecd.1|~|~|~|~
LOGIN_RESPONSE_CD|^128^|Connection has expired.|~|Connection has expired.|Verbindung ist abgelaufen.|code.loginresponsecd.128|~|EMS와 통신이 끊어졌을 때|~|~
LOGIN_RESPONSE_CD|^2^|로그인 실패 (패스워드 오류)|~|Login Failed(Unknown Password)|Anmeldung fehlgeschlagen (Unbekannt Password)|code.loginresponsecd.2|~|~|~|~
LOGIN_RESPONSE_CD|^255^|알수없는 오류|~|Unknown Error|Unbekannter Fehler|code.loginresponsecd.255|~|~|~|~
LOGIN_RESPONSE_CD|^3^|Unknown UID + 패스워드 오류|~|Unknown UID + Unknown Password|Unbekannt UID + Unbekannt Password|code.loginresponsecd.3|~|~|~|~
MENU_TYPE_CD|FX|화면|~|~|~|code.menutypecd.fx|~|~|~|~
MENU_TYPE_CD|MN|메뉴|~|~|~|code.menutypecd.mn|~|~|~|~
MONE_UNIT_CD|AUD|Australian dollar|＄|~|~|code.moneunitcd.aud|~|~|~|~
ACC_LOCK_TIME_CD|^10^|계정 잠금 시간 (단위 : 분)|~|~|~|code.acclocktimecd.10|~|~|~|~
ALARM_CD|AL01|SYS_Warning1|~|~|~|code.alarmcd.al01|~|~|1.0|~
ALARM_CD|AL02|SYS_Warning2|~|~|~|code.alarmcd.al02|~|~|2.0|~
ALARM_CD|AL03|SYS_Warning3|~|~|~|code.alarmcd.al03|~|~|3.0|~
ALARM_CD|AL04|SYS_Fault|~|~|~|code.alarmcd.al04|~|~|4.0|~
AUTH_TYPE_CD|^10^|User|~|~|~|code.authtypecd.10|~|~|~|~
AUTH_TYPE_CD|^20^|Engineer|~|~|~|code.authtypecd.20|~|~|~|~
AUTH_TYPE_CD|^90^|Admin|~|~|~|code.authtypecd.90|~|~|~|~
AUTH_TYPE_CD|^91^|Control Admin|~|~|~|code.authtypecd.91|~|~|~|~
AUTH_TYPE_CD|^92^|Monitoring Admin|~|~|~|code.authtypecd.92|~|~|~|~
BLD_AREA_CD|^00^|^1 ~ 30^|~|~|~|code.bldareacd.00|~|~|~|~
BLD_AREA_CD|^01^|^31 ~ 60^|~|~|~|code.bldareacd.01|~|~|~|~
BLD_AREA_CD|^02^|^61 ~ 100^|~|~|~|code.bldareacd.02|~|~|~|~
BLD_AREA_CD|^03^|^101 ~ 160^|~|~|~|code.bldareacd.03|~|~|~|~
BLD_AREA_CD|^04^|^161 ~ 260^|~|~|~|code.bldareacd.04|~|~|~|~
BLD_AREA_CD|^05^|^261 ~ 380^|~|~|~|code.bldareacd.05|~|~|~|~
BLD_AREA_CD|^06^|^381 ~ 660^|~|~|~|code.bldareacd.06|~|~|~|~
BLD_AREA_CD|^07^|^661 ~^|~|~|~|code.bldareacd.07|~|~|~|~
BLD_TYPE_CD|^01^|업무용|~|Business/Commercial|Gesch?ftshaus|code.bldtypecd.01|~|~|1.0|~
BLD_TYPE_CD|^03^|가정용|~|Residential|Wohnhaus|code.bldtypecd.03|~|~|3.0|~
BLD_TYPE_CD|^04^|호텔|~|Hotel|Hotel|code.bldtypecd.04|~|~|4.0|~
BLD_TYPE_CD|^05^|병원|~|Hospital|Krankenhaus|code.bldtypecd.05|~|~|5.0|~
BLD_TYPE_CD|^06^|통신국사|~|Office|B?rogeb?ude|code.bldtypecd.06|~|~|6.0|~
BLD_TYPE_CD|^07^|아파트|~|Apartment|Wohnung|code.bldtypecd.07|~|~|7.0|~
BLD_TYPE_CD|^08^|교육용|~|Educational|Bildungshaus|code.bldtypecd.08|~|~|8.0|~
BLD_TYPE_CD|^09^|학교|~|School|Schule|code.bldtypecd.09|~|~|~|~
BMS_GENERAL_ERR_CD|E042|OVER VOLTAGE PROTECTION-CELL|WARNING|~|~|code.bmsgeneralerrcd.e042|~|~|~|~
BMS_GENERAL_ERR_CD|E043|OVER VOLTAGE PROTECTION-CELL|PROTECTION|~|~|code.bmsgeneralerrcd.e043|~|~|~|~
BMS_GENERAL_ERR_CD|E044|UNDER VOLTAGE PROTECTION-CELL|WARNING|~|~|code.bmsgeneralerrcd.e044|~|~|~|~
BMS_GENERAL_ERR_CD|E045|UNDER VOLTAGE PROTECTION-CELL|PROTECTION|~|~|code.bmsgeneralerrcd.e045|~|~|~|~
BMS_GENERAL_ERR_CD|E046|OVER TEMP. PROTECTION-CELL|WARNING|~|~|code.bmsgeneralerrcd.e046|~|~|~|~
BMS_GENERAL_ERR_CD|E047|OVER TEMP. PROTECTION-CELL|PROTECTION|~|~|code.bmsgeneralerrcd.e047|~|~|~|~
BMS_GENERAL_ERR_CD|E048|UNDER TEMP. PROTECTION-CELL|WARNING|~|~|code.bmsgeneralerrcd.e048|~|~|~|~
BMS_GENERAL_ERR_CD|E049|UNDER TEMP. PROTECTION-CELL|PROTECTION|~|~|code.bmsgeneralerrcd.e049|~|~|~|~
BMS_GENERAL_ERR_CD|E050|OVER CURRENT WARNING|WARNING|~|~|code.bmsgeneralerrcd.e050|~|~|~|~
BMS_GENERAL_ERR_CD|E051|OVER CURRENT PROTECTION|PROTECTION|~|~|code.bmsgeneralerrcd.e051|~|~|~|~
BMS_GENERAL_ERR_CD|E052|CELL VOLTAGE IMBALANCE PROTECTION|WARNING|~|~|code.bmsgeneralerrcd.e052|~|~|~|~
BMS_GENERAL_ERR_CD|E053|CELL VOLTAGE IMBALANCE PROTECTION|PROTECTION|~|~|code.bmsgeneralerrcd.e053|~|~|~|~
BMS_GENERAL_ERR_CD|E054|AFE INITIALIZATION|PROTECTION|~|~|code.bmsgeneralerrcd.e054|~|~|~|~
BMS_GENERAL_ERR_CD|E055|AFE INITIALIZATION|PROTECTION|~|~|code.bmsgeneralerrcd.e055|~|~|~|~
BMS_GENERAL_ERR_CD|E056|CHARGE DISABLE|PROTECTION|~|~|code.bmsgeneralerrcd.e056|~|~|~|~
BMS_GENERAL_ERR_CD|E057|DISCHARGE DISABLE|PROTECTION|~|~|code.bmsgeneralerrcd.e057|~|~|~|~
BT_DISCH_GENERAL_ERR_CD|E024|ON SEQUENCE GRID OFF|PROTECTION|~|~|code.btdischgeneralerrcd.e024|~|~|~|~
BT_DISCH_GENERAL_ERR_CD|E025|ON SEQUENCE BATT STATUS ERROR|PROTECTION|~|~|code.btdischgeneralerrcd.e025|~|~|~|~
BT_DISCH_GENERAL_ERR_CD|E026|ON SEQUENCE INV DC LINK ERROR|PROTECTION|~|~|code.btdischgeneralerrcd.e026|~|~|~|~
BT_DISCH_GENERAL_ERR_CD|E027|ON SEQUENCE BATT V & BATT I ERROR|PROTECTION|~|~|code.btdischgeneralerrcd.e027|~|~|~|~
BT_DISCH_GENERAL_ERR_CD|E028|NORMAL GRID OFF|PROTECTION|~|~|code.btdischgeneralerrcd.e028|~|~|~|~
BT_DISCH_GENERAL_ERR_CD|E029|NORMAL GRID OFF|PROTECTION|~|~|code.btdischgeneralerrcd.e029|~|~|~|~
BT_DISCH_GENERAL_ERR_CD|E030|NORMAL INV DC LINK ERROR|PROTECTION|~|~|code.btdischgeneralerrcd.e030|~|~|~|~
BT_DISCH_GENERAL_ERR_CD|E031|NORMAL BATT V & BATT I & BDC DC LINK ERROR|PROTECTION|~|~|code.btdischgeneralerrcd.e031|~|~|~|~
BT_STUS_CD|^0^|방전|~|Discharging|Entladen|code.btstuscd.0|~|~|~|~
BT_STUS_CD|^1^|충전|~|Charging|Laden|code.btstuscd.1|~|~|~|~
BT_STUS_CD|^2^|정지|~|Standby|Bereitschaft|code.btstuscd.2|~|~|~|~
CLIENT_TYPE_CD|CT01|Customer Web|~|~|~|code.clienttypecd.ct01|~|~|~|~
CLIENT_TYPE_CD|CT02|Admin Web|~|~|~|code.clienttypecd.ct02|~|~|~|~
CLIENT_TYPE_CD|CT03|Customer Mobile|~|~|~|code.clienttypecd.ct03|~|~|~|~
CLIENT_TYPE_CD|CT04|Engineer Mobile|~|~|~|code.clienttypecd.ct04|~|~|~|~
CMD_TYPE_CD|^10^|Push Update|~|~|~|code.cmdtypecd.10|~|~|~|~
CMD_TYPE_CD|^23^|Control|~|~|~|code.cmdtypecd.23|~|~|~|~
CMD_TYPE_CD|^25^|Request Logfile|~|~|~|code.cmdtypecd.25|~|~|~|~
CMD_TYPE_CD|^7^|Notification configChanged|~|~|~|code.cmdtypecd.7|~|~|~|~
CTL_TYPE_CD|C001|제어|~|Control|~|code.ctltypecd.c001|~|~|~|~
CTL_TYPE_CD|C002|Firmware Update|~|Firmware Update|~|code.ctltypecd.c002|~|~|~|~
CTL_TYPE_CD|C003|Log File Request|~|Log File Request|~|code.ctltypecd.c003|~|~|~|~
CTRL_RESPONSE_CD|^0^|제어 성공|~|Control Succcess|~|code.ctrlresponsecd.0|~|~|~|~
CTRL_RESPONSE_CD|^1^|제어 불가|~|Control Fail|~|code.ctrlresponsecd.1|~|~|~|~
CTRL_RESPONSE_CD|^2^|제어 인자 오류|~|Control Factor Error|~|code.ctrlresponsecd.2|~|~|~|~
CTRL_RESPONSE_CD|^255^|알수없는 오류|~|Unknown Error|~|code.ctrlresponsecd.255|~|~|~|~
DEVICE_TYPE_CD|BAT|Battery|~|Battery|Batterie|code.devicetypecd.bat|~|~|12.0|~
DEVICE_TYPE_CD|BMS|BMS|~|BMS|~|code.devicetypecd.bms|~|~|5.0|~
DEVICE_TYPE_CD|CES|CES|~|CES|~|code.devicetypecd.ces|~|AC|14.0|~
DEVICE_TYPE_CD|DV1|전력미터기|~|Power Meter|~|code.devicetypecd.dv1|~|~|6.0|~
DEVICE_TYPE_CD|DV2|차단기|~|Circuit Breaker|~|code.devicetypecd.dv2|~|~|7.0|~
DEVICE_TYPE_CD|EMS|EMS|~|EMS|~|code.devicetypecd.ems|~|~|3.0|~
DEVICE_TYPE_CD|ETC|Etc|~|Etc|Etc|code.devicetypecd.etc|~|~|13.0|~
DEVICE_TYPE_CD|HES|HES|~|HES|~|code.devicetypecd.hes|~|~|2.0|~
DEVICE_TYPE_CD|PCS|PCS|~|PCS|~|code.devicetypecd.pcs|~|~|4.0|~
DEVICE_TYPE_CD|PV|PV|~|PV|~|code.devicetypecd.pv|~|~|11.0|~
DEVICE_TYPE_CD|PWR|POWER|~|POWER|~|code.devicetypecd.pwr|~|AP|15.0|~
DEVICE_TYPE_CD|RAC|RACK|~|RACK|~|code.devicetypecd.rac|~|~|9.0|~
DEVICE_TYPE_CD|RES|RES|~|RES|~|code.devicetypecd.res|~|AR|1.0|~
DEVICE_TYPE_CD|TRA|TRAY|~|TRAY|~|code.devicetypecd.tra|~|~|10.0|~
EMS_COMM_ERR_CD|E058|PCS CAN ERROR|WARNING|~|~|code.emscommerrcd.e058|~|~|~|~
EMS_COMM_ERR_CD|E059|ETHERNET ERROR|WARNING|~|~|code.emscommerrcd.e059|~|~|~|~
EMS_COMM_ERR_CD|E060|SMART METER D0 ERROR|WARNING|~|~|code.emscommerrcd.e060|~|~|~|~
EMS_COMM_ERR_CD|E061|SMART METER S0 ERROR|WARNING|~|~|code.emscommerrcd.e061|~|~|~|~
EMS_COMM_ERR_CD|E062|SD CARD ERROR|WARNING|~|~|code.emscommerrcd.e062|~|~|~|~
EMS_COMM_ERR_CD|E063|EEPROM|WARNING|~|~|code.emscommerrcd.e063|~|~|~|~
CMD_REQ_STATUS_CD|^10^|WAS 에서 M2M 으로 요청 중|~|~|~|code.cmdreqstatuscd.10|~|~|~|~
CMD_REQ_STATUS_CD|^11^|WAS 에서 M2M 으로 요청 성공|~|~|~|code.cmdreqstatuscd.11|~|~|~|~
CMD_REQ_STATUS_CD|^15^|WAS 에서 M2M 으로 요청 실패|~|~|~|code.cmdreqstatuscd.15|~|~|~|~
CMD_REQ_STATUS_CD|^16^|해당 ESS 가 M2M 에 미접속 상태|~|~|~|code.cmdreqstatuscd.16|~|~|~|~
CMD_REQ_STATUS_CD|^20^|M2M 에서 ESS 으로 요청 중|~|~|~|code.cmdreqstatuscd.20|~|~|~|~
CMD_REQ_STATUS_CD|^21^|M2M 에서 ESS 으로 요청 성공|~|~|~|code.cmdreqstatuscd.21|~|~|~|~
CMD_REQ_STATUS_CD|^25^|M2M 에서 ESS 으로 요청 실패|~|~|~|code.cmdreqstatuscd.25|~|~|~|~
CMD_REQ_STATUS_CD|^50^|ESS 응답 대기중|~|~|~|code.cmdreqstatuscd.50|~|~|~|~
CMD_REQ_STATUS_CD|^51^|ESS 응답 성공|~|~|~|code.cmdreqstatuscd.51|~|~|~|~
CMD_REQ_STATUS_CD|^55^|ESS 응답 실패|~|~|~|code.cmdreqstatuscd.55|~|~|~|~
EVENT_TYPE_CD|^0^|비활성|~|~|~|code.eventtypecd.0|~|~|1.0|~
EVENT_TYPE_CD|^1^|활성|~|~|~|code.eventtypecd.1|~|~|2.0|~
FAQ_TYPE_CD|^01^|일반사항|~|~|~|code.faqtypecd.01|~|~|1.0|~
FAQ_TYPE_CD|^02^|설치사항|~|~|~|code.faqtypecd.02|~|~|2.0|~
FAQ_TYPE_CD|^03^|제품동작|~|~|~|code.faqtypecd.03|~|~|3.0|~
FAQ_TYPE_CD|^04^|유지보수|~|~|~|code.faqtypecd.04|~|~|4.0|~
FAQ_TYPE_CD|^05^|기타|~|~|~|code.faqtypecd.05|~|~|5.0|~
AS_QNA_TYPE_CD|^10^|A/S 요청|~|~|~|code.asqnatypecd.10|~|~|1.0|~
AS_QNA_TYPE_CD|^20^|제품 사용법|~|~|~|code.asqnatypecd.20|~|~|2.0|~
AS_QNA_TYPE_CD|^30^|하드웨어 오류|~|~|~|code.asqnatypecd.30|~|~|3.0|~
AS_QNA_TYPE_CD|^40^|소프트웨어 오류|~|~|~|code.asqnatypecd.40|~|~|4.0|~
PRODUCT_CD|^01^|유럽향 단상|~|~|~|code.productcd.01|~|~|1.0|~
PRODUCT_CD|^02^|유럽향 3상|~|~|~|code.productcd.02|~|~|2.0|~
PRODUCT_CD|^03^|유럽향 Scalable|~|~|~|code.productcd.03|~|~|3.0|~
PRODUCT_CD|^11^|호주향 단상|~|~|~|code.productcd.11|~|~|4.0|~
PRODUCT_CD|^12^|호주향 3상|~|~|~|code.productcd.12|~|~|5.0|~
PRODUCT_CD|^13^|호주향 Scalable|~|~|~|code.productcd.13|~|~|6.0|~
EMS_RUN_MODE_CD|^9^|ESM|~|~|~|code.emsrunmodecd.9|~|EMS Sleep Mode|9.0|~
SMTR_TP_CD|^3^|Internal|~|~|~|code.smtrtpcd.3|~|~|4.0|~
SMTR_MODL_CD|^0^|UNDEFINED|~|~|~|code.smtrmodlcd.0|~|~|1.0|~
SMTR_MODL_CD|^1^|ESY5Q3DA1024 (EasyMeter)|~|~|~|code.smtrmodlcd.1|~|~|2.0|~
SMTR_MODL_CD|^2^|EHZ363ZA (Hager)|~|~|~|code.smtrmodlcd.2|~|~|3.0|~
SMTR_MODL_CD|^3^|MT174-D2A520V12G120-K0 (Iskra)|~|~|~|code.smtrmodlcd.3|~|~|4.0|~
SMTR_MODL_CD|^4^|EM112 (CarloGavazzi)|~|~|~|code.smtrmodlcd.4|~|~|5.0|~
SMTR_MODL_CD|^5^|EM24 (CarloGavazzi)|~|~|~|code.smtrmodlcd.5|~|~|6.0|~
SMTR_MODL_CD|^6^|ED300L W2E8-ON-EL0-D2-0000002-F50/Q2 (EMH)|~|~|~|code.smtrmodlcd.6|~|~|7.0|~
SMTR_MODL_CD|^7^|eHZ-IW8E2AWL0EQ2P (EMH)|~|~|~|code.smtrmodlcd.7|~|~|8.0|~
SMTR_MODL_CD|^8^|eHZ-IW8E2A5L0EQ2P (EMH)|~|~|~|code.smtrmodlcd.8|~|~|9.0|~
SMTR_MODL_CD|^9^|Mk7C (EDMI)|~|~|~|code.smtrmodlcd.9|~|~|10.0|~
SMTR_MODL_CD|^10^|C2000 (AutoMeters)|~|~|~|code.smtrmodlcd.10|~|~|11.0|~
MAX_INVERTER_PW_CD|^36^|^3600^|~|~|~|code.maxinverterpwcd.36|~|^0036^|1.0|~
MAX_INVERTER_PW_CD|^46^|^4600^|~|~|~|code.maxinverterpwcd.46|~|^0046^|2.0|~
MAX_INVERTER_PW_CD|^50^|^5000^|~|~|~|code.maxinverterpwcd.50|~|^0050^|3.0|~
MAX_INVERTER_PW_CD|^80^|^8000^|~|~|~|code.maxinverterpwcd.80|~|^0080^|4.0|~
PRODUCT_MODEL_CD|ELSR362-00002|ELSR362-00002|AR|^0046^|^0036^|code.productmodelcd.elsr362-00002|UK|A|2.0|^01^
PRODUCT_MODEL_CD|ELSR362-00003|ELSR362-00003|AR|^0046^|^0036^|code.productmodelcd.elsr362-00003|PT|B|3.0|^01^
PRODUCT_MODEL_CD|ELSR362-00004|ELSR362-00004|AR|^0046^|^0036^|code.productmodelcd.elsr362-00004|AU|C|4.0|^11^
PRODUCT_MODEL_CD|ELSR362-00005|ELSR362-00005|AR|^0046^|^0036^|code.productmodelcd.elsr362-00005|IT|D|5.0|^01^
PRODUCT_MODEL_CD|ELSR722-00004|ELSR722-00004|AR|^0050^|^0072^|code.productmodelcd.elsr722-00004|AU|C|8.0|^13^
PRODUCT_MODEL_CD|ELSR103-00001|ELSR103-00001|AR|^0050^|^0108^|code.productmodelcd.elsr103-00001|AU|C|7.0|^13^
PRODUCT_MODEL_CD|ELSR552-00001|ELSR552-00001|AR|^0046^|^0055^|code.productmodelcd.elsr552-00001|DE|X|9.0|^02^
CAPACITY_CD|^3.6^|^3.6^|~|^3.6^|^3.6^|code.capacitycd.3.6|~|^0036^|1.0|~
CAPACITY_CD|^4.6^|^4.6^|~|^4.6^|^4.6^|code.capacitycd.4.6|~|^0046^|2.0|~
CAPACITY_CD|^5.0^|^5.0^|~|^5.0^|^5.0^|code.capacitycd.5.0|~|^0050^|3.0|~
CAPACITY_CD|^5.5^|^5.5^|~|^5.5^|^5.5^|code.capacitycd.5.5|~|^0055^|4.0|~
CAPACITY_CD|^7.2^|^7.2^|~|^7.2^|^7.2^|code.capacitycd.7.2|~|^0072^|5.0|~
CAPACITY_CD|^8.0^|^8.0^|~|^8.0^|^8.0^|code.capacitycd.8.0|~|^0080^|6.0|~
CAPACITY_CD|^10.8^|^10.8^|~|^10.8^|^10.8^|code.capacitycd.10.8|~|^0108^|7.0|~
PRODUCT_MODEL_CD|ELSR362-00001|ELSR362-00001|AR|^0046^|^0036^|code.productmodelcd.elsr362-00001|DE|X|1.0|^01^
ALARM_TYPE_CD|^1^|Notification|~|~|~|code.alarmtypecd.1|~|~|~|~
ALARM_TYPE_CD|^2^|Warning|~|~|~|code.alarmtypecd.2|~|~|~|~
ALARM_TYPE_CD|^3^|Error|~|~|~|code.alarmtypecd.3|~|~|~|~
PRODUCT_MODEL_CD|ELSR802-00002|ELSR802-00002|AR|^0080^|^0080^|code.productmodelcd.elsr802-00002|DE|X|10.0|^02^
CNTRY_CD|KR|대한민국|~|~|~|code.cntrycd.kr|~|~|1.0|~
CNTRY_CD|DE|Deutschland|~|~|~|code.cntrycd.de|~|~|2.0|~
CNTRY_CD|UK|United Kingdom|~|~|~|code.cntrycd.uk|~|~|3.0|~
CNTRY_CD|IT|Italia|~|~|~|code.cntrycd.it|~|~|4.0|~
CNTRY_CD|PT|Portugal|~|~|~|code.cntrycd.pt|~|~|5.0|~
CNTRY_CD|AU|Australia|~|~|~|code.cntrycd.au|~|~|6.0|~
CLIENT_TYPE_CD|CT05|Portal Web|~|~|~|code.clienttypecd.ct05|~|~|~|~
OPER_STUS_CD|^0^|운전중|~|Run|~|code.operstuscd.0|~|~|~|~
OPER_STUS_CD|^1^|경고|~|Warning|~|code.operstuscd.1|~|~|~|~
OPER_STUS_CD|^2^|오류|~|Error|~|code.operstuscd.2|~|~|~|~
OPER_STUS_CD|^3^|미연결|~|Offline|~|code.operstuscd.3|~|~|~|~
OPER_STUS_CD|^4^|독립운전|~|Standalone|~|code.operstuscd.4|~|~|~|~
SMTR_TP_CD|^0^|No Setting|~|~|~|code.smtrtpcd.0|~|~|1.0|~
SMTR_TP_CD|^1^|S0|~|~|~|code.smtrtpcd.1|~|~|2.0|~
SMTR_TP_CD|^2^|D0(Bi-Direction)|~|~|~|code.smtrtpcd.2|~|~|3.0|~
BASICMODE_CD|^0^|Off|~|~|~|code.basicmodecd.0|~|~|1.0|~
BASICMODE_CD|^1^|On|~|~|~|code.basicmodecd.1|~|~|2.0|~
VOC_TYPE_CD|^01^|A/S 요청|~|~|~|code.voctypecd.01|~|~|~|~
VOC_TYPE_CD|^02^|제품 사용법 문의|~|~|~|code.voctypecd.02|~|~|~|~
VOC_TYPE_CD|^03^|하드웨어 오류|~|~|~|code.voctypecd.03|~|~|~|~
VOC_TYPE_CD|^04^|소프트웨어 오류|~|~|~|code.voctypecd.04|~|~|~|~
VOC_TYPE_CD|^05^|일반 문의|~|~|~|code.voctypecd.05|~|~|~|~
MTNC_TYPE_CD|^01^|EMS 교체|~|~|~|code.mtnctypecd.01|~|~|~|~
MTNC_TYPE_CD|^02^|PCS 교체|~|~|~|code.mtnctypecd.02|~|~|~|~
MTNC_TYPE_CD|^03^|배터리 교체|~|~|~|code.mtnctypecd.03|~|~|~|~
MTNC_TYPE_CD|^04^|케이스 교체|~|~|~|code.mtnctypecd.04|~|~|~|~
MTNC_TYPE_CD|^05^|부품 교체|~|~|~|code.mtnctypecd.05|~|~|~|~
MTNC_TYPE_CD|^06^|S/W 업데이트|~|~|~|code.mtnctypecd.06|~|~|~|~
MTNC_TYPE_CD|^07^|일반 점검|~|~|~|code.mtnctypecd.07|~|~|~|~
ACT_TYPE_CD|^10^|VOC|~|~|~|code.acttypecd.10|~|~|1.0|~
ACT_TYPE_CD|^20^|Maintenance|~|~|~|code.acttypecd.20|~|~|2.0|~
ACT_TYPE_CD|^30^|Installation|~|~|~|code.acttypecd.30|~|~|3.0|~
ACT_TYPE_CD|^40^|Control|~|~|~|code.acttypecd.40|~|~|4.0|~
ACT_TYPE_CD|^50^|Request Log|~|~|~|code.acttypecd.50|~|~|5.0|~
MTNC_STUS_CD|^01^|접수|~|~|~|code.mtncstuscd.01|~|~|~|~
MTNC_STUS_CD|^02^|처리중|~|~|~|code.mtncstuscd.02|~|~|~|~
MTNC_STUS_CD|^03^|완료|~|~|~|code.mtncstuscd.03|~|~|~|~
LOGFILE_REQ_COMN_CD|^0^|SFTP|~|~|~|code.logfilereqcomncd.0|~|~|~|~
LOGFILE_REQ_COMN_CD|^1^|HTTPS|~|~|~|code.logfilereqcomncd.1|~|~|~|~
LOGFILE_TYPE_CD|^0^|EMS 로그|~|~|~|code.logfiletypecd.0|~|~|~|~
LOGFILE_TYPE_CD|^1^|통신 Raw data|~|~|~|code.logfiletypecd.1|~|~|~|~
AUTH_TYPE_CD|^30^|Operator|~|~|~|code.authtypecd.30|~|~|~|~
MONE_UNIT_CD|CHF|Franc|?|~|~|code.moneunitcd.chf|~|~|~|~
MONE_UNIT_CD|EUR|Euro|€|~|~|code.moneunitcd.eur|~|~|~|~
MONE_UNIT_CD|GBP|Pound|￡|~|~|code.moneunitcd.gbp|~|~|~|~
MONE_UNIT_CD|KRW|원|￦|~|~|code.moneunitcd.krw|~|~|~|~
MONE_UNIT_CD|NZD|New Zealand Dollar|＄|~|~|code.moneunitcd.nzd|~|~|~|~
MONE_UNIT_CD|USD|Dollar|＄|~|~|code.moneunitcd.usd|~|~|~|~
NOTI_TYPE_CD|^00^|일반 공지|~|Maintenace Notice|Maintenace Notice|code.notitypecd.00|~|~|~|~
NOTI_TYPE_CD|^01^|긴급 공지|~|Urgency Notice|Urgency Notice|code.notitypecd.01|~|~|~|~
NOTI_TYPE_CD|^02^|업데이트 공지|~|General Notice|General Notice|code.notitypecd.02|~|~|~|~
PCS_GENERAL_ERR_CD|E011|GRID OVER VOLTAGE PROTECTION|PROTECTION|~|~|code.pcsgeneralerrcd.e011|~|~|~|~
PCS_GENERAL_ERR_CD|E012|GRID OVER CURRENT PROTECTION|PROTECTION|~|~|code.pcsgeneralerrcd.e012|~|~|~|~
PCS_GENERAL_ERR_CD|E013|GRID RMS OVER CURRENT PROTECTION|PROTECTION|~|~|code.pcsgeneralerrcd.e013|~|~|~|~
PCS_GENERAL_ERR_CD|E014|LOAD OVER VOLTAGE PROTECTION|PROTECTION|~|~|code.pcsgeneralerrcd.e014|~|~|~|~
PCS_GENERAL_ERR_CD|E015|DC LINK OVER VOLTAGE PROTECTION|PROTECTION|~|~|code.pcsgeneralerrcd.e015|~|~|~|~
PCS_GENERAL_ERR_CD|E016|PV STRING1 REVERSE CONNECTION PROTECTION|PROTECTION|~|~|code.pcsgeneralerrcd.e016|~|~|~|~
PCS_GENERAL_ERR_CD|E017|PV STRING2 REVERSE CONNECTION PROTECTION|PROTECTION|~|~|code.pcsgeneralerrcd.e017|~|~|~|~
PCS_GENERAL_ERR_CD|E018|PV STRING1 OVER VOLTAGE PROTECTION|PROTECTION|~|~|code.pcsgeneralerrcd.e018|~|~|~|~
PCS_GENERAL_ERR_CD|E019|PV STRING1 OVER CURRENT PROTECTION|PROTECTION|~|~|code.pcsgeneralerrcd.e019|~|~|~|~
PCS_GENERAL_ERR_CD|E020|PV STRING2 OVER VOLTAGE PROTECTION|PROTECTION|~|~|code.pcsgeneralerrcd.e020|~|~|~|~
PCS_GENERAL_ERR_CD|E021|PV STRING2 OVER CURRENT PROTECTION|PROTECTION|~|~|code.pcsgeneralerrcd.e021|~|~|~|~
PCS_GENERAL_ERR_CD|E022|BATT OVER VOLTAGE PROTECTION|PROTECTION|~|~|code.pcsgeneralerrcd.e022|~|~|~|~
PCS_GENERAL_ERR_CD|E023|BATT OVER CURRENT PROTECTION|PROTECTION|~|~|code.pcsgeneralerrcd.e023|~|~|~|~
PCS_GENERAL_WARN_CD|E001|GRID UNDER VOLTAGE WARNING|WARNING|~|~|code.pcsgeneralwarncd.e001|~|~|~|~
PCS_GENERAL_WARN_CD|E002|GRID OVER VOLTAGE WARNING|WARNING|~|~|code.pcsgeneralwarncd.e002|~|~|~|~
PCS_GENERAL_WARN_CD|E003|PV UNDER VOLTAGE WARNING|WARNING|~|~|code.pcsgeneralwarncd.e003|~|~|~|~
PCS_GENERAL_WARN_CD|E004|PV OVER VOLTAGE WARNING|WARNING|~|~|code.pcsgeneralwarncd.e004|~|~|~|~
PCS_GENERAL_WARN_CD|E005|GRID OVER CURRENT WARNING|WARNING|~|~|code.pcsgeneralwarncd.e005|~|~|~|~
PCS_GENERAL_WARN_CD|E006|PV OVER CURRENT WARNING|WARNING|~|~|code.pcsgeneralwarncd.e006|~|~|~|~
PCS_GENERAL_WARN_CD|E007|BATT UNDER VOLTAGE WARNING|WARNING|~|~|code.pcsgeneralwarncd.e007|~|~|~|~
PCS_GENERAL_WARN_CD|E008|BATT OVER VOLTAGE WARNING|WARNING|~|~|code.pcsgeneralwarncd.e008|~|~|~|~
PCS_GENERAL_WARN_CD|E009|BATT OVER CURRENT WARNING|WARNING|~|~|code.pcsgeneralwarncd.e009|~|~|~|~
PCS_MODE_1_CD|A|Auto|~|~|~|code.pcsmode1cd.a|~|~|2.0|~
PCS_MODE_1_CD|C|Charge|~|~|~|code.pcsmode1cd.c|~|~|4.0|~
PCS_MODE_1_CD|D|Discharge|~|~|~|code.pcsmode1cd.d|~|~|5.0|~
PCS_MODE_1_CD|L|Stand Alone|~|~|~|code.pcsmode1cd.l|~|~|6.0|~
PCS_MODE_1_CD|P|PV Only|~|~|~|code.pcsmode1cd.p|~|~|3.0|~
PCS_MODE_1_CD|S|No Operation|~|~|~|code.pcsmode1cd.s|~|~|1.0|~
PCS_MODE_2_CD|B|Both|~|~|~|code.pcsmode2cd.b|~|~|1.0|~
PCS_MODE_2_CD|S|Strong|~|~|~|code.pcsmode2cd.s|~|~|2.0|~
PCS_MODE_2_CD|W|Weak|~|~|~|code.pcsmode2cd.w|~|~|3.0|~
PUSH_UPDATE_RESPONSE_CD|^0^|업데이트 요청 수신|~|Update requests received|Update-Anfragen erhalten|code.pushupdateresponsecd.0|~|Push UPdate 명령결과 코드|1.0|~
PUSH_UPDATE_RESPONSE_CD|^1^|Model명 Error|~|Model Name Error|Modellname Fehler|code.pushupdateresponsecd.1|~|Push UPdate 명령결과 코드|2.0|~
PUSH_UPDATE_RESPONSE_CD|^16^|EMS File Length Error|~|EMS File Length Error|EMS File Length Fehler|code.pushupdateresponsecd.16|~|Push UPdate 명령결과 코드|6.0|~
PUSH_UPDATE_RESPONSE_CD|^2^|EMS File Download Error|~|EMS File Download Error|EMS File Download Fehler|code.pushupdateresponsecd.2|~|Push UPdate 명령결과 코드|3.0|~
PUSH_UPDATE_RESPONSE_CD|^255^|알수없는 오류|~|Unknown error|Unbekannter Fehler|code.pushupdateresponsecd.255|~|Push UPdate 명령결과 코드|9.0|~
PUSH_UPDATE_RESPONSE_CD|^32^|PCS File Length Error|~|PCS File Length Error|PCS File Length Fehler|code.pushupdateresponsecd.32|~|Push UPdate 명령결과 코드|7.0|~
PUSH_UPDATE_RESPONSE_CD|^4^|PCS File Download Error|~|PCS File Download Error|PCS File Download Fehler|code.pushupdateresponsecd.4|~|Push UPdate 명령결과 코드|4.0|~
PUSH_UPDATE_RESPONSE_CD|^64^|BMS File Length Error|~|BMS File Length Error|BMS File Length Fehler|code.pushupdateresponsecd.64|~|Push UPdate 명령결과 코드|8.0|~
PUSH_UPDATE_RESPONSE_CD|^8^|BMS File Download Error|~|BMS File Download Error|BMS File Download Fehler|code.pushupdateresponsecd.8|~|Push UPdate 명령결과 코드|5.0|~
PV_GENERAL_ERR_CD|E032|ON SEQUENCE GRID OFF|PROTECTION|~|~|code.pvgeneralerrcd.e032|~|~|~|~
PV_GENERAL_ERR_CD|E033|ON SEQUENCE INV DC LINK ERROR|PROTECTION|~|~|code.pvgeneralerrcd.e033|~|~|~|~
PV_GENERAL_ERR_CD|E034|ON SEQUENCE PV V ERROR|PROTECTION|~|~|code.pvgeneralerrcd.e034|~|~|~|~
PV_GENERAL_ERR_CD|E035|NORMAL GRID OFF|PROTECTION|~|~|code.pvgeneralerrcd.e035|~|~|~|~
PV_GENERAL_ERR_CD|E036|NORMAL INV DC LINK & PV I ERROR|PROTECTION|~|~|code.pvgeneralerrcd.e036|~|~|~|~
PV_GENERAL_ERR_CD|E037|NORMAL PV V ERROR|PROTECTION|~|~|code.pvgeneralerrcd.e037|~|~|~|~
PV_STUS_CD|^0^|정지|~|Stop|Stopp|code.pvstuscd.0|~|~|~|~
PV_STUS_CD|^1^|발전|~|Generating|Erzeugungs|code.pvstuscd.1|~|~|~|~
PWR_RANGE_CD|S|작음|~|~|~|code.pwrrangecd.s|~|~|~|~
PWR_RANGE_CD|M|보통|~|~|~|code.pwrrangecd.m|~|~|~|~
PWR_RANGE_CD|L|큼|~|~|~|code.pwrrangecd.l|~|~|~|~
RANK_TYPE_CD|RT01|고객의 일별 순수 Grid 사용량 순위|~|Gross energy consumption per day|Bruttoenergieverbrauch pro Tag|code.ranktypecd.rt01|~|~|~|~
RANK_TYPE_CD|RT02|고객의 일별 유사가구면적 그룹에서 순위|~|Similar floorspace per day|?hnlich Nutzfl?che pro Tag|code.ranktypecd.rt02|~|~|~|~
RANK_TYPE_CD|RT03|고객의 일별 총 가구 인원 동일 그룹에서 순위|~|Similar number of inhabitants (day&night) per day|?hnliche Zahl der Einwohner (Tag & Nacht) pro Tag|code.ranktypecd.rt03|~|~|~|~
RANK_TYPE_CD|RT04|고객의 일별 총 상주 가구 인원 동일 그룹에서 순위|~|Similar number of inhabitants (daytime) per day|?hnliche Zahl der Einwohner (Tageszeit) pro Tag|code.ranktypecd.rt04|~|~|~|~
RANK_TYPE_CD|RT05|고객과 일별 동일한 요금제 그룹에서 순위|~|Same electricity tariff per day|gleichen Stromtarif pro Tag|code.ranktypecd.rt05|~|~|~|~
RANK_TYPE_CD|RT06|고객의 일별 면적당 사용량 순위|~|Gross energy consumption for the unit area per day|Bruttoenergieverbrauch f?r die Fl?chen pro Tag|code.ranktypecd.rt06|~|~|~|~
RANK_TYPE_CD|RT11|고객의 월별 순수 Grid 사용량 순위|~|Gross energy consumption per month|Bruttoenergieverbrauch pro Monat|code.ranktypecd.rt11|~|~|~|~
RANK_TYPE_CD|RT12|고객의 월별 유사가구면적 그룹에서 순위|~|Similar floorspace per day|?hnlich Nutzfl?che pro Monat|code.ranktypecd.rt12|~|~|~|~
RANK_TYPE_CD|RT13|고객의 월별 총 가구 인원 동일 그룹에서 순위|~|Similar number of inhabitants (day&night) per month|?hnliche Zahl der Einwohner (Tag & Nacht) pro Monat|code.ranktypecd.rt13|~|~|~|~
RANK_TYPE_CD|RT14|고객의 월별 총 상주 가구 인원 동일 그룹에서 순위|~|Similar number of inhabitants (daytime) per month|?hnliche Zahl der Einwohner (Tageszeit) pro Monat|code.ranktypecd.rt14|~|~|~|~
RANK_TYPE_CD|RT15|고객과 월별 동일한 요금제 그룹에서 순위|~|Same electricity tariff per month|gleichen Stromtarif pro Monat|code.ranktypecd.rt15|~|~|~|~
EMS_SIG_ERR_CD|E106|PV CROSS CONNECTION Permanent Fail|Significant|~|~|code.emssigerrcd.e106|~|~|~|~
RANK_TYPE_CD|RT16|고객의 월별 면적당 사용량 순위|~|Gross energy consumption for the unit area per month|Bruttoenergieverbrauch f?r die Fl?chen pro Monat|code.ranktypecd.rt16|~|~|~|~
REQ_TYPE_CD|M2M|M2M 서버|~|~|~|code.reqtypecd.m2m|~|~|~|~
REQ_TYPE_CD|WEB|Web|~|~|~|code.reqtypecd.web|~|~|~|~
RGR_RSPP_CD|^00^|^0^|~|~|~|code.rgrrsppcd.00|~|~|~|~
RGR_RSPP_CD|^01^|^1^|~|~|~|code.rgrrsppcd.01|~|~|~|~
RGR_RSPP_CD|^02^|^2 ~ 3^|~|~|~|code.rgrrsppcd.02|~|~|~|~
RGR_RSPP_CD|^03^|^3 ~ 5^|~|~|~|code.rgrrsppcd.03|~|~|~|~
RGR_RSPP_CD|^04^|^5 ~ 7^|~|~|~|code.rgrrsppcd.04|~|~|~|~
RGR_RSPP_CD|^05^|^7 ~ 10^|~|~|~|code.rgrrsppcd.05|~|~|~|~
RGR_RSPP_CD|^06^|^10 ~^|~|~|~|code.rgrrsppcd.06|~|~|~|~
SEC_TYPE_CD|^00^|웹/모바일 로그인 실패|~|~|~|code.sectypecd.00|~|~|~|~
SEC_TYPE_CD|^01^|ID, 패스워드 SQL 삽입시도|~|~|~|code.sectypecd.01|~|~|~|~
SEC_TYPE_CD|^02^|웹/모바일 패스워드 Reset 요청|~|~|~|code.sectypecd.02|~|~|~|~
SEC_TYPE_CD|^03^|RES 로그인 실패|~|~|~|code.sectypecd.03|~|~|~|~
SEC_TYPE_CD|^04^|XML 스키마 위반 메시지|~|~|~|code.sectypecd.04|~|~|~|~
SYS_TYPE_CD|ST01|WAS|~|WAS|~|code.systypecd.st01|~|~|~|~
SYS_TYPE_CD|ST02|M2M|~|M2M|~|code.systypecd.st02|~|~|~|~
SYS_TYPE_CD|ST03|DB|~|DB|~|code.systypecd.st03|~|~|~|~
SYS_TYPE_CD|ST04|WEATHER|~|WEATHER|~|code.systypecd.st04|~|~|~|~
TOT_RSPP_CD|^00^|^1^|~|~|~|code.totrsppcd.00|~|~|~|~
TOT_RSPP_CD|^01^|^2 ~ 3^|~|~|~|code.totrsppcd.01|~|~|~|~
TOT_RSPP_CD|^02^|^3 ~ 5^|~|~|~|code.totrsppcd.02|~|~|~|~
TOT_RSPP_CD|^03^|^5 ~ 7^|~|~|~|code.totrsppcd.03|~|~|~|~
TOT_RSPP_CD|^04^|^7 ~ 10^|~|~|~|code.totrsppcd.04|~|~|~|~
TOT_RSPP_CD|^05^|^10 ~^|~|~|~|code.totrsppcd.05|~|~|~|~
UPDATE_RESPONSE_CD|^0^|업데이트 성공|~|Update Success|~|code.updateresponsecd.0|~|~|~|~
UPDATE_RESPONSE_CD|^1^|업데이트 실패 (EMS)|~|Update Fail(EMS)|~|code.updateresponsecd.1|~|~|~|~
UPDATE_RESPONSE_CD|^2^|업데이트 실패 (PCS)|~|Update Fail(PCS)|~|code.updateresponsecd.2|~|~|~|~
UPDATE_RESPONSE_CD|^255^|알수없는 오류|~|Unknown Error|~|code.updateresponsecd.255|~|~|~|~
UPDATE_RESPONSE_CD|^4^|업데이트 실패 (BMS)|~|Update Fail(BMS)|~|code.updateresponsecd.4|~|~|~|~
UPDATE_RESPONSE_CD|^8^|다운로드 불가|~|Download Fail|~|code.updateresponsecd.8|~|~|~|~
WEATHER_COLLECT_ERR_CD|ME01|데이타 수집오류|~|Data Collection Error|~|code.weathercollecterrcd.me01|~|~|~|~
WEATHER_COLLECT_ERR_CD|ME02|DB 에러|~|DB Error|~|code.weathercollecterrcd.me02|~|~|~|~
WEATHER_COLLECT_ERR_CD|ME03|어플리케이션 오류|~|Application Error|~|code.weathercollecterrcd.me03|~|~|~|~
WEATHER_COLLECT_ERR_CD|ME04|UNKNOWN ERR|~|Unknown Error|~|code.weathercollecterrcd.me04|~|~|~|~
WEATHER_INFO_CD|^01^|Clear|~|~|~|code.weatherinfocd.01|~|~|~|~
WEATHER_INFO_CD|^02^|Few Clouds|~|~|~|code.weatherinfocd.02|~|~|~|~
WEATHER_INFO_CD|^03^|clouds|~|~|~|code.weatherinfocd.03|~|~|~|~
WEATHER_INFO_CD|^09^|Rain|~|~|~|code.weatherinfocd.09|~|~|~|~
WEATHER_INFO_CD|^11^|Thunderstorm|~|~|~|code.weatherinfocd.11|~|~|~|~
WEATHER_INFO_CD|^13^|Snow|~|~|~|code.weatherinfocd.13|~|~|~|~
WEATHER_INFO_CD|^50^|Mist|~|~|~|code.weatherinfocd.50|~|~|~|~
WORK_TYPE_CD|WT01|설치|~|Install|~|code.worktypecd.wt01|~|~|~|~
WORK_TYPE_CD|WT02|A/S|~|After Service|~|code.worktypecd.wt02|~|~|~|~
WORK_TYPE_CD|WT03|철거|~|Remove|~|code.worktypecd.wt03|~|~|~|~
POPUP_TYPE_CD|^0^|시스템 긴급 점검|~|System Check|Systemwartung|code.popuptypecd.0|~|~|~|~
POPUP_TYPE_CD|^1^|시스템 정기 점검|~|System Regular Check|Hinweis zu Wartungsarbeiten|code.popuptypecd.1|~|~|~|~
SYS_ST_CD|^0^|Not OK|~|~|~|code.sysstcd.0|~|~|~|~
SYS_ST_CD|^1^|OK|~|~|~|code.sysstcd.1|~|~|~|~
BT_CHRG_ST_CD|^0^|Not OK|~|~|~|code.btchrgstcd.0|~|~|~|~
BT_CHRG_ST_CD|^1^|OK|~|~|~|code.btchrgstcd.1|~|~|~|~
BT_DCHRG_ST_CD|^0^|Not OK|~|~|~|code.btdchrgstcd.0|~|~|~|~
BT_DCHRG_ST_CD|^1^|OK|~|~|~|code.btdchrgstcd.1|~|~|~|~
PV_ST_CD|^0^|Not OK|~|~|~|code.pvstcd.0|~|~|~|~
PV_ST_CD|^1^|OK|~|~|~|code.pvstcd.1|~|~|~|~
GRID_ST_CD|^0^|Not OK|~|~|~|code.gridstcd.0|~|~|~|~
GRID_ST_CD|^1^|OK|~|~|~|code.gridstcd.1|~|~|~|~
SMTR_ST_CD|^0^|Not OK|~|~|~|code.smtrstcd.0|~|~|~|~
SMTR_ST_CD|^1^|OK|~|~|~|code.smtrstcd.1|~|~|~|~
PRODUCT_MODEL_TYPE_CD|ELSR103|ELSR103|~|~|~|code.productmodeltypecd.elsr103|~|~|1.0|~
PRODUCT_MODEL_TYPE_CD|ELSR362|ELSR362|~|~|~|code.productmodeltypecd.elsr362|~|~|2.0|~
PRODUCT_MODEL_TYPE_CD|ELSR552|ELSR552|~|~|~|code.productmodeltypecd.elsr552|~|~|3.0|~
PRODUCT_MODEL_TYPE_CD|ELSR722|ELSR722|~|~|~|code.productmodeltypecd.elsr722|~|~|4.0|~
PRODUCT_MODEL_TYPE_CD|ELSR802|ELSR802|~|~|~|code.productmodeltypecd.elsr802|~|~|5.0|~
API_AUTH_TYPE_CD|^10^|GENERAL_USER|~|~|~|code.apiauthtypecd.10|~|~|~|~
API_AUTH_TYPE_CD|^20^|STATISTICS_USER|~|~|~|code.apiauthtypecd.20|~|~|~|~
API_AUTH_TYPE_CD|^30^|CONTROL_USER|~|~|~|code.apiauthtypecd.30|~|~|~|~
EMS_OPER_MODE_CD|^0^|ELA|~|ELA|~|code.emsopermodecd.0|~|~|~|~
EMS_OPER_MODE_CD|^1^|ERM|~|ERM|~|code.emsopermodecd.1|~|~|~|~
EMS_OPER_MODE_CD|^2^|ERA|~|ERA|~|code.emsopermodecd.2|~|~|~|~
EMS_RUN_MODE_CD|^0^|ESU|~|~|~|code.emsrunmodecd.0|~|EMS Software Upgrade|1.0|~
EMS_RUN_MODE_CD|^1^|ESB|~|~|~|code.emsrunmodecd.1|~|EMS Stand By|2.0|~
EMS_RUN_MODE_CD|^2^|ELM|~|~|~|code.emsrunmodecd.2|~|EMS Local Manual|3.0|~
EMS_RUN_MODE_CD|^3^|ETS|~|~|~|code.emsrunmodecd.3|~|EMS Time Schedule|4.0|~
EMS_RUN_MODE_CD|^4^|EPA|~|~|~|code.emsrunmodecd.4|~|EMS PCS Alone|5.0|~
EMS_RUN_MODE_CD|^5^|ELS|~|~|~|code.emsrunmodecd.5|~|EMS Local Semi-Auto|6.0|~
EMS_RUN_MODE_CD|^6^|ERM|~|~|~|code.emsrunmodecd.6|~|EMS Remote Manual|7.0|~
EMS_RUN_MODE_CD|^7^|ERA|~|~|~|code.emsrunmodecd.7|~|EMS Remote Auto|8.0|~
EMS_RUN_MODE_CD|^8^|ELA|~|~|~|code.emsrunmodecd.8|~|EMS local Auto|9.0|~
EMS_RUN_MODE_CD|X|OFF|~|~|~|code.emsrunmodecd.x|~|EMS Grid Off|10.0|~
EMS_SIG_ERR_CD|E103|CAN COMMUNICATION ERROR|Significant|~|~|code.emssigerrcd.e103|~|~|~|~
EMS_SIG_ERR_CD|E104|SINGLE FAULT ERROR|Significant|~|~|code.emssigerrcd.e104|~|~|~|~
EMS_SIG_ERR_CD|E105|CONTINUOUSLY 3TIMES PCS FAULT|Significant|~|~|code.emssigerrcd.e105|~|~|~|~
EMS_SIG_ERR_CD|E107|Cell Over Voltage Permanent Fail|Significant|~|~|code.emssigerrcd.e107|~|~|~|~
EMS_SIG_ERR_CD|E108|Cell Under Voltage Permanent Fail|Significant|~|~|code.emssigerrcd.e108|~|~|~|~
EMS_SIG_ERR_CD|E109|Cell Over Temperature Permanent Fail|Significant|~|~|code.emssigerrcd.e109|~|~|~|~
EMS_SIG_ERR_CD|E110|Cell Voltage Imbalance Permanent Fail|Significant|~|~|code.emssigerrcd.e110|~|~|~|~
ERA_MODE_CD|^0^|NOP|~|NOP|~|code.eramodecd.0|~|~|~|~
ERA_MODE_CD|^1^|DR|~|DR|~|code.eramodecd.1|~|~|~|~
ERA_MODE_CD|^2^|긴급정지|~|Urgent Stop|~|code.eramodecd.2|~|~|~|~
ERM_MODE_1_CD|^0^|NOP|~|NOP|~|code.ermmode1cd.0|~|~|~|~
ERM_MODE_1_CD|^1^|Auto|~|Auto|~|code.ermmode1cd.1|~|~|~|~
ERM_MODE_1_CD|^2^|PV Only|~|PV Only|~|code.ermmode1cd.2|~|~|~|~
ERM_MODE_1_CD|^3^|Grid Charge|~|Grid Charge|~|code.ermmode1cd.3|~|~|~|~
ERM_MODE_1_CD|^4^|Battery Discharge|~|Battery Discharge|~|code.ermmode1cd.4|~|~|~|~
ERM_MODE_1_CD|^5^|PCS Stand alone|~|PCS Stand alone|~|code.ermmode1cd.5|~|~|~|~
ERM_MODE_1_CD|^6^|Force Charge|~|Force Charge|~|code.ermmode1cd.6|~|~|~|~
ERM_MODE_2_CD|^0^|BOTH|~|BOTH|~|code.ermmode2cd.0|~|~|~|~
ERM_MODE_2_CD|^1^|WEAK|~|WEAK|~|code.ermmode2cd.1|~|~|~|~
ERM_MODE_2_CD|^2^|Strong|~|Strong|~|code.ermmode2cd.2|~|~|~|~
ERM_MODE_3_CD|^0^|NOP|~|NOP|~|code.ermmode3cd.0|~|~|~|~
ERM_MODE_3_CD|^1^|설정변경|~|Change Setting|~|code.ermmode3cd.1|~|~|~|~
ERM_MODE_3_CD|^2^|Feed-In|~|Feed-In|~|code.ermmode3cd.2|~|~|~|~
ERM_MODE_3_CD|^3^|Inverter Limit|~|Inverter Limit|~|code.ermmode3cd.3|~|~|~|~
ERM_MODE_3_CD|^4^|System Reset|~|System Reset|~|code.ermmode3cd.4|~|~|~|~
ERM_MODE_3_CD|^5^|Basic Mode|~|Basic Mode|Grundmodus|code.ermmode3cd.5|~|~|~|~
ETC_GENERAL_ERR_CD|E038|TEMP Protection|PROTECTION|~|~|code.etcgeneralerrcd.e038|~|~|~|~
ETC_GENERAL_ERR_CD|E039|DC INJECTION ERROR|PROTECTION|~|~|code.etcgeneralerrcd.e039|~|~|~|~
ETC_GENERAL_ERR_CD|E040|FAN Fault|PROTECTION|~|~|code.etcgeneralerrcd.e040|~|~|~|~
ETC_GENERAL_ERR_CD|E041|OVER CURRENT TRIPZONE|PROTECTION|~|~|code.etcgeneralerrcd.e041|~|~|~|~
EXEC_TYPE_CD|ET01|Execute|~|Execute|~|code.exectypecd.et01|~|~|~|~
EXEC_TYPE_CD|ET02|Inquiry|~|Inquiry|~|code.exectypecd.et02|~|~|~|~
EXEC_TYPE_CD|ET03|Detail|~|Detail|~|code.exectypecd.et03|~|~|~|~
EXEC_TYPE_CD|ET04|Delete|~|Delete|~|code.exectypecd.et04|~|~|~|~
EXEC_TYPE_CD|ET05|Save|~|Save|~|code.exectypecd.et05|~|~|~|~
EXEC_TYPE_CD|ET06|Add|~|Add|~|code.exectypecd.et06|~|~|~|~
FILE_TYPE_CD|^01^|User's Manual|~|~|~|code.filetypecd.01|~|~|1.0|~
FILE_TYPE_CD|^02^|Installation Manual|~|~|~|code.filetypecd.02|~|~|2.0|~
FILE_TYPE_CD|^03^|Engineer's Mobile Manual|~|~|~|code.filetypecd.03|~|~|3.0|~
FILE_TYPE_CD|^04^|Quick Guide|~|~|~|code.filetypecd.04|~|~|4.0|~
FILE_TYPE_CD|^05^|Web Portal Manual|~|~|~|code.filetypecd.05|~|~|5.0|~
FILE_TYPE_CD|^06^|FAQ|~|~|~|code.filetypecd.06|~|~|6.0|~
GRID_STUS_CD|^0^|소비|~|Demand|Netz|code.gridstuscd.0|~|~|~|~
GRID_STUS_CD|^1^|매전|~|FeedIn|Einspeisung|code.gridstuscd.1|~|~|~|~
GRID_STUS_CD|^2^|정지|~|Isolated|Isoliert|code.gridstuscd.2|~|~|~|~
GRP_TYPE_CD|^11^|그룹 조건|~|~|~|code.grptypecd.11|~|제어조건 장비를 모두 확인 후 제어장비 처리|2.0|~
GRP_TYPE_CD|^12^|단일 조건|~|~|~|code.grptypecd.12|~|제어조건 장비별 확인 후 제어장비 처리|1.0|~
LANG_CD|KR|대한민국|~|대한민국|대한민국|code.langcd.kr|~|~|1.0|~
LANG_CD|DE|Deutschland|~|Deutschland|Deutschland|code.langcd.de|~|~|2.0|~
LANG_CD|EN|United Kingdom|~|United Kingdom|United Kingdom|code.langcd.en|~|~|3.0|~
LANG_CD|IT|Italia|~|Italia|Italia|code.langcd.it|~|~|4.0|~
LANG_CD|PT|Portugal|~|Portugal|Portugal|code.langcd.pt|~|~|5.0|~
LANG_CD|AU|Australia|~|Austrailia|Austrailia|code.langcd.au|~|~|6.0|~
LOGFILE_RESPONSE_CD|^0^|업로드 성공|~|Upload Success|~|code.logfileresponsecd.0|~|~|~|~
LOGFILE_RESPONSE_CD|^1^|로그파일 부재 실패|~|Log File Missed|~|code.logfileresponsecd.1|~|~|~|~
ACP_PF_ENABLE_CD|^0^|disable|~|~|~|disable|~|~|1.0|~
ACP_PF_ENABLE_CD|^1^|Enable|~|~|~|Enable|~|~|2.0|~
ACP_PU_ENABLE_CD|^0^|disable|~|~|~|disable|~|~|1.0|~
ACP_PU_ENABLE_CD|^1^|Enable|~|~|~|Enable|~|~|2.0|~
RCP_F_ENABLE_CD|^0^|disable|~|~|~|disable|~|~|1.0|~
RCP_F_ENABLE_CD|^1^|Enable|~|~|~|Enable|~|~|2.0|~
RCP_F_EXCITED_CD|^0^|Over|~|~|~|Over|~|~|1.0|~
RCP_F_EXCITED_CD|^1^|Under|~|~|~|Under|~|~|2.0|~
RCP_ENABLE_CD|^0^|disable|~|~|~|disable|~|~|1.0|~
RCP_ENABLE_CD|^1^|Enable|~|~|~|Enable|~|~|2.0|~
RCP_EXCITED_CD|^0^|Over|~|~|~|Over|~|~|1.0|~
RCP_EXCITED_CD|^1^|Under|~|~|~|Under|~|~|2.0|~
RCP_Q_FIX_ENABLE_CD|^0^|disable|~|~|~|disable|~|~|1.0|~
RCP_Q_FIX_ENABLE_CD|^1^|Enable|~|~|~|Enable|~|~|2.0|~
RCP_Q_FIX_EXCITED_CD|^0^|Over|~|~|~|Over|~|~|1.0|~
RCP_Q_FIX_EXCITED_CD|^1^|Under|~|~|~|Under|~|~|2.0|~
LANG_CD|DK|Denmark|~|Denmark|Denmark|code.langcd.dk|~|~|9.0|~
LANG_CD|MA|Morocco|~|Morocco|Morocco|code.langcd.ma|~|~|10.0|~
CNTRY_CD|FR|France|~|~|~|code.cntrycd.fr|~|~|7.0|~
PRODUCT_MODEL_TYPE_CD|HSHP4601|HSHP4601|~|~|~|HSHP4601|~|~|6.0|~
PRODUCT_MODEL_CD|ELSR552-00008|ELSR552-00008|AR|^0046^|^0055^|code.productmodelcd.elsr552-00008|AT|H|15.0|^01^
PRODUCT_MODEL_CD|ELSR362-00008|ELSR362-00008|AR|^0046^|^0036^|code.productmodelcd.elsr362-00008|AT|H|14.0|^01^
PRODUCT_MODEL_CD|ELSR802-00008|ELSR802-00008|AR|^0080^|^0080^|code.productmodelcd.elsr802-00008|AT|H|16.0|^02^
PRODUCT_MODEL_CD|HSHP4601|HSHP4601|HS|^0046^|^0040^|HSHP4601|UN|U|99.0|^01^
CNTRY_CD|DK|Denmark|~|~|~|code.cntrycd.dk|~|~|9.0|~
CNTRY_CD|MA|Morocco|~|~|~|code.cntrycd.ma|~|~|10.0|~
MONE_UNIT_CD|FRF|Franc|?|~|~|code.moneunitcd.chf|~|~|~|~
LANG_CD|AT|Austria|~|Austria|Austria|code.langcd.at|~|~|8.0|~
CNTRY_CD|AT|Austria|~|~|~|code.cntrycd.at|~|~|8.0|~
PRODUCT_MODEL_CD|HHQC4601|^4601^|HS|^0046^|^0000^|HHQC4601|DE|X|100.0|^01^
PRODUCT_MODEL_CD|HHQC5001|^5001^|HS|^0050^|^0000^|HHQC5001|AU|C|101.0|^01^
PRODUCT_MODEL_TYPE_CD|HHQC4601|HHQC4601|~|~|~|HHQC4601|~|~|7.0|~
PRODUCT_MODEL_TYPE_CD|HHQC5001|HHQC5001|~|~|~|HHQC5001|~|~|8.0|~
MAKER_CLASS_CD|Z|삼성SDI|~|~|~|Samsung SDI|~|~|1.0|~
MAKER_CLASS_CD|H|한솔|~|~|~|Hansol|~|~|2.0|~
MAKER_CLASS_CD|Q|한화|~|~|~|Hanhwa|~|~|3.0|~
SMTR_MODL_CD|^11^|EM111 (CarloGavazzi)|~|~|~|EM111 (CarloGavazzi)|~|~|12.0|~
PRODUCT_MODEL_CD|ELSR552-00005|ELSR552-00003|AR|^0046^|^0055^|ELSR552-00005|IT|D|11.0|^01^
PRODUCT_MODEL_CD|ELSR362-00006|ELSR362-00006|AR|^0046^|^0036^|ELSR362-00006|FR|F|12.0|^01^
PRODUCT_MODEL_CD|ELSR552-00006|ELSR552-00006|AR|^0046^|^0055^|ELSR552-00006|FR|F|13.0|^01^
INSTL_APPOINT_CD|N|모니터링 only|~|~|~|code.combo.appr.msg1|~|~|1.0|~
INSTL_APPOINT_CD|Y|모니터링,제어|~|~|~|code.combo.appr.msg2|~|~|2.0|~
CAPACITY_CD|^4.0^|^4.0^|~|^4.0^|^4.0^|^4.0^|~|^0040^|8.0|~
