^grp_id^|^device_type_cd^|^product_model_nm^|^ems_model_nm^|^pcs_model_nm^|^bms_model_nm^|^ems_ver^|^pcs_ver^|^bms_ver^|^ems_fw_url^|^pcs_fw_url^|^bms_fw_url^|^ems_fw_size^|^pcs_fw_size^|^bms_fw_size^|^create_id^|^create_dt^|^update_id^|^update_dt^|^grp_upt_seq^|^fwi_upt_seq^|^stable_ver_flag^
^86^|RES|ELSR362-00002|GER_EMS_APP_001|GER_PCS_APP_001|GER_BMS_APP_001|E2014_V00001|P2014_V00005|B2014_V00001|/ATTACH4/wems/update/ELSR362-00002/ems/20140923/75685258427997310/GER_EMS_APP_001_E2014_V00001.tar.gz|/ATTACH4/wems/update/ELSR362-00002/pcs/20140923/75685258427997310/GER_PCS_APP_001_P2014_V00005.tar.gz|/ATTACH4/wems/update/ELSR362-00002/bms/20140923/75685258427997310/GER_BMS_APP_001_B2014_V00001.tar.gz|145600|74318|145600|jackpot|2014-10-23 09:41:38|~|~|1.0|1.0|~
^84^|RES|ELSR362-00002|GER_EMS_APP_001|GER_PCS_APP_001|GER_BMS_APP_001|E2014_V00001|P2014_V00005|B2014_V00001|/ATTACH4/wems/update/ELSR362-00002/ems/20140923/75685002191249632/GER_EMS_APP_001_E2014_V00001.tar.gz|/ATTACH4/wems/update/ELSR362-00002/pcs/20140923/75685002191249632/GER_PCS_APP_001_P2014_V00005.tar.gz|/ATTACH4/wems/update/ELSR362-00002/bms/20140923/75685002191249632/GER_BMS_APP_001_B2014_V00001.tar.gz|145600|74318|145600|jackpot|2014-10-23 09:37:23|~|~|1.0|1.0|~
^85^|RES|ELSR362-00002|GER_EMS_APP_001|GER_PCS_APP_001|GER_BMS_APP_001|E2014_V00001|P2014_V00005|B2014_V00001|/ATTACH4/wems/update/ELSR362-00002/ems/20140923/75685185482550591/GER_EMS_APP_001_E2014_V00001.tar.gz|/ATTACH4/wems/update/ELSR362-00002/pcs/20140923/75685185482550591/GER_PCS_APP_001_P2014_V00005.tar.gz|/ATTACH4/wems/update/ELSR362-00002/bms/20140923/75685185482550591/GER_BMS_APP_001_B2014_V00001.tar.gz|145600|74318|145600|jackpot|2014-10-23 09:40:25|~|~|1.0|1.0|~
A000002002|RES|ELSR362-00001|GER_EMS_APP_001|GER_PCS_APP_001|GER_BMS_APP_001|E2016_V00033|P2015_V00032|B2015_V00002|/attach3/wems/update/ELSR362-00001/ems/20161115/2067259907750607/GER_EMS_APP_001_E2016_V00033.tar.gz|/attach3/wems/update/ELSR362-00001/pcs/20161115/2067259907750607/GER_PCS_APP_001_P2015_V00032.tar.gz|/attach3/wems/update/ELSR362-00001/bms/20161115/2067259907750607/GER_BMS_APP_001_B2015_V00002.tar.gz|313087|77357|72433|jackpot|2016-12-15 02:01:14|yaAkGbCslemh4+CFeHA/Dw==|2017-07-13 00:37:59|1.0|3.0|~
A000002102|RES|ELSR362-00005|ITA_EMS_APP_001|ITA_PCS_APP_001|ITA_BMS_APP_001|E2018_V50001|P2018_V04090|B2015_V00002|/attach3/wems/update/ELSR362-00005/ems/20190310/19378060105096723/ITA_EMS_APP_001_E2018_V50001.tar.gz|/attach3/wems/update/ELSR362-00005/pcs/20190310/19378060105096723/ITA_PCS_APP_001_P2018_V04090.tar.gz|/attach3/wems/update/ELSR362-00005/bms/20180305/43210279782418310/ITA_BMS_APP_001_B2015_V00002.tar.gz|302817|89654|72433|service|2017-10-23 06:33:09|yaAkGbCslemh4+CFeHA/Dw==|2019-04-10 06:45:55|1.0|30.0|~
A000002145|RES|ELSR362-00005|ITA_EMS_APP_001|ITA_PCS_APP_001|ITA_BMS_APP_001|E2017_V00001|P2018_V00001|B2015_V00002|/attach3/wems/update/ELSR362-00005/ems/20180429/47895675163734272/ITA_EMS_APP_001_E2017_V00001.tar.gz|/attach3/wems/update/ELSR362-00005/pcs/20180429/47895675163734272/ITA_PCS_APP_001_P2018_V00001.tar.gz|/attach3/wems/update/ELSR362-00005/bms/20180429/47895675163734272/ITA_BMS_APP_001_B2015_V00002.tar.gz|302817|302817|302817|emshansol|2018-05-29 12:08:07|uEHe1rzgI9fhAvq0MjzRmQ==|2018-05-29 12:08:07|1.0|1.0|~
A000002098|RES|ELSR362-00002|ENG_EMS_APP_001|ENG_PCS_APP_001|ENG_BMS_APP_001|E2016_V00032|P2018_V02131|B2015_V00002|/attach3/wems/update/ELSR362-00002/ems/20170923/29026283412177757/ENG_EMS_APP_001_E2016_V00032.tar.gz|/attach3/wems/update/ELSR362-00002/pcs/20180119/39335447874780077/ENG_PCS_APP_001_P2018_V02131.tar.gz|/attach3/wems/update/ELSR362-00002/bms/20170923/29026283412177757/ENG_BMS_APP_001_B2015_V00002.tar.gz|317810|79407|72433|service|2017-10-23 02:38:17|yaAkGbCslemh4+CFeHA/Dw==|2018-02-21 02:43:09|1.0|11.0|~
A000002124|RES|ELSR802-00002|GER_EMS_APP_004|GER_PCS_APP_004|GER_BMS_APP_004|E2018_V00001|P2015_V40010|B2015_V00002|/attach3/wems/update/ELSR802-00002/ems/20180008/35686861699622876/GER_EMS_APP_004_E2018_V00001.tar.gz|/attach3/wems/update/ELSR802-00002/pcs/20180008/35686861699622876/GER_PCS_APP_004_P2015_V40010.tar.gz|/attach3/wems/update/ELSR802-00002/bms/20180008/35686861699622876/GER_BMS_APP_004_B2015_V00002.tar.gz|7113295|85176|84930|emshansol|2018-01-08 04:47:55|uEHe1rzgI9fhAvq0MjzRmQ==|2018-01-08 04:47:55|1.0|1.0|~
A000002148|RES|ELSR103-00001|AUS_EMS_APP_002|AUS_PCS_APP_002|AUS_BMS_APP_002|E2017_V81001|P2017_V72001|B2015_V00001|/attach3/wems/update/ELSR103-00001/ems/20180604/50966512189621038/AUS_EMS_APP_002_E2017_V81001.tar.gz|/attach3/wems/update/ELSR103-00001/pcs/20180604/50962167842425479/AUS_PCS_APP_002_P2017_V72001.tar.gz|/attach3/wems/update/ELSR103-00001/bms/20180604/50962167842425479/AUS_BMS_APP_002_B2015_V00001.tar.gz|241465|74603|72433|emshansol|2018-07-03 23:56:25|uEHe1rzgI9fhAvq0MjzRmQ==|2018-07-04 01:08:44|1.0|2.0|~
A000002108|RES|ELSR722-00004|AUS_EMS_APP_002|AUS_PCS_APP_002|AUS_BMS_APP_002|E2017_V00011|P2017_V00001|B2015_V00001|/attach3/wems/update/ELSR722-00004/ems/20171027/32043075363289187/AUS_EMS_APP_002_E2017_V00011.tar.gz|/attach3/wems/update/ELSR722-00004/pcs/20171027/32043075363289187/AUS_PCS_APP_002_P2017_V00001.tar.gz|/attach3/wems/update/ELSR722-00004/bms/20171027/32043075363289187/AUS_BMS_APP_002_B2015_V00001.tar.gz|268113|74620|72433|service|2017-11-27 00:38:07|yaAkGbCslemh4+CFeHA/Dw==|2017-11-27 00:38:07|1.0|1.0|~
A000002109|RES|ELSR103-00001|AUS_EMS_APP_002|AUS_PCS_APP_002|AUS_BMS_APP_002|E2017_V81001|P2017_V81001|B2015_V00001|/attach3/wems/update/ELSR103-00001/ems/20171103/32604665465692805/AUS_EMS_APP_002_E2017_V81001.tar.gz|/attach3/wems/update/ELSR103-00001/pcs/20171103/32602612463245383/AUS_PCS_APP_002_P2017_V81001.tar.gz|/attach3/wems/update/ELSR103-00001/bms/20171103/32602612463245383/AUS_BMS_APP_002_B2015_V00001.tar.gz|241465|74919|72433|emshansol|2017-12-03 09:31:45|uEHe1rzgI9fhAvq0MjzRmQ==|2017-12-03 12:37:57|1.0|13.0|~
A000002117|RES|ELSR103-00001|AUS_EMS_APP_002|AUS_PCS_APP_002|AUS_BMS_APP_002|E2017_V00001|P2015_V33010|B2015_V00001|/attach3/wems/update/ELSR103-00001/ems/20171112/33366527533075304/AUS_EMS_APP_002_E2017_V00001.tar.gz|/attach3/wems/update/ELSR103-00001/pcs/20171112/33379897316174762/AUS_PCS_APP_002_P2015_V33010.tar.gz|/attach3/wems/update/ELSR103-00001/bms/20171112/33366527533075304/AUS_BMS_APP_002_B2015_V00001.tar.gz|227159|73443|72433|emshansol|2017-12-12 08:15:40|uEHe1rzgI9fhAvq0MjzRmQ==|2017-12-12 11:58:29|1.0|5.0|~
A000002159|RES|ELSR802-00002|GER_EMS_APP_004|GER_PCS_APP_004|GER_BMS_APP_004|E2018_V80708|P2018_V00040|B2015_V00002|/attach3/wems/update/ELSR802-00002/ems/20180627/52976051570926948/GER_EMS_APP_004_E2018_V80708.tar.gz|/attach3/wems/update/ELSR802-00002/pcs/20180706/53849289583603323/GER_PCS_APP_004_P2018_V00040.tar.gz|/attach3/wems/update/ELSR802-00002/bms/20180627/52976523019551832/GER_BMS_APP_004_B2015_V00002.tar.gz|7254929|86449|84930|emshansol|2018-07-27 00:03:03|uEHe1rzgI9fhAvq0MjzRmQ==|2018-08-06 09:55:01|1.0|5.0|~
A000002162|RES|HSHP4601|HSHP_004601_PMS|HSHP_004601_PCS|HSHP_004601_BMS|^18A11_001100^|^18A11_001100^|^18A11_001100^|/attach3/wems/update/HSHP4601/ems/20180731/169652907594281/HSHP_004601_PMS_18A11_001100.tar.gz|/attach3/wems/update/HSHP4601/pcs/20180731/169652907594281/HSHP_004601_PCS_18A11_001100.tar.gz|/attach3/wems/update/HSHP4601/bms/20180731/169652907594281/HSHP_004601_BMS_18A11_001100.tar.gz|14322681|89892|89861|emshansol|2018-08-30 23:05:50|uEHe1rzgI9fhAvq0MjzRmQ==|2018-08-30 23:05:50|1.0|1.0|~
A000002216|RES|HSHP4601|HSHP_004601_PMS|HSHP_004601_PCS|HSHP_004601_BMS|^19827_020009^|^19611_080202^|^18628_000101^|/attach3/wems/update/HSHP4601/ems/20190728/31475294948889644/HSHP_004601_PMS_19827_020009.tar.gz|/attach3/wems/update/HSHP4601/pcs/20190517/25253269131925649/HSHP_004601_PCS_19611_080202.tar.gz|/attach3/wems/update/HSHP4601/bms/20190517/25253269131925649/HSHP_004601_BMS_18628_000101.tar.gz|43458920|115280|13917824|service|2019-06-17 06:46:14|yaAkGbCslemh4+CFeHA/Dw==|2019-08-28 07:06:37|1.0|3.0|~
A000002217|RES|ELSR552-00001|GER_EMS_APP_003|GER_PCS_APP_003|GER_BMS_APP_003|E2016_V00004|P2019_V06211|B2015_V00002|/attach3/wems/update/ELSR552-00001/ems/20190521/25608749111921997/GER_EMS_APP_003_E2016_V00004.tar.gz|/attach3/wems/update/ELSR552-00001/pcs/20190521/25608749111921997/GER_PCS_APP_003_P2019_V06211.tar.gz|/attach3/wems/update/ELSR552-00001/bms/20190521/25608749111921997/GER_BMS_APP_003_B2015_V00002.tar.gz|313077|78812|72433|service|2019-06-21 09:30:45|yaAkGbCslemh4+CFeHA/Dw==|2019-06-21 09:30:45|1.0|1.0|~
A000002139|RES|ELSR552-00006|FRA_EMS_APP_003|FRA_PCS_APP_003|FRA_BMS_APP_003|E2019_V01403|P2017_V00001|B2017_V00001|/attach3/wems/update/ELSR552-00006/ems/20190025/12911345060325301/FRA_EMS_APP_003_E2019_V01403.tar.gz|/attach3/wems/update/ELSR552-00006/pcs/20180212/41157125247669773/FRA_PCS_APP_003_P2017_V00001.tar.gz|/attach3/wems/update/ELSR552-00006/bms/20180212/41157125247669773/FRA_BMS_APP_003_B2017_V00001.tar.gz|296244|77946|292994|emshansol|2018-03-12 12:18:57|uEHe1rzgI9fhAvq0MjzRmQ==|2019-01-25 10:27:19|1.0|5.0|~
A000002160|RES|HSHP4601|HSHP_004601_PMS|HSHP_004601_PCS|HSHP_004601_BMS|^18A11_001100^|^18A11_001100^|^18A11_001100^|/attach3/wems/update/HSHP4601/ems/20180730/107875817557992/HSHP_004601_PMS_18A11_001100.tar.gz|/attach3/wems/update/HSHP4601/pcs/20180730/107875817557992/HSHP_004601_PCS_18A11_001100.tar.gz|/attach3/wems/update/HSHP4601/bms/20180730/107875817557992/HSHP_004601_BMS_18A11_001100.tar.gz|13884583|89861|89861|emshansol|2018-08-30 05:56:13|uEHe1rzgI9fhAvq0MjzRmQ==|2018-08-30 06:19:18|1.0|2.0|~
A000002137|RES|ELSR552-00005|ITA_EMS_APP_003|ITA_PCS_APP_003|ITA_BMS_APP_003|E2018_V00001|P2018_V18011|B2015_V00002|/attach3/wems/update/ELSR552-00005/ems/20180212/41154321237754007/ITA_EMS_APP_003_E2018_V00001.tar.gz|/attach3/wems/update/ELSR552-00005/pcs/20180212/41154321237754007/ITA_PCS_APP_003_P2018_V18011.tar.gz|/attach3/wems/update/ELSR552-00005/bms/20180212/41154321237754007/ITA_BMS_APP_003_B2015_V00002.tar.gz|307508|89532|72433|emshansol|2018-03-12 11:32:13|uEHe1rzgI9fhAvq0MjzRmQ==|2018-03-12 11:32:13|1.0|1.0|~
A000002138|RES|ELSR552-00006|FRA_EMS_APP_003|FRA_PCS_APP_003|FRA_BMS_APP_003|E2018_V00001|P2017_V00001|B2017_V00001|/attach3/wems/update/ELSR552-00006/ems/20180212/41156578785146045/FRA_EMS_APP_003_E2018_V00001.tar.gz|/attach3/wems/update/ELSR552-00006/pcs/20180212/41156578785146045/FRA_PCS_APP_003_P2017_V00001.tar.gz|/attach3/wems/update/ELSR552-00006/bms/20180212/41156578785146045/FRA_BMS_APP_003_B2017_V00001.tar.gz|294477|77946|292994|emshansol|2018-03-12 12:09:51|uEHe1rzgI9fhAvq0MjzRmQ==|2018-03-12 12:09:51|1.0|1.0|~
A000002140|RES|ELSR362-00006|FRA_EMS_APP_001|FRA_PCS_APP_001|FRA_BMS_APP_001|E2019_V00403|P2019_V00122|B2017_V00001|/attach3/wems/update/ELSR362-00006/ems/20190028/13134660237422464/FRA_EMS_APP_001_E2019_V00403.tar.gz|/attach3/wems/update/ELSR362-00006/pcs/20190028/13134660237422464/FRA_PCS_APP_001_P2019_V00122.tar.gz|/attach3/wems/update/ELSR362-00006/bms/20180213/41202270695174544/FRA_BMS_APP_001_B2017_V00001.tar.gz|296749|77911|292994|emshansol|2018-03-13 00:51:23|yaAkGbCslemh4+CFeHA/Dw==|2019-01-28 00:29:15|1.0|3.0|~
A000002153|RES|HSHP4601|HSHP_004601_PMS|HSHP_004601_PCS|HSHP_004601_BMS|^19208_020004^|^18628_000101^|^18628_000101^|/attach3/wems/update/HSHP4601/ems/20190108/14124453396129656/HSHP_004601_PMS_19208_020004.tar.gz|/attach3/wems/update/HSHP4601/pcs/20190023/12729192367349137/HSHP_004601_PCS_18628_000101.tar.gz|/attach3/wems/update/HSHP4601/bms/20190023/12729192367349137/HSHP_004601_BMS_18628_000101.tar.gz|43397914|106722|89861|emshansol|2018-07-18 01:45:51|uEHe1rzgI9fhAvq0MjzRmQ==|2019-02-08 11:25:56|1.0|13.0|~
A000002093|RES|ELSR552-00001|GER_EMS_APP_003|GER_PCS_APP_003|GER_BMS_APP_003|E2016_V00004|P2017_V10001|B2015_V00002|/attach3/wems/update/ELSR552-00001/ems/20170812/25473690185174643/GER_EMS_APP_003_E2016_V00004.tar.gz|/attach3/wems/update/ELSR552-00001/pcs/20170811/25437249595984387/GER_PCS_APP_003_P2017_V10001.tar.gz|/attach3/wems/update/ELSR552-00001/bms/20170811/25437249595984387/GER_BMS_APP_003_B2015_V00002.tar.gz|292994|77946|292994|emshansol|2017-09-11 13:41:02|uEHe1rzgI9fhAvq0MjzRmQ==|2017-10-18 05:36:39|1.0|4.0|~
A000002091|RES|ELSR722-00004|AUS_EMS_APP_002|AUS_PCS_APP_002|AUS_BMS_APP_002|E2017_V81001|P2017_V71001|B2015_V00001|/attach3/wems/update/ELSR722-00004/ems/20181019/7105650348423905/AUS_EMS_APP_002_E2017_V81001.tar.gz|/attach3/wems/update/ELSR722-00004/pcs/20190118/14947436640669233/AUS_PCS_APP_002_P2017_V71001.tar.gz|/attach3/wems/update/ELSR722-00004/bms/20170807/25040257347312135/AUS_BMS_APP_002_B2015_V00001.tar.gz|241465|74636|72433|service|2017-09-06 23:24:30|yaAkGbCslemh4+CFeHA/Dw==|2019-02-18 00:02:11|1.0|8.0|~
A000002092|RES|ELSR103-00001|AUS_EMS_APP_002|AUS_PCS_APP_002|AUS_BMS_APP_002|E2017_V81001|P2017_V73001|B2015_V00001|/attach3/wems/update/ELSR103-00001/ems/20181029/7949320239131008/AUS_EMS_APP_002_E2017_V81001.tar.gz|/attach3/wems/update/ELSR103-00001/pcs/20181029/7949320239131008/AUS_PCS_APP_002_P2017_V73001.tar.gz|/attach3/wems/update/ELSR103-00001/bms/20170807/25040367716636105/AUS_BMS_APP_002_B2015_V00001.tar.gz|241465|74552|72433|service|2017-09-06 23:26:20|yaAkGbCslemh4+CFeHA/Dw==|2018-11-29 00:06:55|1.0|11.0|~
A000002094|RES|ELSR552-00006|FRA_EMS_APP_003|FRA_PCS_APP_003|FRA_BMS_APP_003|E2017_V00001|P2017_V00001|B2017_V00001|/attach3/wems/update/ELSR552-00006/ems/20170911/28006380070618268/FRA_EMS_APP_003_E2017_V00001.tar.gz|/attach3/wems/update/ELSR552-00006/pcs/20170911/28007763313741788/FRA_PCS_APP_003_P2017_V00001.tar.gz|/attach3/wems/update/ELSR552-00006/bms/20170911/28007763313741788/FRA_BMS_APP_003_B2017_V00001.tar.gz|294285|77946|292994|emshansol|2017-10-11 07:19:52|uEHe1rzgI9fhAvq0MjzRmQ==|2017-10-11 07:42:55|1.0|4.0|~
A000002161|RES|HSHP4601|HSHP_004601_PMS|HSHP_004601_PCS|HSHP_004601_BMS|^18A11_001100^|^18A11_001100^|^18A11_001100^|/attach3/wems/update/HSHP4601/ems/20180730/128217539125452/HSHP_004601_PMS_18A11_001100.tar.gz|/attach3/wems/update/HSHP4601/pcs/20180731/181293476170427/HSHP_004601_PCS_18A11_001100.tar.gz|/attach3/wems/update/HSHP4601/bms/20180730/114176099926266/HSHP_004601_BMS_18A11_001100.tar.gz|14322681|89892|89861|emshansol|2018-08-30 07:41:13|uEHe1rzgI9fhAvq0MjzRmQ==|2018-08-31 02:19:48|1.0|9.0|~
A000002225|RES|HSHP4601|HSHP_004601_PMS|HSHP_004601_PCS|HSHP_004601_BMS|^19515_020007^|^19520_080201^|^19424_080108^|/attach3/wems/update/HSHP4601/ems/20190623/28354615470845154/HSHP_004601_PMS_19515_020007.tar.gz|/attach3/wems/update/HSHP4601/pcs/20190623/28354615470845154/HSHP_004601_PCS_19520_080201.tar.gz|/attach3/wems/update/HSHP4601/bms/20190623/28354615470845154/HSHP_004601_BMS_19424_080108.tar.gz|43446077|113946|109847|emshansol|2019-07-23 04:15:18|uEHe1rzgI9fhAvq0MjzRmQ==|2019-07-23 04:15:18|1.0|1.0|~
A000002114|RES|ELSR362-00002|ENG_EMS_APP_001|ENG_PCS_APP_001|ENG_BMS_APP_001|E2016_V00032|P2017_V00001|B2015_V00002|/attach3/wems/update/ELSR362-00002/ems/20190128/15831950398938552/ENG_EMS_APP_001_E2016_V00032.tar.gz|/attach3/wems/update/ELSR362-00002/pcs/20190128/15832777806213576/ENG_PCS_APP_001_P2017_V00001.tar.gz|/attach3/wems/update/ELSR362-00002/bms/20190128/15831950398938552/ENG_BMS_APP_001_B2015_V00002.tar.gz|317810|79262|72433|service|2017-12-11 10:23:54|yaAkGbCslemh4+CFeHA/Dw==|2019-07-18 09:48:27|1.0|10.0|Y
A000002132|RES|ELSR802-00002|GER_EMS_APP_004|GER_PCS_APP_004|GER_BMS_APP_004|E2019_V50001|P2019_V00055|B2017_V00001|/attach3/wems/update/ELSR802-00002/ems/20190610/27234371442677829/GER_EMS_APP_004_E2019_V50001.tar.gz|/attach3/wems/update/ELSR802-00002/pcs/20190624/28459669125615329/GER_PCS_APP_004_P2019_V00055.tar.gz|/attach3/wems/update/ELSR802-00002/bms/20190610/27234371442677829/GER_BMS_APP_004_B2017_V00001.tar.gz|12333922|86381|124|emshansol|2018-02-06 09:27:11|uEHe1rzgI9fhAvq0MjzRmQ==|2019-08-08 07:45:36|1.0|68.0|~
A000002203|RES|HSHP4601|HSHP_004601_PMS|HSHP_004601_PCS|HSHP_004601_BMS|^19827_020009^|^19611_080202^|^19424_080108^|/attach3/wems/update/HSHP4601/ems/20190727/31373111709924275/HSHP_004601_PMS_19827_020009.tar.gz|/attach3/wems/update/HSHP4601/pcs/20190720/30774430013103834/HSHP_004601_PCS_19611_080202.tar.gz|/attach3/wems/update/HSHP4601/bms/20190423/23068302934717858/HSHP_004601_BMS_19424_080108.tar.gz|43458920|115280|109847|emshansol|2018-12-17 02:29:36|uEHe1rzgI9fhAvq0MjzRmQ==|2019-08-27 04:23:00|1.0|260.0|~
A000002219|RES|ELSR802-00008|AUT_EMS_APP_004|AUT_PCS_APP_004|AUT_BMS_APP_004|E2019_V50001|P2019_V00099|B2017_V00001|/attach3/wems/update/ELSR802-00008/ems/20190610/27233663335978189/AUT_EMS_APP_004_E2019_V50001.tar.gz|/attach3/wems/update/ELSR802-00008/pcs/20190610/27233663335978189/AUT_PCS_APP_004_P2019_V00099.tar.gz|/attach3/wems/update/ELSR802-00008/bms/20190610/27233663335978189/AUT_BMS_APP_004_B2017_V00001.tar.gz|12333922|85563|124|emshansol|2019-06-28 02:35:19|uEHe1rzgI9fhAvq0MjzRmQ==|2019-07-10 04:52:40|1.0|7.0|~
A000002147|RES|ELSR802-00002|GER_EMS_APP_004|GER_PCS_APP_004|GER_BMS_APP_004|E2015_V00001|P2018_V00040|B2015_V00001|/attach3/wems/update/ELSR802-00002/ems/20181110/8927158234746771/GER_EMS_APP_004_E2015_V00001.tar.gz|/attach3/wems/update/ELSR802-00002/pcs/20181110/8927158234746771/GER_PCS_APP_004_P2018_V00040.tar.gz|/attach3/wems/update/ELSR802-00002/bms/20181110/8927158234746771/GER_BMS_APP_004_B2015_V00001.tar.gz|12394767|86449|84930|emshansol|2018-06-26 13:21:19|uEHe1rzgI9fhAvq0MjzRmQ==|2018-12-10 07:44:16|1.0|11.0|~
A000002143|RES|ELSR103-00001|AUS_EMS_APP_002|AUS_PCS_APP_002|AUS_BMS_APP_002|E2017_V81001|P2017_V91001|B2015_V00001|/attach3/wems/update/ELSR103-00001/ems/20181023/7426630241640916/AUS_EMS_APP_002_E2017_V81001.tar.gz|/attach3/wems/update/ELSR103-00001/pcs/20190303/18752299750637714/AUS_PCS_APP_002_P2017_V91001.tar.gz|/attach3/wems/update/ELSR103-00001/bms/20180317/44239510906294178/AUS_BMS_APP_002_B2015_V00001.tar.gz|241465|74620|72433|service|2018-04-17 04:32:03|yaAkGbCslemh4+CFeHA/Dw==|2019-04-03 00:56:34|1.0|11.0|~
A000002150|RES|ELSR552-00006|FRA_EMS_APP_003|FRA_PCS_APP_003|FRA_BMS_APP_003|E2019_V00403|P2019_V00114|B2017_V00001|/attach3/wems/update/ELSR552-00006/ems/20190526/26048581592598517/FRA_EMS_APP_003_E2019_V00403.tar.gz|/attach3/wems/update/ELSR552-00006/pcs/20190526/26048581592598517/FRA_PCS_APP_003_P2019_V00114.tar.gz|/attach3/wems/update/ELSR552-00006/bms/20180616/52000347242227290/FRA_BMS_APP_003_B2017_V00001.tar.gz|294833|77839|292994|service|2018-07-13 10:00:24|yaAkGbCslemh4+CFeHA/Dw==|2019-06-26 11:41:16|1.0|21.0|~
A000002181|RES|HSHP4601|HSHP_004601_PMS|HSHP_004601_PCS|HSHP_004601_BMS|^18C14_010008^|^18B14_080104^|^18628_000101^|/attach3/wems/update/HSHP4601/ems/20181114/9250449674667827/HSHP_004601_PMS_18C14_010008.tar.gz|/attach3/wems/update/HSHP4601/pcs/20181021/7272410948823413/HSHP_004601_PCS_18B14_080104.tar.gz|/attach3/wems/update/HSHP4601/bms/20180818/1756676957140400/HSHP_004601_BMS_18628_000101.tar.gz|13998138|106948|13917824|emshansol|2018-09-18 07:56:17|uEHe1rzgI9fhAvq0MjzRmQ==|2018-12-14 01:32:26|1.0|255.0|~
A000002182|RES|ELSR103-00001|AUS_EMS_APP_002|AUS_PCS_APP_002|AUS_BMS_APP_002|E2017_V81001|P2017_V73001|B2015_V00001|/attach3/wems/update/ELSR103-00001/ems/20180902/2970554217441504/AUS_EMS_APP_002_E2017_V81001.tar.gz|/attach3/wems/update/ELSR103-00001/pcs/20180902/2970554217441504/AUS_PCS_APP_002_P2017_V73001.tar.gz|/attach3/wems/update/ELSR103-00001/bms/20180902/2970554217441504/AUS_BMS_APP_002_B2015_V00001.tar.gz|241465|74552|72433|service|2018-10-02 09:07:29|yaAkGbCslemh4+CFeHA/Dw==|2018-10-02 09:07:29|1.0|1.0|~
A000002201|RES|ELSR362-00005|ITA_EMS_APP_001|ITA_PCS_APP_001|ITA_BMS_APP_001|E2016_V00031|P2015_V00030|B2015_V00002|/attach3/wems/update/ELSR362-00005/ems/20181006/5994207102174108/ITA_EMS_APP_001_E2016_V00031.tar.gz|/attach3/wems/update/ELSR362-00005/pcs/20181006/5994207102174108/ITA_PCS_APP_001_P2015_V00030.tar.gz|/attach3/wems/update/ELSR362-00005/bms/20181006/5994207102174108/ITA_BMS_APP_001_B2015_V00002.tar.gz|324939|87646|72433|eservice|2018-11-06 09:01:42|BxlWqj0eVHwZ9X3eyTSiZQ==|2018-11-06 09:01:42|1.0|1.0|~
A000002206|RES|HSHP4601|HSHP_004601_PMS|HSHP_004601_PCS|HSHP_004601_BMS|^19701_020308^|^19611_080202^|^19424_080108^|/attach3/wems/update/HSHP4601/ems/20190601/26455741483445004/HSHP_004601_PMS_19701_020308.tar.gz|/attach3/wems/update/HSHP4601/pcs/20190511/24745957428724573/HSHP_004601_PCS_19611_080202.tar.gz|/attach3/wems/update/HSHP4601/bms/20190504/24108350809579778/HSHP_004601_BMS_19424_080108.tar.gz|43459172|115280|109847|emshansol|2019-03-14 02:51:01|uEHe1rzgI9fhAvq0MjzRmQ==|2019-07-01 04:47:33|1.0|29.0|~
A000002220|RES|ELSR552-00005|ITA_EMS_APP_003|ITA_PCS_APP_003|ITA_BMS_APP_003|E2017_V00001|P2019_V00627|B2015_V00002|/attach3/wems/update/ELSR552-00005/ems/20190601/26436114366682287/ITA_EMS_APP_003_E2017_V00001.tar.gz|/attach3/wems/update/ELSR552-00005/pcs/20190601/26436114366682287/ITA_PCS_APP_003_P2019_V00627.tar.gz|/attach3/wems/update/ELSR552-00005/bms/20190601/26436114366682287/ITA_BMS_APP_003_B2015_V00002.tar.gz|302697|90522|72433|service|2019-06-28 04:30:53|yaAkGbCslemh4+CFeHA/Dw==|2019-06-30 23:20:16|1.0|2.0|~
A000002154|RES|HSHP4601|HSHP_004601_PMS|HSHP_004601_PCS|HSHP_004601_BMS|^18628_000101^|^18A11_001133^|^18628_000101^|/attach3/wems/update/HSHP4601/ems/20180618/52181664585895894/HSHP_004601_PMS_18628_000101.tar.gz|/attach3/wems/update/HSHP4601/pcs/20180618/52181664585895894/HSHP_004601_PCS_18A11_001133.tar.gz|/attach3/wems/update/HSHP4601/bms/20180618/52181664585895894/HSHP_004601_BMS_18628_000101.tar.gz|43367|43690|43367|emshansol|2018-07-18 02:41:17|uEHe1rzgI9fhAvq0MjzRmQ==|2018-07-18 04:30:14|1.0|2.0|~
A000002106|RES|ELSR552-00001|GER_EMS_APP_003|GER_PCS_APP_003|GER_BMS_APP_003|E2016_V00004|P2017_V20004|B2015_V00002|/attach3/wems/update/ELSR552-00001/ems/20171002/29904705057887731/GER_EMS_APP_003_E2016_V00004.tar.gz|/attach3/wems/update/ELSR552-00001/pcs/20171017/31203899959267566/GER_PCS_APP_003_P2017_V20004.tar.gz|/attach3/wems/update/ELSR552-00001/bms/20171002/29904705057887731/GER_BMS_APP_003_B2015_V00002.tar.gz|313077|78174|72433|service|2017-11-02 06:38:37|uEHe1rzgI9fhAvq0MjzRmQ==|2018-01-11 06:45:27|1.0|8.0|~
A000002200|RES|ELSR722-00004|AUS_EMS_APP_002|AUS_PCS_APP_002|AUS_BMS_APP_002|E2017_V81001|P2017_V71001|B2015_V00001|/attach3/wems/update/ELSR103-00001/ems/20180923/4750131975953823/AUS_EMS_APP_002_E2017_V81001.tar.gz|/attach3/wems/update/ELSR722-00004/pcs/20181023/7426655936229627/AUS_PCS_APP_002_P2017_V71001.tar.gz|/attach3/wems/update/ELSR103-00001/bms/20180923/4750131975953823/AUS_BMS_APP_002_B2015_V00001.tar.gz|241465|74636|72433|service|2018-10-22 23:27:07|yaAkGbCslemh4+CFeHA/Dw==|2018-11-22 22:55:50|1.0|5.0|~
A000002211|RES|HSHP4601|HSHP_004601_PMS|HSHP_004601_PCS|HSHP_004601_BMS|^19219_010009^|^19227_080108^|^19424_080108^|/attach3/wems/update/HSHP4601/ems/20190429/23609166728690054/HSHP_004601_PMS_19219_010009.tar.gz|/attach3/wems/update/HSHP4601/pcs/20190429/23609166728690054/HSHP_004601_PCS_19227_080108.tar.gz|/attach3/wems/update/HSHP4601/bms/20190416/22489711265881494/HSHP_004601_BMS_19424_080108.tar.gz|13917036|108811|109847|emshansol|2019-05-16 07:06:54|uEHe1rzgI9fhAvq0MjzRmQ==|2019-05-29 06:04:24|1.0|5.0|~
A000002204|RES|HSHP4601|HSHP_004601_PMS|HSHP_004601_PCS|HSHP_004601_BMS|^18C14_010008^|^19111_080113^|^18628_000101^|/attach3/wems/update/HSHP4601/ems/20190011/11688216116566439/HSHP_004601_PMS_18C14_010008.tar.gz|/attach3/wems/update/HSHP4601/pcs/20190011/11690130045478571/HSHP_004601_PCS_19111_080113.tar.gz|/attach3/wems/update/HSHP4601/bms/20190011/11688216116566439/HSHP_004601_BMS_18628_000101.tar.gz|13998138|106722|13917824|service|2019-01-11 06:41:56|yaAkGbCslemh4+CFeHA/Dw==|2019-01-11 07:13:44|1.0|3.0|~
A000002135|RES|ELSR362-00005|ITA_EMS_APP_001|ITA_PCS_APP_001|ITA_BMS_APP_001|E2018_V50001|P2018_V01191|B2015_V00002|/attach3/wems/update/ELSR362-00005/ems/20180605/51075428272087497/ITA_EMS_APP_001_E2018_V50001.tar.gz|/attach3/wems/update/ELSR362-00005/pcs/20180212/41129282052160113/ITA_PCS_APP_001_P2018_V01191.tar.gz|/attach3/wems/update/ELSR362-00005/bms/20180212/41129282052160113/ITA_BMS_APP_001_B2015_V00002.tar.gz|302817|89212|292994|emshansol|2018-03-12 04:34:54|yaAkGbCslemh4+CFeHA/Dw==|2018-07-05 07:24:00|1.0|2.0|~
A000002141|RES|ELSR722-00004|AUS_EMS_APP_002|AUS_PCS_APP_002|AUS_BMS_APP_002|E2016_V00007|P2015_V82010|B2015_V00001|/attach3/wems/update/ELSR722-00004/ems/20180227/42416841957605193/AUS_EMS_APP_002_E2016_V00007.tar.gz|/attach3/wems/update/ELSR722-00004/pcs/20180227/42416841957605193/AUS_PCS_APP_002_P2015_V82010.tar.gz|/attach3/wems/update/ELSR722-00004/bms/20180227/42416841957605193/AUS_BMS_APP_002_B2015_V00001.tar.gz|229301|73401|72433|service|2018-03-27 02:14:14|yaAkGbCslemh4+CFeHA/Dw==|2018-03-27 02:14:14|1.0|1.0|~
A000002133|RES|ELSR552-00005|ITA_EMS_APP_003|ITA_PCS_APP_003|ITA_BMS_APP_003|E2017_V00001|P2018_V18011|B2015_V00002|/attach3/wems/update/ELSR552-00005/ems/20180107/38261204799475762/ITA_EMS_APP_003_E2017_V00001.tar.gz|/attach3/wems/update/ELSR552-00005/pcs/20180107/38261204799475762/ITA_PCS_APP_003_P2018_V18011.tar.gz|/attach3/wems/update/ELSR552-00005/bms/20180107/38261204799475762/ITA_BMS_APP_003_B2015_V00002.tar.gz|302697|89532|72433|service|2018-02-06 23:53:37|yaAkGbCslemh4+CFeHA/Dw==|2019-02-27 08:44:28|1.0|2.0|~
A000002207|RES|ELSR552-00001|GER_EMS_APP_003|GER_PCS_APP_003|GER_BMS_APP_003|E2016_V00004|P2015_V00003|B2015_V00002|/attach3/wems/update/ELSR552-00001/ems/20190326/20741302653879804/GER_EMS_APP_003_E2016_V00004.tar.gz|/attach3/wems/update/ELSR552-00001/pcs/20190326/20741302653879804/GER_PCS_APP_003_P2015_V00003.tar.gz|/attach3/wems/update/ELSR552-00001/bms/20190326/20741302653879804/GER_BMS_APP_003_B2015_V00002.tar.gz|313077|76806|72433|service|2019-04-26 01:26:38|yaAkGbCslemh4+CFeHA/Dw==|2019-04-26 01:26:38|1.0|1.0|~
A000002218|RES|ELSR802-00002|GER_EMS_APP_004|GER_PCS_APP_004|GER_BMS_APP_004|E2015_V00003|P2018_V81123|B2015_V00001|/attach3/wems/update/ELSR802-00002/ems/20190524/25857040845711950/GER_EMS_APP_004_E2015_V00003.tar.gz|/attach3/wems/update/ELSR802-00002/pcs/20190524/25860575855476850/GER_PCS_APP_004_P2018_V81123.tar.gz|/attach3/wems/update/ELSR802-00002/bms/20190524/25857225119062999/GER_BMS_APP_004_B2015_V00001.tar.gz|12333842|85548|84930|emshansol|2019-06-24 06:28:58|uEHe1rzgI9fhAvq0MjzRmQ==|2019-06-24 07:27:50|1.0|10.0|~
A000002157|RES|HSHP4601|HSHP_004601_PMS|HSHP_004601_PCS|HSHP_004601_BMS|^18A11_001100^|^18A11_001100^|^18A11_001100^|/attach3/wems/update/HSHP4601/ems/20180730/110201463392388/HSHP_004601_PMS_18A11_001100.tar.gz|/attach3/wems/update/HSHP4601/pcs/20180730/110201463392388/HSHP_004601_PCS_18A11_001100.tar.gz|/attach3/wems/update/HSHP4601/bms/20180730/110201463392388/HSHP_004601_BMS_18A11_001100.tar.gz|13884583|89861|89861|emshansol|2018-07-18 05:02:08|uEHe1rzgI9fhAvq0MjzRmQ==|2018-08-30 07:08:39|1.0|3.0|~
A000002107|RES|ELSR103-00001|AUS_EMS_APP_002|AUS_PCS_APP_002|AUS_BMS_APP_002|E2018_V92501|P2017_V92001|B2015_V00001|/attach3/wems/update/ELSR103-00001/ems/20180222/41984018237036501/AUS_EMS_APP_002_E2018_V92501.tar.gz|/attach3/wems/update/ELSR722-00004/pcs/20180030/37565765532281955/AUS_PCS_APP_002_P2017_V92001.tar.gz|/attach3/wems/update/ELSR722-00004/bms/20171111/33300918994671934/AUS_BMS_APP_002_B2015_V00001.tar.gz|234223|75762|72433|emshansol|2017-11-26 17:09:19|uEHe1rzgI9fhAvq0MjzRmQ==|2018-03-22 02:00:30|1.0|50.0|~
A000002134|RES|ELSR103-00001|AUS_EMS_APP_002|AUS_PCS_APP_002|AUS_BMS_APP_002|E2017_V81001|P2017_V73001|B2015_V00001|/attach3/wems/update/ELSR103-00001/ems/20190201/15915292797496476/AUS_EMS_APP_002_E2017_V81001.tar.gz|/attach3/wems/update/ELSR103-00001/pcs/20190201/15915292797496476/AUS_PCS_APP_002_P2017_V73001.tar.gz|/attach3/wems/update/ELSR103-00001/bms/20180126/39908788775736605/AUS_BMS_APP_002_B2015_V00001.tar.gz|241465|74552|72433|service|2018-02-26 01:33:21|yaAkGbCslemh4+CFeHA/Dw==|2019-03-01 04:53:09|1.0|14.0|~
A000002146|RES|HSHP4601|HSHP_004601_PMS|HSHP_004601_PCS|HSHP_004601_BMS|^19125_010001^|^48920_070015^|^18628_000101^|/attach3/wems/update/HSHP4601/ems/20190025/12897255156693212/HSHP_004601_PMS_19125_010001.tar.gz|/attach3/wems/update/HSHP4601/pcs/20180820/1939875977386980/HSHP_004601_PCS_48920_070015.tar.gz|/attach3/wems/update/HSHP4601/bms/20180816/1565931925201335/HSHP_004601_BMS_18628_000101.gz|14012361|100193|13910805|emshansol|2018-06-26 08:39:24|uEHe1rzgI9fhAvq0MjzRmQ==|2019-01-25 06:32:32|1.0|46.0|~
A000002221|RES|ELSR552-00006|FRA_EMS_APP_003|FRA_PCS_APP_003|FRA_BMS_APP_003|E2019_V01403|P2019_V00627|B2017_V00001|/attach3/wems/update/ELSR552-00006/ems/20190528/26195613190620100/FRA_EMS_APP_003_E2019_V01403.tar.gz|/attach3/wems/update/ELSR552-00006/pcs/20190528/26195613190620100/FRA_PCS_APP_003_P2019_V00627.tar.gz|/attach3/wems/update/ELSR552-00006/bms/20190528/26195613190620100/FRA_BMS_APP_003_B2017_V00001.tar.gz|296244|78916|292994|service|2019-06-28 04:31:48|yaAkGbCslemh4+CFeHA/Dw==|2019-06-28 04:31:48|1.0|1.0|~
A000002104|RES|ELSR103-00001|AUS_EMS_APP_002|AUS_PCS_APP_002|AUS_BMS_APP_002|E2016_V00007|P2017_V00001|B2015_V00001|/attach3/wems/update/ELSR103-00001/ems/20170927/29393779326665459/AUS_EMS_APP_002_E2016_V00007.tar.gz|/attach3/wems/update/ELSR103-00001/pcs/20170927/29393779326665459/AUS_PCS_APP_002_P2017_V00001.tar.gz|/attach3/wems/update/ELSR103-00001/bms/20170927/29393779326665459/AUS_BMS_APP_002_B2015_V00001.tar.gz|229301|74620|72433|service|2017-10-27 08:43:11|yaAkGbCslemh4+CFeHA/Dw==|2017-10-27 08:43:11|1.0|1.0|~
A000002205|RES|ELSR802-00002|GER_EMS_APP_004|GER_PCS_APP_004|GER_BMS_APP_004|E2019_V50001|P2019_V00055|B2015_V00002|/attach3/wems/update/ELSR802-00002/ems/20190712/30095219970437633/GER_EMS_APP_004_E2019_V50001.tar.gz|/attach3/wems/update/ELSR802-00002/pcs/20190625/28520921488882719/GER_PCS_APP_004_P2019_V00055.tar.gz|/attach3/wems/update/ELSR802-00008/bms/20190119/15033642256862324/GER_BMS_APP_004_B2015_V00002.tar.gz|12333922|86381|84930|service|2019-02-18 23:58:58|yaAkGbCslemh4+CFeHA/Dw==|2019-08-12 07:45:17|1.0|8.0|~
A000002155|RES|HSHP4601|GER_EMS_APP_004|GER_PCS_APP_001|HSHP_004601_BMS|E2018_V00403|P2018_V000xx|^18628_000101^|/attach3/wems/update/HSHP4601/ems/20181026/7687619943489118/GER_EMS_APP_004_E2018_V00403.tar.gz|/attach3/wems/update/HSHP4601/pcs/20181026/7687619943489118/GER_PCS_APP_001_P2018_V000xx.tar.gz|/attach3/wems/update/HSHP4601/bms/20180618/52187342033511195/HSHP_004601_BMS_18628_000101.tar.gz|7117108|85548|43367|emshansol|2018-07-18 04:15:54|yaAkGbCslemh4+CFeHA/Dw==|2018-11-25 23:25:16|1.0|2.0|~
A000002224|RES|HHQC4601|HSHP_004601_PMS|HSHP_004601_PCS|HSHP_004601_BMS|^19617_020008^|^19611_080202^|^18628_000101^|/attach3/wems/update/HHQC4601/ems/20190609/27156262635095472/HSHP_004601_PMS_19617_020008.tar.gz|/attach3/wems/update/HHQC4601/pcs/20190609/27156262635095472/HSHP_004601_PCS_19611_080202.tar.gz|/attach3/wems/update/HHQC4601/bms/20190609/27156262635095472/HSHP_004601_BMS_18628_000101.tar.gz|43459421|115280|89861|emshansol|2019-07-09 07:22:45|uEHe1rzgI9fhAvq0MjzRmQ==|2019-07-09 07:22:45|1.0|1.0|~
A000002149|RES|ELSR362-00006|FRA_EMS_APP_001|FRA_PCS_APP_001|FRA_BMS_APP_001|E2019_V00403|P2019_V00122|B2017_V00001|/attach3/wems/update/ELSR362-00006/ems/20190526/26048296992873217/FRA_EMS_APP_001_E2019_V00403.tar.gz|/attach3/wems/update/ELSR362-00006/pcs/20190526/26048296992873217/FRA_PCS_APP_001_P2019_V00122.tar.gz|/attach3/wems/update/ELSR362-00006/bms/20180613/51771485729256243/FRA_BMS_APP_001_B2017_V00001.tar.gz|296749|77911|292994|service|2018-07-13 08:44:58|yaAkGbCslemh4+CFeHA/Dw==|2019-06-26 11:36:32|1.0|3.0|~
A000002006|RES|ELSR722-00004|AUS_EMS_APP_002|AUS_PCS_APP_002|AUS_BMS_APP_002|E2016_V00007|P2015_V10010|B2015_V00001|/attach3/wems/update/ELSR722-00004/ems/20170013/4571743822094534/AUS_EMS_APP_002_E2016_V00007.tar.gz|/attach3/wems/update/ELSR722-00004/pcs/20170013/4571743822094534/AUS_PCS_APP_002_P2015_V10010.tar.gz|/attach3/wems/update/ELSR722-00004/bms/20170013/4571743822094534/AUS_BMS_APP_002_B2015_V00001.tar.gz|229301|74198|72433|service|2017-01-13 01:42:37|yaAkGbCslemh4+CFeHA/Dw==|2017-01-13 01:42:37|1.0|1.0|~
A000002158|RES|HSHP4601|HSHP_004601_PMS|HSHP_004601_PCS|HSHP_004601_BMS|^18628_000101^|^18A11_001133^|^18628_000101^|/attach3/wems/update/HSHP4601/ems/20180618/52195330157320056/HSHP_004601_PMS_18628_000101.tar.gz|/attach3/wems/update/HSHP4601/pcs/20180618/52195330157320056/HSHP_004601_PCS_18A11_001133.tar.gz|/attach3/wems/update/HSHP4601/bms/20180618/52195330157320056/HSHP_004601_BMS_18628_000101.tar.gz|43367|43690|43367|emshansol|2018-07-18 06:29:02|uEHe1rzgI9fhAvq0MjzRmQ==|2018-07-18 06:29:02|1.0|1.0|~
A000002078|RES|ELSR103-00001|AUS_EMS_APP_002|AUS_PCS_APP_002|AUS_BMS_APP_002|E2016_V00007|P2015_V82010|B2015_V00001|/attach3/wems/update/ELSR103-00001/ems/20170527/18837279785537108/AUS_EMS_APP_002_E2016_V00007.tar.gz|/attach3/wems/update/ELSR103-00001/pcs/20190421/22936981326830646/AUS_PCS_APP_002_P2015_V82010.tar.gz|/attach3/wems/update/ELSR103-00001/bms/20170527/18837279785537108/AUS_BMS_APP_002_B2015_V00001.tar.gz|229301|73401|72433|service|2017-06-27 04:21:32|yaAkGbCslemh4+CFeHA/Dw==|2019-05-21 11:21:16|1.0|3.0|~
A000002156|RES|HSHP4601|HSHP_004601_PMS|HSHP_004601_PCS|HSHP_004601_BMS|^18A11_001100^|^18A11_001100^|^18A11_001100^|/attach3/wems/update/HSHP4601/ems/20180730/112712007057934/HSHP_004601_PMS_18A11_001100.tar.gz|/attach3/wems/update/HSHP4601/pcs/20180730/112712007057934/HSHP_004601_PCS_18A11_001100.tar.gz|/attach3/wems/update/HSHP4601/bms/20180730/112712007057934/HSHP_004601_BMS_18A11_001100.tar.gz|13884583|89861|89861|emshansol|2018-07-18 04:18:23|uEHe1rzgI9fhAvq0MjzRmQ==|2018-08-30 07:16:49|1.0|3.0|~
A000002051|RES|ELSR722-00004|AUS_EMS_APP_002|AUS_PCS_APP_002|AUS_BMS_APP_002|E2016_V00007|P2015_V23010|B2015_V00001|/attach3/wems/update/ELSR722-00004/ems/20170403/14099281631095885/AUS_EMS_APP_002_E2016_V00007.tar.gz|/attach3/wems/update/ELSR722-00004/pcs/20170403/14099378088573999/AUS_PCS_APP_002_P2015_V23010.tar.gz|/attach3/wems/update/ELSR722-00004/bms/20170403/14099281631095885/AUS_BMS_APP_002_B2015_V00001.tar.gz|229301|72982|72433|essdev1|2017-05-03 08:14:54|^9WO/xV3XULx8jg7qeRK20w==^|2017-05-03 08:16:29|1.0|2.0|~
A000002222|RES|ELSR802-00008|AUT_EMS_APP_004|AUT_PCS_APP_004|GER_BMS_APP_004|E2019_V04003|P2019_V00001|B2015_V00002|/attach3/wems/update/ELSR802-00008/ems/20190604/26714177318907202/AUT_EMS_APP_004_E2019_V04003.tar.gz|/attach3/wems/update/ELSR802-00008/pcs/20190604/26714177318907202/AUT_PCS_APP_004_P2019_V00001.tar.gz|/attach3/wems/update/ELSR802-00008/bms/20190604/26714177318907202/GER_BMS_APP_004_B2015_V00002.tar.gz|12273937|86449|84930|service|2019-07-04 04:34:35|yaAkGbCslemh4+CFeHA/Dw==|2019-07-04 04:34:35|1.0|1.0|~
A000002223|RES|ELSR802-00002|GER_EMS_APP_004|GER_PCS_APP_004|GER_BMS_APP_004|E2018_V00403|P2018_V81123|B2015_V00002|/attach3/wems/update/ELSR802-00002/ems/20190608/27080627225906745/GER_EMS_APP_004_E2018_V00403.tar.gz|/attach3/wems/update/ELSR802-00002/pcs/20190608/27080627225906745/GER_PCS_APP_004_P2018_V81123.tar.gz|/attach3/wems/update/ELSR802-00002/bms/20190608/27080627225906745/GER_BMS_APP_004_B2015_V00002.tar.gz|7117108|85548|84930|service|2019-07-08 10:22:03|yaAkGbCslemh4+CFeHA/Dw==|2019-07-08 10:22:03|1.0|1.0|~
A000002144|RES|ELSR103-00001|AUS_EMS_APP_002|AUS_PCS_APP_002|AUS_BMS_APP_002|E2017_V81001|P2017_V02000|B2015_V00001|/attach3/wems/update/ELSR103-00001/ems/20180414/46560446380936799/AUS_EMS_APP_002_E2017_V81001.tar.gz|/attach3/wems/update/ELSR103-00001/pcs/20180416/46744191976250593/AUS_PCS_APP_002_P2017_V02000.tar.gz|/attach3/wems/update/ELSR103-00001/bms/20180414/46560446380936799/AUS_BMS_APP_002_B2015_V00001.tar.gz|241465|73434|72433|service|2018-05-14 00:49:34|yaAkGbCslemh4+CFeHA/Dw==|2018-05-16 04:16:43|1.0|3.0|~
A000002082|RES|ELSR722-00004|AUS_EMS_APP_002|AUS_PCS_APP_002|AUS_BMS_APP_002|E2016_V00007|P2015_V30010|B2015_V00001|/attach3/wems/update/ELSR722-00004/ems/20170605/19513919353259103/AUS_EMS_APP_002_E2016_V00007.tar.gz|/attach3/wems/update/ELSR722-00004/pcs/20180121/39481624308238804/AUS_PCS_APP_002_P2015_V30010.tar.gz|/attach3/wems/update/ELSR722-00004/bms/20170605/19513919353259103/AUS_BMS_APP_002_B2015_V00001.tar.gz|229301|73398|72433|service|2017-07-05 00:18:51|yaAkGbCslemh4+CFeHA/Dw==|2018-02-21 02:53:56|1.0|2.0|~
A000002090|RES|ELSR362-00001|GER_EMS_APP_001|GER_PCS_APP_001|GER_BMS_APP_001|E2016_V00033|P2018_V01191|B2015_V00002|/attach3/wems/update/ELSR362-00001/ems/20170724/23851439464145824/GER_EMS_APP_001_E2016_V00033.tar.gz|/attach3/wems/update/ELSR362-00001/pcs/20180022/36927178375829001/GER_PCS_APP_001_P2018_V01191.tar.gz|/attach3/wems/update/ELSR362-00001/bms/20170724/23851439464145824/GER_BMS_APP_001_B2015_V00002.tar.gz|313087|77821|72433|service|2017-08-24 05:10:52|BxlWqj0eVHwZ9X3eyTSiZQ==|2019-06-12 12:24:49|1.0|9.0|~
A000002097|RES|ELSR362-00004|AUS_EMS_APP_001|AUS_PCS_APP_001|AUS_BMS_APP_001|E2016_V00031|P2017_V00035|B2015_V00002|/attach3/wems/update/ELSR362-00004/ems/20170923/29019793556658962/AUS_EMS_APP_001_E2016_V00031.tar.gz|/attach3/wems/update/ELSR362-00004/pcs/20190512/24812608482145749/AUS_PCS_APP_001_P2017_V00035.tar.gz|/attach3/wems/update/ELSR362-00004/bms/20170923/29019793556658962/AUS_BMS_APP_001_B2015_V00002.tar.gz|302268|79520|145600|service|2017-10-23 00:50:05|yaAkGbCslemh4+CFeHA/Dw==|2019-06-12 04:21:43|1.0|7.0|~
A000002214|RES|HSHP4601|HSHP_004601_PMS|HSHP_004601_PCS|HSHP_004601_BMS|^19827_020009^|^19219_080108^|^18628_000101^|/attach3/wems/update/HSHP4601/ems/20190728/31472702088346219/HSHP_004601_PMS_19827_020009.tar.gz|/attach3/wems/update/HSHP4601/pcs/20190526/26024728886618897/HSHP_004601_PCS_19219_080108.tar.gz|/attach3/wems/update/HSHP4601/bms/20190517/25248113714944895/HSHP_004601_BMS_18628_000101.tar.gz|43458920|109108|13917824|service|2019-06-17 05:20:14|yaAkGbCslemh4+CFeHA/Dw==|2019-08-28 06:23:24|1.0|6.0|~
