^cntry_cd^|^elpw_conm^|^elpw_prod_cd^|^elpw_prod_nm^|^remark^|^create_dt^|^create_id^|^update_id^|^update_dt^
DE|-|AR00460036Z114911113X|-|~|2014-09-02 07:47:58|SYSTEM|~|~
DE|-|AR00460036Z114812042X|-|~|2014-09-02 07:47:58|SYSTEM|~|~
DE|-|AR00460036Z115310024X|-|~|2014-09-02 07:47:58|SYSTEM|~|~
DE|-|AR00460036Z114812043X|-|~|2014-09-02 07:47:58|SYSTEM|~|~
DE|-|AR00460036Z114C18059X|-|~|2014-09-02 07:47:58|SYSTEM|~|~
DE|-|AR00460036Z115203002X|-|~|2014-09-02 07:47:58|SYSTEM|~|~
DE|-|AR00460036Z114827011X|-|~|2014-09-02 07:47:58|SYSTEM|~|~
DE|-|AR00460055Z115610020X|-|~|2014-09-02 07:47:58|SYSTEM|~|~
DE|-|AR00800080Z112023187X|-|~|2014-09-02 07:47:58|SYSTEM|~|~
DE|-|AR00460036Z114C18014X|-|~|2014-09-02 07:47:58|SYSTEM|~|~
DE|-|AR00460036Z114C18041X|-|~|2014-09-02 07:47:58|SYSTEM|~|~
DE|-|AR00800080Z115824011X|-|~|2014-09-02 07:47:58|SYSTEM|~|~
DE|-|AR00460036Z115213004X|-|~|2014-09-02 07:47:58|SYSTEM|~|~
DE|-|AR00460036Z114901016X|-|~|2014-09-02 07:47:58|SYSTEM|~|~
DE|-|AR00460036Z114723020X|-|~|2014-09-02 07:47:58|SYSTEM|~|~
DE|-|AR00460036Z114911063X|-|~|2014-09-02 07:47:58|SYSTEM|~|~
DE|-|AR00460036Z114723016X|-|~|2014-09-02 07:47:58|SYSTEM|~|~
DE|-|AR00460036Z114101057X|-|~|2014-09-02 07:47:58|SYSTEM|~|~
DE|-|AR00460036Z114101040X|-|~|2014-09-02 07:47:58|SYSTEM|~|~
DE|-|AR00460036Z114901029X|-|~|2014-09-02 07:47:58|SYSTEM|~|~
DE|-|AR00460036Z114901024X|-|~|2014-09-02 07:47:58|SYSTEM|~|~
DE|-|AR00460036Z114911108X|-|~|2014-09-02 07:47:58|SYSTEM|~|~
DE|-|AR00460036Z114911037X|-|~|2014-09-02 07:47:58|SYSTEM|~|~
DE|-|AR00460036Z114827010X|-|~|2014-09-02 07:47:58|SYSTEM|~|~
DE|-|AR00460036Z114901026X|-|~|2014-09-02 07:47:58|SYSTEM|~|~
DE|-|AR00460036Z115213007X|-|~|2014-09-02 07:47:58|SYSTEM|~|~
NZ|NZ Default|NZ0001|New Zealand Standard Flat|~|2015-03-10 05:22:12|SYSTEM|~|~
IT|-|AR00460036Z114723005X|-|~|2014-09-02 07:47:58|SYSTEM|~|~
DE|-|AR00460036Z114901027X|-|~|2014-09-02 07:47:58|SYSTEM|~|~
DE|-|AR00460036Z114827053X|-|~|2014-09-02 07:47:58|SYSTEM|~|~
DE|-|AR00460036Z114812023X|-|~|2014-09-02 07:47:58|SYSTEM|~|~
DE|-|AR00460036Z114101077X|-|~|2014-09-02 07:47:58|SYSTEM|~|~
DE|-|AR00460036Z114723006X|-|~|2014-09-02 07:47:58|SYSTEM|~|~
DE|-|AR00460036Z114101054X|-|~|2014-09-02 07:47:58|SYSTEM|~|~
DE|-|AR00460036Z114827055X|-|~|2014-09-02 07:47:58|SYSTEM|~|~
DE|-|AR00460036Z114723014X|-|~|2014-09-02 07:47:58|SYSTEM|~|~
DE|-|AR00460036Z114723015X|-|~|2014-09-02 07:47:58|SYSTEM|~|~
DE|-|AR00460036Z114723013X|-|~|2014-09-02 07:47:58|SYSTEM|~|~
UK|-|AR00460036Z114723008X|-|~|2014-09-02 07:47:58|SYSTEM|~|~
DE|-|AR00460036Z114723012X|-|~|2014-09-02 07:47:58|SYSTEM|~|~
DE|-|AR00460036Z114827042X|-|~|2014-09-02 07:47:58|SYSTEM|~|~
DE|-|AR00460036Z114101035X|-|~|2014-09-02 07:47:58|SYSTEM|~|~
DE|-|AR00460036Z114911076X|-|~|2014-09-02 07:47:58|SYSTEM|~|~
DE|-|AR00460036Z114812031X|-|~|2014-09-02 07:47:58|SYSTEM|~|~
DE|-|AR00460036Z114C18025X|-|~|2014-09-02 07:47:58|SYSTEM|~|~
DE|-|AR00460036Z115203005X|-|~|2014-09-02 07:47:58|SYSTEM|~|~
UK|-|AR00460036Z114B20006A|-|~|2014-09-02 07:47:58|SYSTEM|~|~
DE|-|AR00460055Z115610081X|-|~|2014-09-02 07:47:58|SYSTEM|~|~
DE|-|AR00460036Z114911078X|-|~|2014-09-02 07:47:58|SYSTEM|~|~
DE|-|AR00460036Z114812030X|-|~|2014-09-02 07:47:58|SYSTEM|~|~
DE|-|AR00460036Z114901053X|-|~|2014-09-02 07:47:58|SYSTEM|~|~
DE|-|AR00460036Z115213022X|-|~|2014-09-02 07:47:58|SYSTEM|~|~
UK|-|AR00460036Z115217026A|-|~|2014-09-02 07:47:58|SYSTEM|~|~
DE|-|AR00460036Z114812047X|-|~|2014-09-02 07:47:58|SYSTEM|~|~
DE|-|AR00460036Z114901019X|-|~|2014-09-02 07:47:58|SYSTEM|~|~
DE|-|AR00460036Z114901051X|-|~|2014-09-02 07:47:58|SYSTEM|~|~
DE|-|AR00460036Z114911004X|-|~|2014-09-02 07:47:58|SYSTEM|~|~
DE|-|AR00460036Z114101012X|-|~|2014-09-02 07:47:58|SYSTEM|~|~
DE|-|AR00460036Z114101081X|-|~|2014-09-02 07:47:58|SYSTEM|~|~
DE|-|AR00460036Z114827002X|-|~|2014-09-02 07:47:58|SYSTEM|~|~
DE|-|AR00460036Z114101052X|-|~|2014-09-02 07:47:58|SYSTEM|~|~
DE|-|AR00460036Z114101089X|-|~|2014-09-02 07:47:58|SYSTEM|~|~
DE|-|AR00460036Z114101056X|-|~|2014-09-02 07:47:58|SYSTEM|~|~
DE|-|AR00460036Z114911026X|-|~|2014-09-02 07:47:58|SYSTEM|~|~
UK|-|AR00460036Z114102039A|-|~|2014-09-02 07:47:58|SYSTEM|~|~
DE|-|AR00460036Z114812014X|-|~|2014-09-02 07:47:58|SYSTEM|~|~
DE|-|AR00460036Z114901009X|-|~|2014-09-02 07:47:58|SYSTEM|~|~
DE|-|AR00460036Z114911103X|-|~|2014-09-02 07:47:58|SYSTEM|~|~
DE|-|AR00460036Z114101008X|-|~|2014-09-02 07:47:58|SYSTEM|~|~
DE|-|AR00460036Z114911050X|-|~|2014-09-02 07:47:58|SYSTEM|~|~
DE|-|AR00460036Z115213026X|-|~|2014-09-02 07:47:58|SYSTEM|~|~
DE|-|AR00460036Z114911123X|-|~|2014-09-02 07:47:58|SYSTEM|~|~
DE|-|AR00460036Z114101045X|-|~|2014-09-02 07:47:58|SYSTEM|~|~
UK|-|AR00460036Z114102062A|-|~|2014-09-02 07:47:58|SYSTEM|~|~
DE|-|AR00460036Z115213006X|-|~|2014-09-02 07:47:58|SYSTEM|~|~
DE|-|AR00460036Z115213071X|-|~|2014-09-02 07:47:58|SYSTEM|~|~
UK|-|AR00460036Z114B20004A|-|~|2014-09-02 07:47:58|SYSTEM|~|~
DE|-|AR00460036Z115213016X|-|~|2014-09-02 07:47:58|SYSTEM|~|~
DE|-|AR00460036Z115213080X|-|~|2014-09-02 07:47:58|SYSTEM|~|~
DE|-|AR00460036Z114901014X|-|~|2014-09-02 07:47:58|SYSTEM|~|~
DE|-|AR00460036Z114827024X|-|~|2014-09-02 07:47:58|SYSTEM|~|~
DE|-|AR00460036Z114911051X|-|~|2014-09-02 07:47:58|SYSTEM|~|~
UK|-|AR00460036Z114102057A|-|~|2014-09-02 07:47:58|SYSTEM|~|~
DE|-|AR00460036Z115213061X|-|~|2014-09-02 07:47:58|SYSTEM|~|~
DE|-|AR00460036Z115213025X|-|~|2014-09-02 07:47:58|SYSTEM|~|~
DE|-|AR00460036Z114911064X|-|~|2014-09-02 07:47:58|SYSTEM|~|~
DE|-|AR00460036Z114911053X|-|~|2014-09-02 07:47:58|SYSTEM|~|~
UK|-|AR00460036Z114102069A|-|~|2014-09-02 07:47:58|SYSTEM|~|~
DE|-|AR00460036Z115213073X|-|~|2014-09-02 07:47:58|SYSTEM|~|~
DE|-|AR00460036Z114911065X|-|~|2014-09-02 07:47:58|SYSTEM|~|~
DE|-|AR00460036Z114911114X|-|~|2014-09-02 07:47:58|SYSTEM|~|~
DE|-|AR00460036Z115213003X|-|~|2014-09-02 07:47:58|SYSTEM|~|~
DE|-|AR00460036Z115213023X|-|~|2014-09-02 07:47:58|SYSTEM|~|~
DE|-|AR00460036Z114911101X|-|~|2014-09-02 07:47:58|SYSTEM|~|~
AU|-|AR00460036Z115120042C|-|~|2015-02-25 00:00:00|SYSTEM|~|~
DE|-|AR00460036Z114911109X|-|~|2014-09-02 07:47:58|SYSTEM|~|~
AU|-|AR00460036Z115120026C|-|~|2015-02-25 00:00:00|SYSTEM|~|~
DE|-|AR00460036Z114101079X|-|~|2014-09-02 07:47:58|SYSTEM|~|~
IT|-|AR00460036Z115609006D|-|~|2014-09-02 07:47:58|SYSTEM|~|~
IT|-|AR00460036Z115609002D|-|~|2014-09-02 07:47:58|SYSTEM|~|~
DE|-|AR00460036Z115213036X|-|~|2014-09-02 07:47:58|SYSTEM|~|~
DE|-|AR00460036Z114911071X|-|~|2014-09-02 07:47:58|SYSTEM|~|~
DE|-|AR00460036Z115310009X|-|~|2014-09-02 07:47:58|SYSTEM|~|~
DE|-|AR00460036Z114911122X|-|~|2014-09-02 07:47:58|SYSTEM|~|~
UK|-|AR00460036Z115113019A|-|~|2014-09-02 07:47:58|SYSTEM|~|~
UK|-|AR00460036Z115113032A|-|~|2014-09-02 07:47:58|SYSTEM|~|~
DE|-|AR00460055Z115610007X|-|~|2014-09-02 07:47:58|SYSTEM|~|~
UK|-|AR00460036Z115113027A|-|~|2014-09-02 07:47:58|SYSTEM|~|~
DE|-|AR00460036Z114901020X|-|~|2014-09-02 07:47:58|SYSTEM|~|~
DE|-|AR00460036Z114901036X|-|~|2014-09-02 07:47:58|SYSTEM|~|~
CH|-|AR00460036Z114911097X|-|~|2015-01-12 08:05:32|SYSTEM|~|~
DE|-|AR00460036Z114827016X|-|~|2014-09-02 07:47:58|SYSTEM|~|~
DE|-|AR00460036Z114812013X|-|~|2014-09-02 07:47:58|SYSTEM|~|~
DE|-|AR00460036Z114827049X|-|~|2014-09-02 07:47:58|SYSTEM|~|~
DE|-|AR00460036Z114101030X|-|~|2014-09-02 07:47:58|SYSTEM|~|~
DE|-|AR00460036Z114101051X|-|~|2014-09-02 07:47:58|SYSTEM|~|~
DE|-|AR00460036Z114901038X|-|~|2014-09-02 07:47:58|SYSTEM|~|~
DE|-|AR00460036Z114101006X|-|~|2014-09-02 07:47:58|SYSTEM|~|~
DE|-|AR00460036Z114101061X|-|~|2014-09-02 07:47:58|SYSTEM|~|~
DE|-|AR00460036Z114901031X|-|~|2014-09-02 07:47:58|SYSTEM|~|~
DE|-|AR00460036Z114901045X|-|~|2014-09-02 07:47:58|SYSTEM|~|~
DE|-|AR00460036Z114901066X|-|~|2014-09-02 07:47:58|SYSTEM|~|~
DE|-|AR00460036Z114827001X|-|~|2014-09-02 07:47:58|SYSTEM|~|~
DE|-|AR00460036Z115213038X|-|~|2014-09-02 07:47:58|SYSTEM|~|~
DE|-|AR00460036Z114101046X|-|~|2014-09-02 07:47:58|SYSTEM|~|~
DE|-|AR00460036Z114C18030X|-|~|2014-09-02 07:47:58|SYSTEM|~|~
DE|-|AR00460036Z114911042X|-|~|2014-09-02 07:47:58|SYSTEM|~|~
DE|-|AR00460036Z115213070X|-|~|2014-09-02 07:47:58|SYSTEM|~|~
DE|-|AR00460036Z115213077X|-|~|2014-09-02 07:47:58|SYSTEM|~|~
DE|-|AR00460036Z114101076X|-|~|2014-09-02 07:47:58|SYSTEM|~|~
UK|-|AR00460036Z114BZ0019A|-|~|2014-09-02 07:47:58|SYSTEM|~|~
DE|-|AR00460036Z114C18037X|-|~|2014-09-02 07:47:58|SYSTEM|~|~
DE|-|AR00460036Z114C18010X|-|~|2014-09-02 07:47:58|SYSTEM|~|~
DE|-|AR00460036Z114901022X|-|~|2014-09-02 07:47:58|SYSTEM|~|~
DE|-|AR00460036Z114C18056X|-|~|2014-09-02 07:47:58|SYSTEM|~|~
DE|-|AR00460036Z114C18005X|-|~|2014-09-02 07:47:58|SYSTEM|~|~
UK|-|AR00460036Z115113034A|-|~|2014-09-02 07:47:58|SYSTEM|~|~
DE|-|AR00460036Z115310031X|-|~|2014-09-02 07:47:58|SYSTEM|~|~
DE|-|AR00460036Z115310008X|-|~|2014-09-02 07:47:58|SYSTEM|~|~
DE|-|AR00460036Z114101103X|-|~|2014-09-02 07:47:58|SYSTEM|~|~
DE|-|AR00460036Z115310037X|-|~|2014-09-02 07:47:58|SYSTEM|~|~
DE|-|AR00460036Z114C18043X|-|~|2014-09-02 07:47:58|SYSTEM|~|~
DE|-|AR00460036Z114101070X|-|~|2014-09-02 07:47:58|SYSTEM|~|~
DE|-|AR00460036Z114911048X|-|~|2014-09-02 07:47:58|SYSTEM|~|~
DE|-|AR00460036Z114827015X|-|~|2014-09-02 07:47:58|SYSTEM|~|~
DE|-|AR00460036Z114827023X|-|~|2014-09-02 07:47:58|SYSTEM|~|~
DE|-|AR00460036Z114911001X|-|~|2014-09-02 07:47:58|SYSTEM|~|~
DE|-|AR00460036Z114827043X|-|~|2014-09-02 07:47:58|SYSTEM|~|~
DE|-|AR00460036Z114901061X|-|~|2014-09-02 07:47:58|SYSTEM|~|~
DE|-|AR00460036Z114101023X|-|~|2014-09-02 07:47:58|SYSTEM|~|~
DE|-|AR00460036Z114101055X|-|~|2014-09-02 07:47:58|SYSTEM|~|~
DE|-|AR00460036Z114911073X|-|~|2014-09-02 07:47:58|SYSTEM|~|~
DE|-|AR00460036Z114101062X|-|~|2014-09-02 07:47:58|SYSTEM|~|~
DE|-|AR00460036Z114911006X|-|~|2014-09-02 07:47:58|SYSTEM|~|~
AU|-|AR00460036Z114C18006C|-|~|2015-02-25 00:00:00|SYSTEM|~|~
DE|-|AR00460036Z115213068X|-|~|2014-09-02 07:47:58|SYSTEM|~|~
AU|-|AR00460036Z115120020C|-|~|2015-02-25 00:00:00|SYSTEM|~|~
DE|-|AR00460036Z114812016X|-|~|2014-09-02 07:47:58|SYSTEM|~|~
DE|-|AR00460036Z115213014X|-|~|2014-09-02 07:47:58|SYSTEM|~|~
DE|-|AR00460036Z115213081X|-|~|2014-09-02 07:47:58|SYSTEM|~|~
DE|-|AR00460036Z114C18036X|-|~|2014-09-02 07:47:58|SYSTEM|~|~
UK|-|AR00460036Z115304039A|-|~|2014-09-02 07:47:58|SYSTEM|~|~
UK|-|AR00460036Z114102049A|-|~|2014-09-02 07:47:58|SYSTEM|~|~
DE|-|AR00460036Z115309006X|-|~|2014-09-02 07:47:58|SYSTEM|~|~
DE|-|AR00460036Z114911117X|-|~|2014-09-02 07:47:58|SYSTEM|~|~
DE|-|AR00460036Z114717005X|-|~|2014-09-02 07:47:58|SYSTEM|~|~
AU|-|AR00460036Z114C18014C|-|~|2015-02-25 00:00:00|SYSTEM|~|~
UK|-|AR00460036Z115113011A|-|~|2014-09-02 07:47:58|SYSTEM|~|~
DE|-|AR00800080Z113000001X|-|~|2014-09-02 07:47:58|SYSTEM|~|~
DE|-|AR00460036Z115310019X|-|~|2014-09-02 07:47:58|SYSTEM|~|~
DE|-|AR00460036Z115310013X|-|~|2014-09-02 07:47:58|SYSTEM|~|~
DE|-|AR00460036Z114901062X|-|~|2014-09-02 07:47:58|SYSTEM|~|~
DE|-|AR00460036Z114C18002X|-|~|2014-09-02 07:47:58|SYSTEM|~|~
DE|-|AR00460036Z114911043X|-|~|2014-09-02 07:47:58|SYSTEM|~|~
DE|-|AR00460055Z115610006X|-|~|2014-09-02 07:47:58|SYSTEM|~|~
UK|-|AR00460036Z114B20012A|-|~|2014-09-02 07:47:58|SYSTEM|~|~
DE|-|AR00460036Z114C18015X|-|~|2014-09-02 07:47:58|SYSTEM|~|~
DE|-|AR00460055Z115610017X|-|~|2014-09-02 07:47:58|SYSTEM|~|~
DE|-|AR00460036Z115203003X|-|~|2014-09-02 07:47:58|SYSTEM|~|~
UK|-|AR00460036Z115113007A|-|~|2014-09-02 07:47:58|SYSTEM|~|~
DE|-|AR00460055Z115610025X|-|~|2014-09-02 07:47:58|SYSTEM|~|~
DE|-|AR00460036Z114C18012X|-|~|2014-09-02 07:47:58|SYSTEM|~|~
DE|-|AR00460036Z114827041X|-|~|2014-09-02 07:47:58|SYSTEM|~|~
DE|-|AR00460036Z114812007X|-|~|2014-09-02 07:47:58|SYSTEM|~|~
DE|-|AR00460036Z114911010X|-|~|2014-09-02 07:47:58|SYSTEM|~|~
DE|-|AR00460036Z114827044X|-|~|2014-09-02 07:47:58|SYSTEM|~|~
DE|-|AR00460036Z114901006X|-|~|2014-09-02 07:47:58|SYSTEM|~|~
DE|-|AR00460036Z114101088X|-|~|2014-09-02 07:47:58|SYSTEM|~|~
DE|-|AR00460036Z114812024X|-|~|2014-09-02 07:47:58|SYSTEM|~|~
DE|-|AR00460036Z114101075X|-|~|2014-09-02 07:47:58|SYSTEM|~|~
DE|-|AR00460036Z114101073X|-|~|2014-09-02 07:47:58|SYSTEM|~|~
DE|-|AR00460036Z114101039X|-|~|2014-09-02 07:47:58|SYSTEM|~|~
DE|-|AR00460036Z114911068X|-|~|2014-09-02 07:47:58|SYSTEM|~|~
DE|-|AR00460036Z114101098X|-|~|2014-09-02 07:47:58|SYSTEM|~|~
DE|-|AR00460036Z114911002X|-|~|2014-09-02 07:47:58|SYSTEM|~|~
DE|-|AR00460036Z114101016X|-|~|2014-09-02 07:47:58|SYSTEM|~|~
DE|-|AR00460036Z114101009X|-|~|2014-09-02 07:47:58|SYSTEM|~|~
DE|-|AR00460036Z114101060X|-|~|2014-09-02 07:47:58|SYSTEM|~|~
DE|-|AR00460036Z114101094X|-|~|2014-09-02 07:47:58|SYSTEM|~|~
DE|-|AR00460036Z114101101X|-|~|2014-09-02 07:47:58|SYSTEM|~|~
DE|-|AR00460036Z114C18073X|-|~|2014-09-02 07:47:58|SYSTEM|~|~
DE|-|AR00460036Z114812049X|-|~|2014-09-02 07:47:58|SYSTEM|~|~
DE|-|AR00460036Z114911045X|-|~|2014-09-02 07:47:58|SYSTEM|~|~
DE|-|AR00460036Z114911080X|-|~|2014-09-02 07:47:58|SYSTEM|~|~
DE|-|AR00460036Z114901043X|-|~|2014-09-02 07:47:58|SYSTEM|~|~
DE|-|AR00460036Z114101031X|-|~|2014-09-02 07:47:58|SYSTEM|~|~
DE|-|AR00460036Z114901057X|-|~|2014-09-02 07:47:58|SYSTEM|~|~
DE|-|AR00460036Z114C18031X|-|~|2014-09-02 07:47:58|SYSTEM|~|~
DE|-|AR00460036Z114911041X|-|~|2014-09-02 07:47:58|SYSTEM|~|~
DE|-|AR00460036Z115213013X|-|~|2014-09-02 07:47:58|SYSTEM|~|~
DE|-|AR00460036Z114C18074X|-|~|2014-09-02 07:47:58|SYSTEM|~|~
DE|-|AR00460036Z114911102X|-|~|2014-09-02 07:47:58|SYSTEM|~|~
DE|-|AR00460036Z115213048X|-|~|2014-09-02 07:47:58|SYSTEM|~|~
AU|-|AR00460036Z115120011C|-|~|2015-02-25 00:00:00|SYSTEM|~|~
DE|-|AR00460036Z115213042X|-|~|2014-09-02 07:47:58|SYSTEM|~|~
UK|-|AR00460036Z114102060A|-|~|2014-09-02 07:47:58|SYSTEM|~|~
DE|-|AR00460036Z114C18054X|-|~|2014-09-02 07:47:58|SYSTEM|~|~
DE|-|AR00460036Z114C18055X|-|~|2014-09-02 07:47:58|SYSTEM|~|~
UK|-|AR00460036Z115113018A|-|~|2014-09-02 07:47:58|SYSTEM|~|~
UK|-|AR00460036Z115217020A|-|~|2014-09-02 07:47:58|SYSTEM|~|~
DE|-|AR00460055Z115610116X|-|~|2014-09-02 07:47:58|SYSTEM|~|~
DE|-|AR00460055Z115610102X|-|~|2014-09-02 07:47:58|SYSTEM|~|~
DE|-|AR00460036Z115406039X|-|~|2014-09-02 07:47:58|SYSTEM|~|~
DE|-|AR00460036Z115213053X|-|~|2014-09-02 07:47:58|SYSTEM|~|~
DE|-|AR00460036Z114827033X|-|~|2014-09-02 07:47:58|SYSTEM|~|~
DE|-|AR00460036Z114723010X|-|~|2014-09-02 07:47:58|SYSTEM|~|~
DE|-|AR00460036Z114812026X|-|~|2014-09-02 07:47:58|SYSTEM|~|~
DE|-|AR00460036Z114911085X|-|~|2014-09-02 07:47:58|SYSTEM|~|~
DE|-|AR00460036Z114723002X|-|~|2014-09-02 07:47:58|SYSTEM|~|~
DE|-|AR00460036Z114901001X|-|~|2014-09-02 07:47:58|SYSTEM|~|~
DE|-|AR00460036Z114723001X|-|~|2014-09-02 07:47:58|SYSTEM|~|~
DE|-|AR00460036Z114827028X|-|~|2014-09-02 07:47:58|SYSTEM|~|~
DE|-|AR00460036Z114827034X|-|~|2014-09-02 07:47:58|SYSTEM|~|~
AU|-|AR00460036Z115120007C|-|~|2015-02-02 05:34:17|SYSTEM|~|~
DE|-|AR00460036Z114812036X|-|~|2014-09-02 07:47:58|SYSTEM|~|~
DE|-|AR00460036Z114812021X|-|~|2014-09-02 07:47:58|SYSTEM|~|~
NZ|-|AR00460036Z114C18005C|-|~|2015-03-10 05:22:12|SYSTEM|~|~
DE|-|AR00460036Z114827017X|-|~|2014-09-02 07:47:58|SYSTEM|~|~
DE|-|AR00460036Z114911100X|-|~|2014-09-02 07:47:58|SYSTEM|~|~
DE|-|AR00460036Z114911016X|-|~|2014-09-02 07:47:58|SYSTEM|~|~
DE|-|AR00460036Z114901010X|-|~|2014-09-02 07:47:58|SYSTEM|~|~
UK|-|AR00460036Z114911094X|-|~|2014-09-02 07:47:58|SYSTEM|~|~
DE|-|AR00460036Z114101029X|-|~|2014-09-02 07:47:58|SYSTEM|~|~
DE|-|AR00460036Z115213069X|-|~|2014-09-02 07:47:58|SYSTEM|~|~
DE|-|AR00460036Z114C18016X|-|~|2014-09-02 07:47:58|SYSTEM|~|~
DE|-|AR00460036Z114911054X|-|~|2014-09-02 07:47:58|SYSTEM|~|~
DE|-|AR00460036Z114101020X|-|~|2014-09-02 07:47:58|SYSTEM|~|~
DE|-|AR00460036Z115213066X|-|~|2014-09-02 07:47:58|SYSTEM|~|~
UK|-|AR00460036Z114102082A|-|~|2014-09-02 07:47:58|SYSTEM|~|~
UK|-|AR00460036Z114102007A|-|~|2014-09-02 07:47:58|SYSTEM|~|~
DE|-|AR00460036Z114812039X|-|~|2014-09-02 07:47:58|SYSTEM|~|~
DE|-|AR00460036Z114827036X|-|~|2014-09-02 07:47:58|SYSTEM|~|~
UK|-|AR00460036Z114102071A|-|~|2014-09-02 07:47:58|SYSTEM|~|~
UK|-|AR00460036Z115113015A|-|~|2014-09-02 07:47:58|SYSTEM|~|~
DE|-|AR00460055Z115610031X|-|~|2014-09-02 07:47:58|SYSTEM|~|~
DE|-|AR00460036Z114C18034X|-|~|2014-09-02 07:47:58|SYSTEM|~|~
UK|-|AR00460036Z115113044A|-|~|2014-09-02 07:47:58|SYSTEM|~|~
DE|-|AR00460036Z115310032X|-|~|2014-09-02 07:47:58|SYSTEM|~|~
DE|-|AR00460055Z115610078X|-|~|2014-09-02 07:47:58|SYSTEM|~|~
DE|-|AR00460055Z115610064X|-|~|2014-09-02 07:47:58|SYSTEM|~|~
DE|-|AR00460036Z115310026X|-|~|2014-09-02 07:47:58|SYSTEM|~|~
UK|-|AR00460036Z115113046A|-|~|2014-09-02 07:47:58|SYSTEM|~|~
DE|-|AR00460036Z115310001X|-|~|2014-09-02 07:47:58|SYSTEM|~|~
UK|-|AR00460036Z115217025A|-|~|2014-09-02 07:47:58|SYSTEM|~|~
DE|-|AR00460036Z114827027X|-|~|2014-09-02 07:47:58|SYSTEM|~|~
DE|-|AR00460036Z114911086X|-|~|2014-09-02 07:47:58|SYSTEM|~|~
DE|-|AR00460036Z114911120X|-|~|2014-09-02 07:47:58|SYSTEM|~|~
DE|-|AR00460036Z114101021X|-|~|2014-09-02 07:47:58|SYSTEM|~|~
DE|-|AR00460036Z114101086X|-|~|2014-09-02 07:47:58|SYSTEM|~|~
DE|-|AR00460036Z114812029X|-|~|2014-09-02 07:47:58|SYSTEM|~|~
DE|-|AR00460036Z114827059X|-|~|2014-09-02 07:47:58|SYSTEM|~|~
DE|-|AR00460036Z114101083X|-|~|2014-09-02 07:47:58|SYSTEM|~|~
DE|-|AR00460036Z114911047X|-|~|2014-09-02 07:47:58|SYSTEM|~|~
DE|-|AR00460036Z114911039X|-|~|2014-09-02 07:47:58|SYSTEM|~|~
DE|-|AR00460036Z114911087X|-|~|2014-09-02 07:47:58|SYSTEM|~|~
DE|-|AR00460036Z114101007X|-|~|2014-09-02 07:47:58|SYSTEM|~|~
DE|-|AR00460036Z114911017X|-|~|2014-09-02 07:47:58|SYSTEM|~|~
DE|-|AR00460036Z114101004X|-|~|2014-09-02 07:47:58|SYSTEM|~|~
DE|-|AR00460036Z114101050X|-|~|2014-09-02 07:47:58|SYSTEM|~|~
DE|-|AR00460036Z115213059X|-|~|2014-09-02 07:47:58|SYSTEM|~|~
DE|-|AR00460036Z114911027X|-|~|2014-09-02 07:47:58|SYSTEM|~|~
UK|-|AR00460036Z114102023A|-|~|2014-09-02 07:47:58|SYSTEM|~|~
DE|-|AR00460036Z115213074X|-|~|2014-09-02 07:47:58|SYSTEM|~|~
DE|-|AR00460036Z115310039X|-|~|2014-09-02 07:47:58|SYSTEM|~|~
DE|-|AR00460036Z115310027X|-|~|2014-09-02 07:47:58|SYSTEM|~|~
DE|-|AR00460036Z114812037X|-|~|2014-09-02 07:47:58|SYSTEM|~|~
DE|-|AR00460036Z114911035X|-|~|2014-09-02 07:47:58|SYSTEM|~|~
DE|-|AR00460036Z114C18069X|-|~|2014-09-02 07:47:58|SYSTEM|~|~
DE|-|AR00460036Z114C18068X|-|~|2014-09-02 07:47:58|SYSTEM|~|~
UK|-|AR00460036Z114102028A|-|~|2014-09-02 07:47:58|SYSTEM|~|~
DE|-|AR00460036Z115309005X|-|~|2014-09-02 07:47:58|SYSTEM|~|~
DE|-|AR00460036Z115203044X|-|~|2014-09-02 07:47:58|SYSTEM|~|~
UK|-|AR00460036Z115217008A|-|~|2014-09-02 07:47:58|SYSTEM|~|~
UK|-|AR00460036Z115217034A|-|~|2014-09-02 07:47:58|SYSTEM|~|~
DE|-|AR00460036Z114C18070X|-|~|2014-09-02 07:47:58|SYSTEM|~|~
DE|-|AR00460036Z114901037X|-|~|2014-09-02 07:47:58|SYSTEM|~|~
AU|Australia Default|AU0002|Australia Standard Flat|~|2015-02-02 05:42:48|SYSTEM|~|~
AU|NSW_Orgin|AU0003|Demestic|~|2015-02-25 00:00:00|SYSTEM|~|~
AU|NSW_Orgin|AU0004|Domestic TOU|~|2015-02-25 00:00:00|SYSTEM|~|~
AU|NSW_Orgin|AU0005|Controlled Load1|~|2015-02-25 00:00:00|SYSTEM|~|~
AU|NSW_Origin|AU0006|Controlled Load2|~|2015-02-25 00:00:00|SYSTEM|~|~
AU|NSW_EnergyAustralia|AU0007|Rate Fix|~|2015-02-25 00:00:00|SYSTEM|~|~
AU|Victoria_AGL|AU0011|Residential Tariff|~|2015-02-25 00:00:00|SYSTEM|~|~
AU|Victoria_AGL|AU0012|Controlled Load|~|2015-02-25 00:00:00|SYSTEM|~|~
AU|Victoria_EnergyAustralia|AU0013|Rate Fix|~|2015-02-25 00:00:00|SYSTEM|~|~
AU|Victoria_EnergyAustralia|AU0014|Flexi Saver|~|2015-02-25 00:00:00|SYSTEM|~|~
AU|Victoria_EnergyAustralia|AU0015|Everyday Saver|~|2015-02-25 00:00:00|SYSTEM|~|~
AU|Victoria_Origin|AU0016|Residential Peak Anytime|~|2015-02-25 00:00:00|SYSTEM|~|~
AU|Victoria_Origin|AU0017|Residential 5Day TOU|~|2015-02-25 00:00:00|SYSTEM|~|~
AU|Victoria_Origin|AU0018|Residential TOU|~|2015-02-25 00:00:00|SYSTEM|~|~
AU|Victoria_Origin|AU0019|Controlled Load2|~|2015-02-25 00:00:00|SYSTEM|~|~
AU|SouthAustralia_AGL|AU0020|Domestic Light Power|~|2015-02-25 00:00:00|SYSTEM|~|~
AU|SouthAustralia_Origin|AU0021|Domestic Light Power|~|2015-02-25 00:00:00|SYSTEM|~|~
AU|SouthAustralia_Origin|AU0022|Controlled Load|~|2015-02-25 00:00:00|SYSTEM|~|~
AU|SouthAustralia_EnergyAustralia|AU0023|Everyday Saver|~|2015-02-25 00:00:00|SYSTEM|~|~
AU|SouthAustralia_EnergyAustralia|AU0024|Flexi Saver|~|2015-02-25 00:00:00|SYSTEM|~|~
AU|Queensland_Origin|AU0025|Domestic(T11)|~|2015-02-25 00:00:00|SYSTEM|~|~
AU|Queensland_Origin|AU0026|Domestic TOU(T12)|~|2015-02-25 00:00:00|SYSTEM|~|~
AU|Queensland_Origin|AU0027|Domestic Peak TOU(T13)|~|2015-02-25 00:00:00|SYSTEM|~|~
AU|Tasmania_Aurora|AU0030|Residential Light Power(T31)|~|2015-02-25 00:00:00|SYSTEM|~|~
AU|Tasmania_Aurora|AU0031|Controlled Load(T61)|~|2015-02-25 00:00:00|SYSTEM|~|~
AU|ACT_ActewAGL|AU0032|Home|~|2015-02-25 00:00:00|SYSTEM|~|~
AU|ACT_ActewAGL|AU0033|Home Saver|~|2015-02-25 00:00:00|SYSTEM|~|~
AU|ACT_ActewAGL|AU0034|Home Saver+(Flat)|~|2015-02-25 00:00:00|SYSTEM|~|~
AU|ACT_EnergyAustralia|AU0036|Flexi Saver|~|2015-02-25 00:00:00|SYSTEM|~|~
AU|ACT_EnergyAustralia|AU0037|Everyday Saver|~|2015-02-25 00:00:00|SYSTEM|~|~
AU|NSW_EnergyAustralia|AU0008|Flexi Saver|~|2015-02-25 00:00:00|SYSTEM|~|~
AU|NSW_EnergyAustralia|AU0009|Everyday Saver|~|2015-02-25 00:00:00|SYSTEM|~|~
AU|NSW_AGL|AU0010|Standing Offer TOU|~|2015-02-25 00:00:00|SYSTEM|~|~
AU|ACT_ActewAGL|AU0035|Home TOU|~|2015-02-25 00:00:00|SYSTEM|~|~
IT|Italy Default|IT0002|Italy Standard TOU|~|2015-03-31 06:45:40|SYSTEM|~|~
DE|Germany Default|DFT_DE|Germany Standard Flat|~|2014-09-02 07:47:58|SYSTEM|~|~
UK|UK Default|DFT_UK|UK Standard Flat|~|2014-09-02 07:47:58|SYSTEM|~|~
IT|Italy Default|DFT_IT|Italy Standard Flat|~|2014-09-02 07:47:58|SYSTEM|~|~
PT|Portugal Default|DFT_PT|Portugal Standard Flat|~|2014-09-02 07:47:58|SYSTEM|~|~
KR|KEPCO|PROD02|KEPCO_Tarriff_1|~|2014-09-02 07:47:58|SYSTEM|~|~
AU|Australia Default|AU0001|Australia Standard TOU|~|2015-02-02 05:34:17|SYSTEM|~|~
KR|가상전력회사|TCODE3|테스트요금제|~|2014-09-27 02:00:48|SYSTEM|~|~
CH|Switzerland Default|DFT_CH|Switzerland Standard Flat|~|2015-01-12 08:05:32|SYSTEM|~|~
DE|-|AR00460036Z114723004X|-|~|2014-09-02 07:47:58|SYSTEM|~|~
DE|-|AR00460036Z114901007X|-|~|2014-09-02 07:47:58|SYSTEM|~|~
DE|-|AR00460036Z114901015X|-|~|2014-09-02 07:47:58|SYSTEM|~|~
CH|-|AR00460036Z114812044X|-|~|2015-01-12 08:05:32|SYSTEM|~|~
DE|-|AR00460036Z114911111X|-|~|2014-09-02 07:47:58|SYSTEM|~|~
DE|-|AR00460036Z114827006X|-|~|2014-09-02 07:47:58|SYSTEM|~|~
UK|-|AR00460036Z114102017A|-|~|2014-09-02 07:47:58|SYSTEM|~|~
DE|-|AR00460036Z114911082X|-|~|2014-09-02 07:47:58|SYSTEM|~|~
DE|-|AR00460036Z114911020X|-|~|2014-09-02 07:47:58|SYSTEM|~|~
DE|-|AR00460036Z114101099X|-|~|2014-09-02 07:47:58|SYSTEM|~|~
DE|-|AR00460036Z114901058X|-|~|2014-09-02 07:47:58|SYSTEM|~|~
DE|-|AR00460036Z114827038X|-|~|2014-09-02 07:47:58|SYSTEM|~|~
DE|-|AR00460036Z114101019X|-|~|2014-09-02 07:47:58|SYSTEM|~|~
DE|-|AR00460036Z114911022X|-|~|2014-09-02 07:47:58|SYSTEM|~|~
DE|-|AR00460036Z114812034X|-|~|2014-09-02 07:47:58|SYSTEM|~|~
DE|-|AR00460036Z114911025X|-|~|2014-09-02 07:47:58|SYSTEM|~|~
DE|-|AR00460036Z115213010X|-|~|2014-09-02 07:47:58|SYSTEM|~|~
UK|-|AR00460036Z114102050A|-|~|2014-09-02 07:47:58|SYSTEM|~|~
DE|-|AR00460036Z114911118X|-|~|2014-09-02 07:47:58|SYSTEM|~|~
DE|-|AR00460036Z115213060X|-|~|2014-09-02 07:47:58|SYSTEM|~|~
DE|-|AR00460036Z114911121X|-|~|2014-09-02 07:47:58|SYSTEM|~|~
DE|-|AR00460036Z115213049X|-|~|2014-09-02 07:47:58|SYSTEM|~|~
AU|-|AR00460036Z115120010C|-|~|2015-02-25 00:00:00|SYSTEM|~|~
AU|-|AR00460036Z115120021C|-|~|2015-02-25 00:00:00|SYSTEM|~|~
DE|-|AR00460036Z114812027X|-|~|2014-09-02 07:47:58|SYSTEM|~|~
AU|-|AR00460036Z114C18008C|-|~|2015-02-25 00:00:00|SYSTEM|~|~
DE|-|AR00460036Z114C18011X|-|~|2014-09-02 07:47:58|SYSTEM|~|~
DE|-|AR00460036Z114C18045X|-|~|2014-09-02 07:47:58|SYSTEM|~|~
DE|-|AR00460036Z114911098X|-|~|2014-09-02 07:47:58|SYSTEM|~|~
DE|-|AR00460036Z114C18024X|-|~|2014-09-02 07:47:58|SYSTEM|~|~
DE|-|AR00460036Z114C18019X|-|~|2014-09-02 07:47:58|SYSTEM|~|~
DE|-|AR00460036Z115310016X|-|~|2014-09-02 07:47:58|SYSTEM|~|~
UK|-|AR00460036Z115113036A|-|~|2014-09-02 07:47:58|SYSTEM|~|~
DE|-|AR00460036Z114812028X|-|~|2014-09-02 07:47:58|SYSTEM|~|~
UK|-|AR00460036Z114B20002A|-|~|2014-09-02 07:47:58|SYSTEM|~|~
DE|-|AR00460036Z115310029X|-|~|2014-09-02 07:47:58|SYSTEM|~|~
UK|-|AR00460036Z115217018A|-|~|2014-09-02 07:47:58|SYSTEM|~|~
DE|-|AR00460036Z114C18013X|-|~|2014-09-02 07:47:58|SYSTEM|~|~
DE|-|AR00460036Z114911069X|-|~|2014-09-02 07:47:58|SYSTEM|~|~
DE|-|AR00460036Z114911070X|-|~|2014-09-02 07:47:58|SYSTEM|~|~
DE|-|AR00460036Z114723011X|-|~|2014-09-02 07:47:58|SYSTEM|~|~
DE|-|AR00460036Z114812018X|-|~|2014-09-02 07:47:58|SYSTEM|~|~
DE|-|AR00460036Z114911124X|-|~|2014-09-02 07:47:58|SYSTEM|~|~
DE|-|AR00460036Z114827009X|-|~|2014-09-02 07:47:58|SYSTEM|~|~
DE|-|AR00460036Z114101022X|-|~|2014-09-02 07:47:58|SYSTEM|~|~
DE|-|AR00460036Z114101063X|-|~|2014-09-02 07:47:58|SYSTEM|~|~
DE|-|AR00460036Z114827035X|-|~|2014-09-02 07:47:58|SYSTEM|~|~
UK|-|AR00460036Z114B20001A|-|~|2014-09-02 07:47:58|SYSTEM|~|~
DE|-|AR00460036Z114901040X|-|~|2014-09-02 07:47:58|SYSTEM|~|~
DE|-|AR00460036Z115213039X|-|~|2014-09-02 07:47:58|SYSTEM|~|~
DE|-|AR00460036Z114812006X|-|~|2014-09-02 07:47:58|SYSTEM|~|~
DE|-|AR00460036Z114901044X|-|~|2014-09-02 07:47:58|SYSTEM|~|~
DE|-|AR00460036Z114C18075X|-|~|2014-09-02 07:47:58|SYSTEM|~|~
DE|-|AR00460036Z114812001X|-|~|2014-09-02 07:47:58|SYSTEM|~|~
DE|-|AR00460036Z115310034X|-|~|2014-09-02 07:47:58|SYSTEM|~|~
DE|-|AR00460055Z115610082X|-|~|2014-09-02 07:47:58|SYSTEM|~|~
UK|-|AR00460036Z115113013A|-|~|2014-09-02 07:47:58|SYSTEM|~|~
DE|-|AR00460036Z115310006X|-|~|2014-09-02 07:47:58|SYSTEM|~|~
DE|-|AR00460036Z114C18035X|-|~|2014-09-02 07:47:58|SYSTEM|~|~
UK|-|AR00460036Z115113040A|-|~|2014-09-02 07:47:58|SYSTEM|~|~
DE|-|AR00460036Z115310014X|-|~|2014-09-02 07:47:58|SYSTEM|~|~
DE|-|AR00460036Z114C18018X|-|~|2014-09-02 07:47:58|SYSTEM|~|~
DE|-|AR00460036Z114C18057X|-|~|2014-09-02 07:47:58|SYSTEM|~|~
DE|-|AR00460036Z114812011X|-|~|2014-09-02 07:47:58|SYSTEM|~|~
DE|-|AR00460036Z114827058X|-|~|2014-09-02 07:47:58|SYSTEM|~|~
DE|-|AR00460036Z114901033X|-|~|2014-09-02 07:47:58|SYSTEM|~|~
DE|-|AR00460036Z114901032X|-|~|2014-09-02 07:47:58|SYSTEM|~|~
DE|-|AR00460036Z114901002X|-|~|2014-09-02 07:47:58|SYSTEM|~|~
DE|-|AR00460036Z114827046X|-|~|2014-09-02 07:47:58|SYSTEM|~|~
DE|-|AR00460036Z114812046X|-|~|2014-09-02 07:47:58|SYSTEM|~|~
DE|-|AR00460036Z114827025X|-|~|2014-09-02 07:47:58|SYSTEM|~|~
DE|-|AR00460036Z114911023X|-|~|2014-09-02 07:47:58|SYSTEM|~|~
DE|-|AR00460036Z114101044X|-|~|2014-09-02 07:47:58|SYSTEM|~|~
DE|-|AR00460036Z114911008X|-|~|2014-09-02 07:47:58|SYSTEM|~|~
DE|-|AR00460036Z114901046X|-|~|2014-09-02 07:47:58|SYSTEM|~|~
DE|-|AR00460036Z114827050X|-|~|2014-09-02 07:47:58|SYSTEM|~|~
DE|-|AR00460036Z114911055X|-|~|2014-09-02 07:47:58|SYSTEM|~|~
DE|-|AR00460036Z114101005X|-|~|2014-09-02 07:47:58|SYSTEM|~|~
DE|-|AR00460036Z114911018X|-|~|2014-09-02 07:47:58|SYSTEM|~|~
DE|-|AR00460036Z114911083X|-|~|2014-09-02 07:47:58|SYSTEM|~|~
DE|-|AR00460036Z114901056X|-|~|2014-09-02 07:47:58|SYSTEM|~|~
DE|-|AR00460036Z114911034X|-|~|2014-09-02 07:47:58|SYSTEM|~|~
DE|-|XXXXXXXXXXXXXXXXXXXXX|-|~|2014-09-02 07:47:58|SYSTEM|~|~
UK|-|AR00460036Z114102067A|-|~|2014-09-02 07:47:58|SYSTEM|~|~
DE|-|AR00460036Z114911033X|-|~|2014-09-02 07:47:58|SYSTEM|~|~
DE|-|AR00460036Z114827032X|-|~|2014-09-02 07:47:58|SYSTEM|~|~
DE|-|AR00460036Z114101095X|-|~|2014-09-02 07:47:58|SYSTEM|~|~
DE|-|AR00460036Z115213078X|-|~|2014-09-02 07:47:58|SYSTEM|~|~
DE|-|AR00460036Z115213015X|-|~|2014-09-02 07:47:58|SYSTEM|~|~
UK|-|AR00460036Z115217035A|-|~|2014-09-02 07:47:58|SYSTEM|~|~
UK|-|AR00460036Z115113042A|-|~|2014-09-02 07:47:58|SYSTEM|~|~
DE|-|AR00460036Z114701001X|-|~|2014-09-02 07:47:58|SYSTEM|~|~
AU|-|AR00460036Z114C18015C|-|~|2015-02-25 00:00:00|SYSTEM|~|~
DE|-|AR00460036Z115310017X|-|~|2014-09-02 07:47:58|SYSTEM|~|~
DE|-|AR00460036Z115310002X|-|~|2014-09-02 07:47:58|SYSTEM|~|~
IT|-|AR00460036Z115714007D|-|~|2014-09-02 07:47:58|SYSTEM|~|~
DE|-|AR00460036Z115213065X|-|~|2014-09-02 07:47:58|SYSTEM|~|~
DE|-|AR00460036Z114812010X|-|~|2014-09-02 07:47:58|SYSTEM|~|~
DE|-|AR00460036Z114827040X|-|~|2014-09-02 07:47:58|SYSTEM|~|~
DE|-|AR00460036Z114901068X|-|~|2014-09-02 07:47:58|SYSTEM|~|~
DE|-|AR00460036Z114901013X|-|~|2014-09-02 07:47:58|SYSTEM|~|~
DE|-|AR00460036Z114812005X|-|~|2014-09-02 07:47:58|SYSTEM|~|~
DE|-|AR00460036Z114901025X|-|~|2014-09-02 07:47:58|SYSTEM|~|~
DE|-|AR00460036Z114827003X|-|~|2014-09-02 07:47:58|SYSTEM|~|~
DE|-|AR00460036Z114101026X|-|~|2014-09-02 07:47:58|SYSTEM|~|~
DE|-|AR00460036Z114901028X|-|~|2014-09-02 07:47:58|SYSTEM|~|~
DE|-|AR00460036Z114827054X|-|~|2014-09-02 07:47:58|SYSTEM|~|~
DE|-|AR00460036Z114901030X|-|~|2014-09-02 07:47:58|SYSTEM|~|~
DE|-|AR00460036Z114101091X|-|~|2014-09-02 07:47:58|SYSTEM|~|~
DE|-|AR00460036Z114101064X|-|~|2014-09-02 07:47:58|SYSTEM|~|~
DE|-|AR00460036Z114827019X|-|~|2014-09-02 07:47:58|SYSTEM|~|~
DE|-|AR00460036Z114911074X|-|~|2014-09-02 07:47:58|SYSTEM|~|~
DE|-|AR00460036Z114901060X|-|~|2014-09-02 07:47:58|SYSTEM|~|~
DE|-|AR00460036Z114911038X|-|~|2014-09-02 07:47:58|SYSTEM|~|~
DE|-|AR00460036Z114901042X|-|~|2014-09-02 07:47:58|SYSTEM|~|~
DE|-|AR00460036Z114101074X|-|~|2014-09-02 07:47:58|SYSTEM|~|~
DE|-|AR00460036Z114911096X|-|~|2014-09-02 07:47:58|SYSTEM|~|~
DE|-|AR00460036Z114911089X|-|~|2014-09-02 07:47:58|SYSTEM|~|~
DE|-|AR00460036Z114101024X|-|~|2014-09-02 07:47:58|SYSTEM|~|~
DE|-|AR00460036Z115213012X|-|~|2014-09-02 07:47:58|SYSTEM|~|~
DE|-|AR00460036Z114812032X|-|~|2014-09-02 07:47:58|SYSTEM|~|~
AU|-|AR00460036Z115120019C|-|~|2015-02-25 00:00:00|SYSTEM|~|~
AU|-|AR00460036Z114C18007C|-|~|2015-02-25 00:00:00|SYSTEM|~|~
DE|-|AR00460036Z114911029X|-|~|2014-09-02 07:47:58|SYSTEM|~|~
DE|-|AR00460036Z115203038X|-|~|2014-09-02 07:47:58|SYSTEM|~|~
DE|-|AR00800080Z112023167X|-|~|2014-09-02 07:47:58|SYSTEM|~|~
UK|-|AR00460036Z115217017A|-|~|2014-09-02 07:47:58|SYSTEM|~|~
DE|-|AR00460036Z115310036X|-|~|2014-09-02 07:47:58|SYSTEM|~|~
DE|-|AR00460036Z114827039X|-|~|2014-09-02 07:47:58|SYSTEM|~|~
DE|-|AR00460036Z114901063X|-|~|2014-09-02 07:47:58|SYSTEM|~|~
DE|-|AR00460036Z114827052X|-|~|2014-09-02 07:47:58|SYSTEM|~|~
DE|-|AR00460036Z114723018X|-|~|2014-09-02 07:47:58|SYSTEM|~|~
DE|-|AR00460036Z114911014X|-|~|2014-09-02 07:47:58|SYSTEM|~|~
DE|-|AR00460036Z114901018X|-|~|2014-09-02 07:47:58|SYSTEM|~|~
DE|-|AR00460036Z114101017X|-|~|2014-09-02 07:47:58|SYSTEM|~|~
DE|-|AR00460036Z114101036X|-|~|2014-09-02 07:47:58|SYSTEM|~|~
DE|-|AR00460036Z114101043X|-|~|2014-09-02 07:47:58|SYSTEM|~|~
DE|-|AR00460036Z114901049X|-|~|2014-09-02 07:47:58|SYSTEM|~|~
DE|-|AR00460036Z114827030X|-|~|2014-09-02 07:47:58|SYSTEM|~|~
DE|-|AR00460036Z114101090X|-|~|2014-09-02 07:47:58|SYSTEM|~|~
DE|-|AR00460036Z114101003X|-|~|2014-09-02 07:47:58|SYSTEM|~|~
DE|-|AR00460036Z114101092X|-|~|2014-09-02 07:47:58|SYSTEM|~|~
DE|-|AR00460036Z114101082X|-|~|2014-09-02 07:47:58|SYSTEM|~|~
DE|-|AR00460036Z114911092X|-|~|2014-09-02 07:47:58|SYSTEM|~|~
UK|-|AR00460036Z114102036A|-|~|2014-09-02 07:47:58|SYSTEM|~|~
DE|-|AR00460036Z114901008X|-|~|2014-09-02 07:47:58|SYSTEM|~|~
UK|-|AR00460036Z114102047A|-|~|2014-09-02 07:47:58|SYSTEM|~|~
DE|-|AR00460036Z114812015X|-|~|2014-09-02 07:47:58|SYSTEM|~|~
DE|-|AR00460036Z114C18039X|-|~|2014-09-02 07:47:58|SYSTEM|~|~
DE|-|AR00460036Z114101053X|-|~|2014-09-02 07:47:58|SYSTEM|~|~
DE|-|AR00460036Z115213058X|-|~|2014-09-02 07:47:58|SYSTEM|~|~
DE|-|AR00460036Z115203004X|-|~|2014-09-02 07:47:58|SYSTEM|~|~
DE|-|AR00460036Z114C18049X|-|~|2014-09-02 07:47:58|SYSTEM|~|~
DE|-|AR00460036Z114C18004X|-|~|2014-09-02 07:47:58|SYSTEM|~|~
DE|-|AR00460036Z114C18003X|-|~|2014-09-02 07:47:58|SYSTEM|~|~
DE|-|AR00460036Z114901070X|-|~|2014-09-02 07:47:58|SYSTEM|~|~
DE|-|AR00460036Z115310011X|-|~|2014-09-02 07:47:58|SYSTEM|~|~
DE|-|AR00460036Z115310038X|-|~|2014-09-02 07:47:58|SYSTEM|~|~
DE|-|AR00460036Z115213037X|-|~|2014-09-02 07:47:58|SYSTEM|~|~
DE|-|AR00460036Z114911088X|-|~|2014-09-02 07:47:58|SYSTEM|~|~
UK|-|AR00460036Z115113024A|-|~|2014-09-02 07:47:58|SYSTEM|~|~
DE|-|AR00460036Z115213083X|-|~|2014-09-02 07:47:58|SYSTEM|~|~
DE|-|AR00460036Z114911090X|-|~|2014-09-02 07:47:58|SYSTEM|~|~
DE|-|AR00460036Z115213082X|-|~|2014-09-02 07:47:58|SYSTEM|~|~
DE|-|AR00460036Z114901035X|-|~|2014-09-02 07:47:58|SYSTEM|~|~
UK|-|AR00460036Z115113022A|-|~|2014-09-02 07:47:58|SYSTEM|~|~
DE|-|AR00460036Z115310025X|-|~|2014-09-02 07:47:58|SYSTEM|~|~
DE|-|AR00460036Z115213075X|-|~|2014-09-02 07:47:58|SYSTEM|~|~
DE|-|AR00460036Z114901011X|-|~|2014-09-02 07:47:58|SYSTEM|~|~
DE|-|AR00460036Z114827031X|-|~|2014-09-02 07:47:58|SYSTEM|~|~
DE|-|AR00460036Z114723007X|-|~|2014-09-02 07:47:58|SYSTEM|~|~
DE|-|AR00460036Z114911003X|-|~|2014-09-02 07:47:58|SYSTEM|~|~
DE|-|AR00460036Z114827026X|-|~|2014-09-02 07:47:58|SYSTEM|~|~
DE|-|AR00460036Z114101093X|-|~|2014-09-02 07:47:58|SYSTEM|~|~
DE|-|AR00460036Z114901069X|-|~|2014-09-02 07:47:58|SYSTEM|~|~
DE|-|AR00460036Z114C18042X|-|~|2014-09-02 07:47:58|SYSTEM|~|~
DE|-|AR00460036Z114901052X|-|~|2014-09-02 07:47:58|SYSTEM|~|~
DE|-|AR00460036Z114101032X|-|~|2014-09-02 07:47:58|SYSTEM|~|~
DE|-|AR00460036Z114101014X|-|~|2014-09-02 07:47:58|SYSTEM|~|~
DE|-|AR00460036Z114901041X|-|~|2014-09-02 07:47:58|SYSTEM|~|~
DE|-|AR00460036Z114911099X|-|~|2014-09-02 07:47:58|SYSTEM|~|~
DE|-|AR00460036Z115213079X|-|~|2014-09-02 07:47:58|SYSTEM|~|~
DE|-|AR00460036Z114C18072X|-|~|2014-09-02 07:47:58|SYSTEM|~|~
UK|-|AR00460036Z114102035A|-|~|2014-09-02 07:47:58|SYSTEM|~|~
DE|-|AR00460036Z114911062X|-|~|2014-09-02 07:47:58|SYSTEM|~|~
DE|-|AR00460036Z114911013X|-|~|2014-09-02 07:47:58|SYSTEM|~|~
DE|-|AR00460036Z114911105X|-|~|2014-09-02 07:47:58|SYSTEM|~|~
UK|-|AR00460036Z115304040A|-|~|2014-09-02 07:47:58|SYSTEM|~|~
DE|-|AR00460036Z114911072X|-|~|2014-09-02 07:47:58|SYSTEM|~|~
DE|-|AR00460036Z115213041X|-|~|2014-09-02 07:47:58|SYSTEM|~|~
DE|-|AR00460036Z115203030X|-|~|2014-09-02 07:47:58|SYSTEM|~|~
DE|-|AR00460036Z114C18044X|-|~|2014-09-02 07:47:58|SYSTEM|~|~
AU|-|AR00460036Z115120027C|-|~|2015-02-25 00:00:00|SYSTEM|~|~
DE|-|AR00460036Z114911028X|-|~|2014-09-02 07:47:58|SYSTEM|~|~
UK|-|AR00460036Z115113021A|-|~|2014-09-02 07:47:58|SYSTEM|~|~
DE|-|AR00460055Z115610085X|-|~|2014-09-02 07:47:58|SYSTEM|~|~
DE|-|AR00460036Z114C18006X|-|~|2014-09-02 07:47:58|SYSTEM|~|~
DE|-|AR00460036Z114911009X|-|~|2014-09-02 07:47:58|SYSTEM|~|~
DE|-|AR00460036Z114101018X|-|~|2014-09-02 07:47:58|SYSTEM|~|~
DE|-|AR00460036Z114911021X|-|~|2014-09-02 07:47:58|SYSTEM|~|~
AU|-|AR00460036Z114911005X|-|~|2015-02-25 00:00:00|SYSTEM|~|~
DE|-|AR00460036Z114911119X|-|~|2014-09-02 07:47:58|SYSTEM|~|~
DE|-|AR00460036Z114911084X|-|~|2014-09-02 07:47:58|SYSTEM|~|~
DE|-|AR00460036Z114101011X|-|~|2014-09-02 07:47:58|SYSTEM|~|~
DE|-|AR00460036Z114911040X|-|~|2014-09-02 07:47:58|SYSTEM|~|~
DE|-|AR00460036Z114827018X|-|~|2014-09-02 07:47:58|SYSTEM|~|~
DE|-|AR00460036Z114911019X|-|~|2014-09-02 07:47:58|SYSTEM|~|~
DE|-|AR00460036Z114901059X|-|~|2014-09-02 07:47:58|SYSTEM|~|~
DE|-|AR00460036Z114911066X|-|~|2014-09-02 07:47:58|SYSTEM|~|~
DE|-|AR00460036Z114101080X|-|~|2014-09-02 07:47:58|SYSTEM|~|~
DE|-|AR00460036Z114101085X|-|~|2014-09-02 07:47:58|SYSTEM|~|~
DE|-|AR00460036Z114812019X|-|~|2014-09-02 07:47:58|SYSTEM|~|~
DE|-|AR00460036Z115213067X|-|~|2014-09-02 07:47:58|SYSTEM|~|~
DE|-|AR00460036Z115310041X|-|~|2014-09-02 07:47:58|SYSTEM|~|~
DE|-|AR00460036Z114911036X|-|~|2014-09-02 07:47:58|SYSTEM|~|~
DE|-|AR00460036Z114C18032X|-|~|2014-09-02 07:47:58|SYSTEM|~|~
DE|-|AR00460036Z115213055X|-|~|2014-09-02 07:47:58|SYSTEM|~|~
DE|-|AR00460036Z115310005X|-|~|2014-09-02 07:47:58|SYSTEM|~|~
DE|-|AR00460036Z115203007X|-|~|2014-09-02 07:47:58|SYSTEM|~|~
DE|-|AR00460036Z115310030X|-|~|2014-09-02 07:47:58|SYSTEM|~|~
DE|-|AR00460036Z115203006X|-|~|2014-09-02 07:47:58|SYSTEM|~|~
UK|-|AR00460036Z114102051A|-|~|2014-09-02 07:47:58|SYSTEM|~|~
DE|-|AR00460036Z114911061X|-|~|2014-09-02 07:47:58|SYSTEM|~|~
DE|-|AR00460036Z115310023X|-|~|2014-09-02 07:47:58|SYSTEM|~|~
DE|-|AR00460036Z114101084X|-|~|2014-09-02 07:47:58|SYSTEM|~|~
DE|-|AR00460036Z114101015X|-|~|2014-09-02 07:47:58|SYSTEM|~|~
UK|-|AR00460036Z114B20019A|-|~|2014-09-02 07:47:58|SYSTEM|~|~
DE|-|AR00460036Z115310040X|-|~|2014-09-02 07:47:58|SYSTEM|~|~
DE|-|AR00460036Z114901064X|-|~|2014-09-02 07:47:58|SYSTEM|~|~
UK|-|AR00460036Z114102015A|-|~|2014-09-02 07:47:58|SYSTEM|~|~
DE|-|AR00460036Z115213072X|-|~|2014-09-02 07:47:58|SYSTEM|~|~
DE|-|AR00460036Z114101041X|-|~|2014-09-02 07:47:58|SYSTEM|~|~
DE|-|AR00460036Z114C18058X|-|~|2014-09-02 07:47:58|SYSTEM|~|~
UK|-|AR00460036Z114102018A|-|~|2014-09-02 07:47:58|SYSTEM|~|~
AU|-|AR00460036Z115120015C|-|~|2015-02-25 00:00:00|SYSTEM|~|~
AU|-|AR00460036Z115120014C|-|~|2015-02-25 00:00:00|SYSTEM|~|~
DE|-|AR00460036Z114C18029X|-|~|2014-09-02 07:47:58|SYSTEM|~|~
DE|-|AR00460036Z114C18009X|-|~|2014-09-02 07:47:58|SYSTEM|~|~
DE|-|AR00460036Z114C18021X|-|~|2014-09-02 07:47:58|SYSTEM|~|~
DE|-|AR00460036Z114827056X|-|~|2014-09-02 07:47:58|SYSTEM|~|~
DE|-|AR00460036Z115310007X|-|~|2014-09-02 07:47:58|SYSTEM|~|~
IT|-|AR00460036Z115609008D|-|~|2015-03-31 06:45:40|SYSTEM|~|~
UK|-|AR00460036Z115217009A|-|~|2014-09-02 07:47:58|SYSTEM|~|~
DE|-|AR00460036Z114901021X|-|~|2014-09-02 07:47:58|SYSTEM|~|~
DE|-|AR00460036Z114901012X|-|~|2014-09-02 07:47:58|SYSTEM|~|~
DE|-|AR00460036Z114827045X|-|~|2014-09-02 07:47:58|SYSTEM|~|~
DE|-|AR00460036Z114827005X|-|~|2014-09-02 07:47:58|SYSTEM|~|~
DE|-|AR00460036Z114827021X|-|~|2014-09-02 07:47:58|SYSTEM|~|~
DE|-|AR00460036Z114101010X|-|~|2014-09-02 07:47:58|SYSTEM|~|~
DE|-|AR00460036Z114911007X|-|~|2014-09-02 07:47:58|SYSTEM|~|~
DE|-|AR00460036Z114901054X|-|~|2014-09-02 07:47:58|SYSTEM|~|~
DE|-|AR00460036Z114812017X|-|~|2014-09-02 07:47:58|SYSTEM|~|~
DE|-|AR00460036Z114911081X|-|~|2014-09-02 07:47:58|SYSTEM|~|~
DE|-|AR00460036Z114101002X|-|~|2014-09-02 07:47:58|SYSTEM|~|~
